waveforms/sad_auxiliary.vcd
$date
  Thu May 31 12:47:27 2018
$end
$version
  GHDL v0
$end
$timescale
  1 fs
$end
$var reg 8 ! pa[7:0] $end
$var reg 8 " pb[7:0] $end
$var reg 1 # clk $end
$var reg 1 $ reset $end
$var reg 1 % enable $end
$var reg 1 & testing $end
$var integer 32 ' clk_cycle $end
$scope module sad_port $end
$var reg 1 ( clk $end
$var reg 1 ) rst $end
$var reg 8 * pa[7:0] $end
$var reg 8 + pb[7:0] $end
$var reg 1 , en $end
$var reg 16 - sad[15:0] $end
$var reg 1 . data_valid $end
$var reg 8 / padding[7:0] $end
$var reg 8 0 pa_to_sub_nbit[7:0] $end
$var reg 8 1 pb_to_sub_nbit[7:0] $end
$var reg 8 2 sub_out_nbits[7:0] $end
$var reg 16 3 pa_in[15:0] $end
$var reg 1 4 counter_in $end
$var reg 16 5 pa_out[15:0] $end
$var reg 16 6 mux_to_reg_out_wire[15:0] $end
$var reg 1 7 rst_input_registers $end
$var reg 16 8 sad_wire[15:0] $end
$var reg 1 9 tc_wire $end
$var reg 1 : hold_wire $end
$scope module reg_pa $end
$var reg 1 ; clk $end
$var reg 1 < rst $end
$var reg 8 = d[7:0] $end
$var reg 8 > q[7:0] $end
$scope module reg_gen(0) $end
$scope module i_dff $end
$var reg 1 ? clk $end
$var reg 1 @ rst $end
$var reg 1 A d $end
$var reg 1 B q $end
$upscope $end
$upscope $end
$scope module reg_gen(1) $end
$scope module i_dff $end
$var reg 1 C clk $end
$var reg 1 D rst $end
$var reg 1 E d $end
$var reg 1 F q $end
$upscope $end
$upscope $end
$scope module reg_gen(2) $end
$scope module i_dff $end
$var reg 1 G clk $end
$var reg 1 H rst $end
$var reg 1 I d $end
$var reg 1 J q $end
$upscope $end
$upscope $end
$scope module reg_gen(3) $end
$scope module i_dff $end
$var reg 1 K clk $end
$var reg 1 L rst $end
$var reg 1 M d $end
$var reg 1 N q $end
$upscope $end
$upscope $end
$scope module reg_gen(4) $end
$scope module i_dff $end
$var reg 1 O clk $end
$var reg 1 P rst $end
$var reg 1 Q d $end
$var reg 1 R q $end
$upscope $end
$upscope $end
$scope module reg_gen(5) $end
$scope module i_dff $end
$var reg 1 S clk $end
$var reg 1 T rst $end
$var reg 1 U d $end
$var reg 1 V q $end
$upscope $end
$upscope $end
$scope module reg_gen(6) $end
$scope module i_dff $end
$var reg 1 W clk $end
$var reg 1 X rst $end
$var reg 1 Y d $end
$var reg 1 Z q $end
$upscope $end
$upscope $end
$scope module reg_gen(7) $end
$scope module i_dff $end
$var reg 1 [ clk $end
$var reg 1 \ rst $end
$var reg 1 ] d $end
$var reg 1 ^ q $end
$upscope $end
$upscope $end
$upscope $end
$scope module reg_pb $end
$var reg 1 _ clk $end
$var reg 1 ` rst $end
$var reg 8 a d[7:0] $end
$var reg 8 b q[7:0] $end
$scope module reg_gen(0) $end
$scope module i_dff $end
$var reg 1 c clk $end
$var reg 1 d rst $end
$var reg 1 e d $end
$var reg 1 f q $end
$upscope $end
$upscope $end
$scope module reg_gen(1) $end
$scope module i_dff $end
$var reg 1 g clk $end
$var reg 1 h rst $end
$var reg 1 i d $end
$var reg 1 j q $end
$upscope $end
$upscope $end
$scope module reg_gen(2) $end
$scope module i_dff $end
$var reg 1 k clk $end
$var reg 1 l rst $end
$var reg 1 m d $end
$var reg 1 n q $end
$upscope $end
$upscope $end
$scope module reg_gen(3) $end
$scope module i_dff $end
$var reg 1 o clk $end
$var reg 1 p rst $end
$var reg 1 q d $end
$var reg 1 r q $end
$upscope $end
$upscope $end
$scope module reg_gen(4) $end
$scope module i_dff $end
$var reg 1 s clk $end
$var reg 1 t rst $end
$var reg 1 u d $end
$var reg 1 v q $end
$upscope $end
$upscope $end
$scope module reg_gen(5) $end
$scope module i_dff $end
$var reg 1 w clk $end
$var reg 1 x rst $end
$var reg 1 y d $end
$var reg 1 z q $end
$upscope $end
$upscope $end
$scope module reg_gen(6) $end
$scope module i_dff $end
$var reg 1 { clk $end
$var reg 1 | rst $end
$var reg 1 } d $end
$var reg 1 !" q $end
$upscope $end
$upscope $end
$scope module reg_gen(7) $end
$scope module i_dff $end
$var reg 1 "" clk $end
$var reg 1 #" rst $end
$var reg 1 $" d $end
$var reg 1 %" q $end
$upscope $end
$upscope $end
$upscope $end
$scope module gen_padding(0) $end
$upscope $end
$scope module gen_padding(1) $end
$upscope $end
$scope module gen_padding(2) $end
$upscope $end
$scope module gen_padding(3) $end
$upscope $end
$scope module gen_padding(4) $end
$upscope $end
$scope module gen_padding(5) $end
$upscope $end
$scope module gen_padding(6) $end
$upscope $end
$scope module gen_padding(7) $end
$upscope $end
$scope module sub $end
$var reg 8 &" a[7:0] $end
$var reg 8 '" b[7:0] $end
$var reg 8 (" s[7:0] $end
$upscope $end
$scope module phaseacc $end
$var reg 1 )" clk $end
$var reg 1 *" rst $end
$var reg 16 +" pa_in[15:0] $end
$var reg 16 ," pa_out[15:0] $end
$var reg 16 -" kfw_s[15:0] $end
$var reg 16 ." kfw_next[15:0] $end
$scope module i_adder $end
$var reg 16 /" x[15:0] $end
$var reg 16 0" y[15:0] $end
$var reg 1 1" c0 $end
$var reg 16 2" s[15:0] $end
$var reg 1 3" cn $end
$var reg 17 4" c[16:0] $end
$scope module gen_rca(0) $end
$scope module i_fa $end
$var reg 1 5" x $end
$var reg 1 6" y $end
$var reg 1 7" cin $end
$var reg 1 8" s $end
$var reg 1 9" cout $end
$upscope $end
$upscope $end
$scope module gen_rca(1) $end
$scope module i_fa $end
$var reg 1 :" x $end
$var reg 1 ;" y $end
$var reg 1 <" cin $end
$var reg 1 =" s $end
$var reg 1 >" cout $end
$upscope $end
$upscope $end
$scope module gen_rca(2) $end
$scope module i_fa $end
$var reg 1 ?" x $end
$var reg 1 @" y $end
$var reg 1 A" cin $end
$var reg 1 B" s $end
$var reg 1 C" cout $end
$upscope $end
$upscope $end
$scope module gen_rca(3) $end
$scope module i_fa $end
$var reg 1 D" x $end
$var reg 1 E" y $end
$var reg 1 F" cin $end
$var reg 1 G" s $end
$var reg 1 H" cout $end
$upscope $end
$upscope $end
$scope module gen_rca(4) $end
$scope module i_fa $end
$var reg 1 I" x $end
$var reg 1 J" y $end
$var reg 1 K" cin $end
$var reg 1 L" s $end
$var reg 1 M" cout $end
$upscope $end
$upscope $end
$scope module gen_rca(5) $end
$scope module i_fa $end
$var reg 1 N" x $end
$var reg 1 O" y $end
$var reg 1 P" cin $end
$var reg 1 Q" s $end
$var reg 1 R" cout $end
$upscope $end
$upscope $end
$scope module gen_rca(6) $end
$scope module i_fa $end
$var reg 1 S" x $end
$var reg 1 T" y $end
$var reg 1 U" cin $end
$var reg 1 V" s $end
$var reg 1 W" cout $end
$upscope $end
$upscope $end
$scope module gen_rca(7) $end
$scope module i_fa $end
$var reg 1 X" x $end
$var reg 1 Y" y $end
$var reg 1 Z" cin $end
$var reg 1 [" s $end
$var reg 1 \" cout $end
$upscope $end
$upscope $end
$scope module gen_rca(8) $end
$scope module i_fa $end
$var reg 1 ]" x $end
$var reg 1 ^" y $end
$var reg 1 _" cin $end
$var reg 1 `" s $end
$var reg 1 a" cout $end
$upscope $end
$upscope $end
$scope module gen_rca(9) $end
$scope module i_fa $end
$var reg 1 b" x $end
$var reg 1 c" y $end
$var reg 1 d" cin $end
$var reg 1 e" s $end
$var reg 1 f" cout $end
$upscope $end
$upscope $end
$scope module gen_rca(10) $end
$scope module i_fa $end
$var reg 1 g" x $end
$var reg 1 h" y $end
$var reg 1 i" cin $end
$var reg 1 j" s $end
$var reg 1 k" cout $end
$upscope $end
$upscope $end
$scope module gen_rca(11) $end
$scope module i_fa $end
$var reg 1 l" x $end
$var reg 1 m" y $end
$var reg 1 n" cin $end
$var reg 1 o" s $end
$var reg 1 p" cout $end
$upscope $end
$upscope $end
$scope module gen_rca(12) $end
$scope module i_fa $end
$var reg 1 q" x $end
$var reg 1 r" y $end
$var reg 1 s" cin $end
$var reg 1 t" s $end
$var reg 1 u" cout $end
$upscope $end
$upscope $end
$scope module gen_rca(13) $end
$scope module i_fa $end
$var reg 1 v" x $end
$var reg 1 w" y $end
$var reg 1 x" cin $end
$var reg 1 y" s $end
$var reg 1 z" cout $end
$upscope $end
$upscope $end
$scope module gen_rca(14) $end
$scope module i_fa $end
$var reg 1 {" x $end
$var reg 1 |" y $end
$var reg 1 }" cin $end
$var reg 1 !# s $end
$var reg 1 "# cout $end
$upscope $end
$upscope $end
$scope module gen_rca(15) $end
$scope module i_fa $end
$var reg 1 ## x $end
$var reg 1 $# y $end
$var reg 1 %# cin $end
$var reg 1 &# s $end
$var reg 1 '# cout $end
$upscope $end
$upscope $end
$upscope $end
$scope module i_reg $end
$var reg 1 (# clk $end
$var reg 1 )# rst $end
$var reg 16 *# d[15:0] $end
$var reg 16 +# q[15:0] $end
$scope module reg_gen(0) $end
$scope module i_dff $end
$var reg 1 ,# clk $end
$var reg 1 -# rst $end
$var reg 1 .# d $end
$var reg 1 /# q $end
$upscope $end
$upscope $end
$scope module reg_gen(1) $end
$scope module i_dff $end
$var reg 1 0# clk $end
$var reg 1 1# rst $end
$var reg 1 2# d $end
$var reg 1 3# q $end
$upscope $end
$upscope $end
$scope module reg_gen(2) $end
$scope module i_dff $end
$var reg 1 4# clk $end
$var reg 1 5# rst $end
$var reg 1 6# d $end
$var reg 1 7# q $end
$upscope $end
$upscope $end
$scope module reg_gen(3) $end
$scope module i_dff $end
$var reg 1 8# clk $end
$var reg 1 9# rst $end
$var reg 1 :# d $end
$var reg 1 ;# q $end
$upscope $end
$upscope $end
$scope module reg_gen(4) $end
$scope module i_dff $end
$var reg 1 <# clk $end
$var reg 1 =# rst $end
$var reg 1 ># d $end
$var reg 1 ?# q $end
$upscope $end
$upscope $end
$scope module reg_gen(5) $end
$scope module i_dff $end
$var reg 1 @# clk $end
$var reg 1 A# rst $end
$var reg 1 B# d $end
$var reg 1 C# q $end
$upscope $end
$upscope $end
$scope module reg_gen(6) $end
$scope module i_dff $end
$var reg 1 D# clk $end
$var reg 1 E# rst $end
$var reg 1 F# d $end
$var reg 1 G# q $end
$upscope $end
$upscope $end
$scope module reg_gen(7) $end
$scope module i_dff $end
$var reg 1 H# clk $end
$var reg 1 I# rst $end
$var reg 1 J# d $end
$var reg 1 K# q $end
$upscope $end
$upscope $end
$scope module reg_gen(8) $end
$scope module i_dff $end
$var reg 1 L# clk $end
$var reg 1 M# rst $end
$var reg 1 N# d $end
$var reg 1 O# q $end
$upscope $end
$upscope $end
$scope module reg_gen(9) $end
$scope module i_dff $end
$var reg 1 P# clk $end
$var reg 1 Q# rst $end
$var reg 1 R# d $end
$var reg 1 S# q $end
$upscope $end
$upscope $end
$scope module reg_gen(10) $end
$scope module i_dff $end
$var reg 1 T# clk $end
$var reg 1 U# rst $end
$var reg 1 V# d $end
$var reg 1 W# q $end
$upscope $end
$upscope $end
$scope module reg_gen(11) $end
$scope module i_dff $end
$var reg 1 X# clk $end
$var reg 1 Y# rst $end
$var reg 1 Z# d $end
$var reg 1 [# q $end
$upscope $end
$upscope $end
$scope module reg_gen(12) $end
$scope module i_dff $end
$var reg 1 \# clk $end
$var reg 1 ]# rst $end
$var reg 1 ^# d $end
$var reg 1 _# q $end
$upscope $end
$upscope $end
$scope module reg_gen(13) $end
$scope module i_dff $end
$var reg 1 `# clk $end
$var reg 1 a# rst $end
$var reg 1 b# d $end
$var reg 1 c# q $end
$upscope $end
$upscope $end
$scope module reg_gen(14) $end
$scope module i_dff $end
$var reg 1 d# clk $end
$var reg 1 e# rst $end
$var reg 1 f# d $end
$var reg 1 g# q $end
$upscope $end
$upscope $end
$scope module reg_gen(15) $end
$scope module i_dff $end
$var reg 1 h# clk $end
$var reg 1 i# rst $end
$var reg 1 j# d $end
$var reg 1 k# q $end
$upscope $end
$upscope $end
$upscope $end
$upscope $end
$scope module mux1 $end
$var reg 16 l# i0[15:0] $end
$var reg 16 m# i1[15:0] $end
$var reg 1 n# s $end
$var reg 16 o# f[15:0] $end
$upscope $end
$scope module reg_out $end
$var reg 1 p# clk $end
$var reg 1 q# rst $end
$var reg 16 r# d[15:0] $end
$var reg 16 s# q[15:0] $end
$scope module reg_gen(0) $end
$scope module i_dff $end
$var reg 1 t# clk $end
$var reg 1 u# rst $end
$var reg 1 v# d $end
$var reg 1 w# q $end
$upscope $end
$upscope $end
$scope module reg_gen(1) $end
$scope module i_dff $end
$var reg 1 x# clk $end
$var reg 1 y# rst $end
$var reg 1 z# d $end
$var reg 1 {# q $end
$upscope $end
$upscope $end
$scope module reg_gen(2) $end
$scope module i_dff $end
$var reg 1 |# clk $end
$var reg 1 }# rst $end
$var reg 1 !$ d $end
$var reg 1 "$ q $end
$upscope $end
$upscope $end
$scope module reg_gen(3) $end
$scope module i_dff $end
$var reg 1 #$ clk $end
$var reg 1 $$ rst $end
$var reg 1 %$ d $end
$var reg 1 &$ q $end
$upscope $end
$upscope $end
$scope module reg_gen(4) $end
$scope module i_dff $end
$var reg 1 '$ clk $end
$var reg 1 ($ rst $end
$var reg 1 )$ d $end
$var reg 1 *$ q $end
$upscope $end
$upscope $end
$scope module reg_gen(5) $end
$scope module i_dff $end
$var reg 1 +$ clk $end
$var reg 1 ,$ rst $end
$var reg 1 -$ d $end
$var reg 1 .$ q $end
$upscope $end
$upscope $end
$scope module reg_gen(6) $end
$scope module i_dff $end
$var reg 1 /$ clk $end
$var reg 1 0$ rst $end
$var reg 1 1$ d $end
$var reg 1 2$ q $end
$upscope $end
$upscope $end
$scope module reg_gen(7) $end
$scope module i_dff $end
$var reg 1 3$ clk $end
$var reg 1 4$ rst $end
$var reg 1 5$ d $end
$var reg 1 6$ q $end
$upscope $end
$upscope $end
$scope module reg_gen(8) $end
$scope module i_dff $end
$var reg 1 7$ clk $end
$var reg 1 8$ rst $end
$var reg 1 9$ d $end
$var reg 1 :$ q $end
$upscope $end
$upscope $end
$scope module reg_gen(9) $end
$scope module i_dff $end
$var reg 1 ;$ clk $end
$var reg 1 <$ rst $end
$var reg 1 =$ d $end
$var reg 1 >$ q $end
$upscope $end
$upscope $end
$scope module reg_gen(10) $end
$scope module i_dff $end
$var reg 1 ?$ clk $end
$var reg 1 @$ rst $end
$var reg 1 A$ d $end
$var reg 1 B$ q $end
$upscope $end
$upscope $end
$scope module reg_gen(11) $end
$scope module i_dff $end
$var reg 1 C$ clk $end
$var reg 1 D$ rst $end
$var reg 1 E$ d $end
$var reg 1 F$ q $end
$upscope $end
$upscope $end
$scope module reg_gen(12) $end
$scope module i_dff $end
$var reg 1 G$ clk $end
$var reg 1 H$ rst $end
$var reg 1 I$ d $end
$var reg 1 J$ q $end
$upscope $end
$upscope $end
$scope module reg_gen(13) $end
$scope module i_dff $end
$var reg 1 K$ clk $end
$var reg 1 L$ rst $end
$var reg 1 M$ d $end
$var reg 1 N$ q $end
$upscope $end
$upscope $end
$scope module reg_gen(14) $end
$scope module i_dff $end
$var reg 1 O$ clk $end
$var reg 1 P$ rst $end
$var reg 1 Q$ d $end
$var reg 1 R$ q $end
$upscope $end
$upscope $end
$scope module reg_gen(15) $end
$scope module i_dff $end
$var reg 1 S$ clk $end
$var reg 1 T$ rst $end
$var reg 1 U$ d $end
$var reg 1 V$ q $end
$upscope $end
$upscope $end
$upscope $end
$scope module siso $end
$var reg 1 W$ si $end
$var reg 1 X$ clk $end
$var reg 1 Y$ rst $end
$var reg 1 Z$ so $end
$var reg 4 [$ wire[3:0] $end
$scope module sisogen(0) $end
$scope module i_dff $end
$var reg 1 \$ clk $end
$var reg 1 ]$ rst $end
$var reg 1 ^$ d $end
$var reg 1 _$ q $end
$upscope $end
$upscope $end
$scope module sisogen(1) $end
$scope module i_dff $end
$var reg 1 `$ clk $end
$var reg 1 a$ rst $end
$var reg 1 b$ d $end
$var reg 1 c$ q $end
$upscope $end
$upscope $end
$scope module sisogen(2) $end
$scope module i_dff $end
$var reg 1 d$ clk $end
$var reg 1 e$ rst $end
$var reg 1 f$ d $end
$var reg 1 g$ q $end
$upscope $end
$upscope $end
$upscope $end
$scope module cnt $end
$var reg 1 h$ count_puls $end
$var reg 1 i$ count_enable $end
$var reg 1 j$ rst $end
$var reg 1 k$ tc $end
$upscope $end
$upscope $end
$enddefinitions $end
#0
b00000001 !
b00000000 "
0#
0$
1%
1&
b0 '
0(
0)
b00000001 *
b00000000 +
1,
bUUUUUUUUUUUUUUUU -
U.
b00000000 /
bUUUUUUUU 0
bUUUUUUUU 1
bXXXXXXXX 2
b00000000XXXXXXXX 3
U4
bUUUUUUUUUUUUUUUU 5
bUUUUUUUUUUUUUUUU 6
07
bUUUUUUUUUUUUUUUU 8
U9
U:
0;
0<
b00000001 =
bUUUUUUUU >
0?
0@
1A
UB
0C
0D
0E
UF
0G
0H
0I
UJ
0K
0L
0M
UN
0O
0P
0Q
UR
0S
0T
0U
UV
0W
0X
0Y
UZ
0[
0\
0]
U^
0_
0`
b00000000 a
bUUUUUUUU b
0c
0d
0e
Uf
0g
0h
0i
Uj
0k
0l
0m
Un
0o
0p
0q
Ur
0s
0t
0u
Uv
0w
0x
0y
Uz
0{
0|
0}
U!"
0""
0#"
0$"
U%"
bUUUUUUUU &"
bUUUUUUUU '"
bXXXXXXXX ("
0)"
0*"
b00000000XXXXXXXX +"
bUUUUUUUUUUUUUUUU ,"
bUUUUUUUUUUUUUUUU -"
bUUUUUUUUUUUUUUUU ."
b00000000XXXXXXXX /"
bUUUUUUUUUUUUUUUU 0"
01"
bUUUUUUUUUUUUUUUU 2"
U3"
bUUUUUUUUUUUUUUUU0 4"
X5"
U6"
07"
U8"
U9"
X:"
U;"
U<"
U="
U>"
X?"
U@"
UA"
UB"
UC"
XD"
UE"
UF"
UG"
UH"
XI"
UJ"
UK"
UL"
UM"
XN"
UO"
UP"
UQ"
UR"
XS"
UT"
UU"
UV"
UW"
XX"
UY"
UZ"
U["
U\"
0]"
U^"
U_"
U`"
Ua"
0b"
Uc"
Ud"
Ue"
Uf"
0g"
Uh"
Ui"
Uj"
Uk"
0l"
Um"
Un"
Uo"
Up"
0q"
Ur"
Us"
Ut"
Uu"
0v"
Uw"
Ux"
Uy"
Uz"
0{"
U|"
U}"
U!#
U"#
0##
U$#
U%#
U&#
U'#
0(#
0)#
bUUUUUUUUUUUUUUUU *#
bUUUUUUUUUUUUUUUU +#
0,#
0-#
U.#
U/#
00#
01#
U2#
U3#
04#
05#
U6#
U7#
08#
09#
U:#
U;#
0<#
0=#
U>#
U?#
0@#
0A#
UB#
UC#
0D#
0E#
UF#
UG#
0H#
0I#
UJ#
UK#
0L#
0M#
UN#
UO#
0P#
0Q#
UR#
US#
0T#
0U#
UV#
UW#
0X#
0Y#
UZ#
U[#
0\#
0]#
U^#
U_#
0`#
0a#
Ub#
Uc#
0d#
0e#
Uf#
Ug#
0h#
0i#
Uj#
Uk#
bUUUUUUUUUUUUUUUU l#
bUUUUUUUUUUUUUUUU m#
Un#
bUUUUUUUUUUUUUUUU o#
0p#
0q#
bUUUUUUUUUUUUUUUU r#
bUUUUUUUUUUUUUUUU s#
0t#
0u#
Uv#
Uw#
0x#
0y#
Uz#
U{#
0|#
0}#
U!$
U"$
0#$
0$$
U%$
U&$
0'$
0($
U)$
U*$
0+$
0,$
U-$
U.$
0/$
00$
U1$
U2$
03$
04$
U5$
U6$
07$
08$
U9$
U:$
0;$
0<$
U=$
U>$
0?$
0@$
UA$
UB$
0C$
0D$
UE$
UF$
0G$
0H$
UI$
UJ$
0K$
0L$
UM$
UN$
0O$
0P$
UQ$
UR$
0S$
0T$
UU$
UV$
1W$
0X$
0Y$
UZ$
bUUU1 [$
0\$
0]$
1^$
U_$
0`$
0a$
Ub$
Uc$
0d$
0e$
Uf$
Ug$
0h$
Ui$
0j$
Uk$
#100000000
1#
b1 '
1(
b00000001 0
b00000000 1
b00000001 2
b0000000000000001 3
1;
b00000001 >
1?
1B
1C
0F
1G
0J
1K
0N
1O
0R
1S
0V
1W
0Z
1[
0^
1_
b00000000 b
1c
0f
1g
0j
1k
0n
1o
0r
1s
0v
1w
0z
1{
0!"
1""
0%"
b00000001 &"
b00000000 '"
b00000001 ("
1)"
b0000000000000001 +"
b0000000000000001 /"
15"
0:"
0?"
0D"
0I"
0N"
0S"
0X"
1(#
1,#
10#
14#
18#
1<#
1@#
1D#
1H#
1L#
1P#
1T#
1X#
1\#
1`#
1d#
1h#
1p#
1t#
1x#
1|#
1#$
1'$
1+$
1/$
13$
17$
1;$
1?$
1C$
1G$
1K$
1O$
1S$
1X$
bUU11 [$
1\$
1_$
1`$
1b$
1d$
1h$
#200000000
0#
0(
0;
0?
0C
0G
0K
0O
0S
0W
0[
0_
0c
0g
0k
0o
0s
0w
0{
0""
0)"
0(#
0,#
00#
04#
08#
0<#
0@#
0D#
0H#
0L#
0P#
0T#
0X#
0\#
0`#
0d#
0h#
0p#
0t#
0x#
0|#
0#$
0'$
0+$
0/$
03$
07$
0;$
0?$
0C$
0G$
0K$
0O$
0S$
0X$
0\$
0`$
0d$
0h$
#300000000
1#
1$
b10 '
1(
1)
b0000000000000000 -
b00000000 0
b00000000 2
b0000000000000000 3
04
b0000000000000000 5
b0000000000000000 6
17
b0000000000000000 8
1;
1<
b00000000 >
1?
1@
0B
1C
1D
1G
1H
1K
1L
1O
1P
1S
1T
1W
1X
1[
1\
1_
1`
1c
1d
1g
1h
1k
1l
1o
1p
1s
1t
1w
1x
1{
1|
1""
1#"
b00000000 &"
b00000000 ("
1)"
1*"
b0000000000000000 +"
b0000000000000000 ,"
b0000000000000000 -"
b0000000000000000 ."
b0000000000000000 /"
b0000000000000000 0"
b0000000000000000 2"
03"
b00000000000000000 4"
05"
06"
08"
09"
0;"
0<"
0="
0>"
0@"
0A"
0B"
0C"
0E"
0F"
0G"
0H"
0J"
0K"
0L"
0M"
0O"
0P"
0Q"
0R"
0T"
0U"
0V"
0W"
0Y"
0Z"
0["
0\"
0^"
0_"
0`"
0a"
0c"
0d"
0e"
0f"
0h"
0i"
0j"
0k"
0m"
0n"
0o"
0p"
0r"
0s"
0t"
0u"
0w"
0x"
0y"
0z"
0|"
0}"
0!#
0"#
0$#
0%#
0&#
0'#
1(#
1)#
b0000000000000000 *#
b0000000000000000 +#
1,#
1-#
0.#
0/#
10#
11#
02#
03#
14#
15#
06#
07#
18#
19#
0:#
0;#
1<#
1=#
0>#
0?#
1@#
1A#
0B#
0C#
1D#
1E#
0F#
0G#
1H#
1I#
0J#
0K#
1L#
1M#
0N#
0O#
1P#
1Q#
0R#
0S#
1T#
1U#
0V#
0W#
1X#
1Y#
0Z#
0[#
1\#
1]#
0^#
0_#
1`#
1a#
0b#
0c#
1d#
1e#
0f#
0g#
1h#
1i#
0j#
0k#
b0000000000000000 l#
b0000000000000000 m#
b0000000000000000 o#
1p#
1q#
b0000000000000000 r#
b0000000000000000 s#
1t#
1u#
0v#
0w#
1x#
1y#
0z#
0{#
1|#
1}#
0!$
0"$
1#$
1$$
0%$
0&$
1'$
1($
0)$
0*$
1+$
1,$
0-$
0.$
1/$
10$
01$
02$
13$
14$
05$
06$
17$
18$
09$
0:$
1;$
1<$
0=$
0>$
1?$
1@$
0A$
0B$
1C$
1D$
0E$
0F$
1G$
1H$
0I$
0J$
1K$
1L$
0M$
0N$
1O$
1P$
0Q$
0R$
1S$
1T$
0U$
0V$
1X$
1Y$
0Z$
b0001 [$
1\$
1]$
0_$
1`$
1a$
0b$
0c$
1d$
1e$
0f$
0g$
1h$
0i$
1j$
#400000000
0#
0(
0;
0?
0C
0G
0K
0O
0S
0W
0[
0_
0c
0g
0k
0o
0s
0w
0{
0""
0)"
0(#
0,#
00#
04#
08#
0<#
0@#
0D#
0H#
0L#
0P#
0T#
0X#
0\#
0`#
0d#
0h#
0p#
0t#
0x#
0|#
0#$
0'$
0+$
0/$
03$
07$
0;$
0?$
0C$
0G$
0K$
0O$
0S$
0X$
0\$
0`$
0d$
0h$
#500000000
1#
b11 '
1(
0.
09
0:
1;
1?
1C
1G
1K
1O
1S
1W
1[
1_
1c
1g
1k
1o
1s
1w
1{
1""
1)"
1(#
1,#
10#
14#
18#
1<#
1@#
1D#
1H#
1L#
1P#
1T#
1X#
1\#
1`#
1d#
1h#
0n#
1p#
1t#
1x#
1|#
1#$
1'$
1+$
1/$
13$
17$
1;$
1?$
1C$
1G$
1K$
1O$
1S$
1X$
1\$
1`$
1d$
1h$
0k$
#600000000
0#
0$
0(
0)
07
0;
0<
0?
0@
0C
0D
0G
0H
0K
0L
0O
0P
0S
0T
0W
0X
0[
0\
0_
0`
0c
0d
0g
0h
0k
0l
0o
0p
0s
0t
0w
0x
0{
0|
0""
0#"
0)"
0*"
0(#
0)#
0,#
0-#
00#
01#
04#
05#
08#
09#
0<#
0=#
0@#
0A#
0D#
0E#
0H#
0I#
0L#
0M#
0P#
0Q#
0T#
0U#
0X#
0Y#
0\#
0]#
0`#
0a#
0d#
0e#
0h#
0i#
0p#
0q#
0t#
0u#
0x#
0y#
0|#
0}#
0#$
0$$
0'$
0($
0+$
0,$
0/$
00$
03$
04$
07$
08$
0;$
0<$
0?$
0@$
0C$
0D$
0G$
0H$
0K$
0L$
0O$
0P$
0S$
0T$
0X$
0Y$
0\$
0]$
0`$
0a$
0d$
0e$
0h$
0j$
#700000000
1#
b100 '
1(
b00000001 0
b00000001 2
b0000000000000001 3
1;
b00000001 >
1?
1B
1C
1G
1K
1O
1S
1W
1[
1_
1c
1g
1k
1o
1s
1w
1{
1""
b00000001 &"
b00000001 ("
1)"
b0000000000000001 +"
b0000000000000001 ."
b0000000000000001 /"
b0000000000000001 2"
15"
18"
1(#
b0000000000000001 *#
1,#
1.#
10#
14#
18#
1<#
1@#
1D#
1H#
1L#
1P#
1T#
1X#
1\#
1`#
1d#
1h#
1p#
1t#
1x#
1|#
1#$
1'$
1+$
1/$
13$
17$
1;$
1?$
1C$
1G$
1K$
1O$
1S$
1X$
b0011 [$
1\$
1_$
1`$
1b$
1d$
1h$
#800000000
0#
0(
0;
0?
0C
0G
0K
0O
0S
0W
0[
0_
0c
0g
0k
0o
0s
0w
0{
0""
0)"
0(#
0,#
00#
04#
08#
0<#
0@#
0D#
0H#
0L#
0P#
0T#
0X#
0\#
0`#
0d#
0h#
0p#
0t#
0x#
0|#
0#$
0'$
0+$
0/$
03$
07$
0;$
0?$
0C$
0G$
0K$
0O$
0S$
0X$
0\$
0`$
0d$
0h$
#900000000
1#
b101 '
1(
b0000000000000001 5
b0000000000000001 6
1;
1?
1C
1G
1K
1O
1S
1W
1[
1_
1c
1g
1k
1o
1s
1w
1{
1""
1)"
b0000000000000001 ,"
b0000000000000001 -"
b0000000000000010 ."
b0000000000000001 0"
b0000000000000010 2"
b00000000000000010 4"
16"
08"
19"
1<"
1="
1(#
b0000000000000010 *#
b0000000000000001 +#
1,#
0.#
1/#
10#
12#
14#
18#
1<#
1@#
1D#
1H#
1L#
1P#
1T#
1X#
1\#
1`#
1d#
1h#
b0000000000000001 l#
b0000000000000001 o#
1p#
b0000000000000001 r#
1t#
1v#
1x#
1|#
1#$
1'$
1+$
1/$
13$
17$
1;$
1?$
1C$
1G$
1K$
1O$
1S$
1X$
b0111 [$
1\$
1`$
1c$
1d$
1f$
1h$
#1000000000
0#
0(
0;
0?
0C
0G
0K
0O
0S
0W
0[
0_
0c
0g
0k
0o
0s
0w
0{
0""
0)"
0(#
0,#
00#
04#
08#
0<#
0@#
0D#
0H#
0L#
0P#
0T#
0X#
0\#
0`#
0d#
0h#
0p#
0t#
0x#
0|#
0#$
0'$
0+$
0/$
03$
07$
0;$
0?$
0C$
0G$
0K$
0O$
0S$
0X$
0\$
0`$
0d$
0h$
#1100000000
1#
b110 '
1(
b0000000000000001 -
14
b0000000000000010 5
b0000000000000010 6
b0000000000000001 8
1;
1?
1C
1G
1K
1O
1S
1W
1[
1_
1c
1g
1k
1o
1s
1w
1{
1""
1)"
b0000000000000010 ,"
b0000000000000010 -"
b0000000000000011 ."
b0000000000000010 0"
b0000000000000011 2"
b00000000000000000 4"
06"
18"
09"
1;"
0<"
1="
0>"
0A"
0B"
1(#
b0000000000000011 *#
b0000000000000010 +#
1,#
1.#
0/#
10#
12#
13#
14#
06#
18#
1<#
1@#
1D#
1H#
1L#
1P#
1T#
1X#
1\#
1`#
1d#
1h#
b0000000000000010 l#
b0000000000000001 m#
b0000000000000010 o#
1p#
b0000000000000010 r#
b0000000000000001 s#
1t#
0v#
1w#
1x#
1z#
1|#
1#$
1'$
1+$
1/$
13$
17$
1;$
1?$
1C$
1G$
1K$
1O$
1S$
1X$
1Z$
b1111 [$
1\$
1`$
1d$
1g$
1h$
1i$
#1200000000
0#
0(
0;
0?
0C
0G
0K
0O
0S
0W
0[
0_
0c
0g
0k
0o
0s
0w
0{
0""
0)"
0(#
0,#
00#
04#
08#
0<#
0@#
0D#
0H#
0L#
0P#
0T#
0X#
0\#
0`#
0d#
0h#
0p#
0t#
0x#
0|#
0#$
0'$
0+$
0/$
03$
07$
0;$
0?$
0C$
0G$
0K$
0O$
0S$
0X$
0\$
0`$
0d$
0h$
