waveforms/tb2_SAD.vcd
$date
  Tue Jun  5 08:30:59 2018
$end
$version
  GHDL v0
$end
$timescale
  1 fs
$end
$var reg 1 ! clk $end
$var reg 1 " reset $end
$var reg 1 # enable $end
$var reg 8 $ pa[7:0] $end
$var reg 8 % pb[7:0] $end
$var reg 1 & testing $end
$scope module sad_i $end
$var reg 1 ' clk $end
$var reg 1 ( rst $end
$var reg 8 ) pa[7:0] $end
$var reg 8 * pb[7:0] $end
$var reg 1 + en $end
$var reg 16 , sad[15:0] $end
$var reg 1 - data_valid $end
$var reg 8 . padding[7:0] $end
$var reg 8 / pa_to_sub_nbit[7:0] $end
$var reg 8 0 pb_to_sub_nbit[7:0] $end
$var reg 8 1 sub_out_nbits[7:0] $end
$var reg 16 2 pa_in[15:0] $end
$var reg 1 3 counter_in $end
$var reg 16 4 pa_out[15:0] $end
$var reg 16 5 mux_to_reg_out_wire[15:0] $end
$var reg 1 6 rst_input_registers $end
$var reg 16 7 sad_wire[15:0] $end
$var reg 1 8 tc_wire $end
$var reg 1 9 hold_wire $end
$scope module reg_pa $end
$var reg 1 : clk $end
$var reg 1 ; rst $end
$var reg 8 < d[7:0] $end
$var reg 8 = q[7:0] $end
$scope module reg_gen(0) $end
$scope module i_dff $end
$var reg 1 > clk $end
$var reg 1 ? rst $end
$var reg 1 @ d $end
$var reg 1 A q $end
$upscope $end
$upscope $end
$scope module reg_gen(1) $end
$scope module i_dff $end
$var reg 1 B clk $end
$var reg 1 C rst $end
$var reg 1 D d $end
$var reg 1 E q $end
$upscope $end
$upscope $end
$scope module reg_gen(2) $end
$scope module i_dff $end
$var reg 1 F clk $end
$var reg 1 G rst $end
$var reg 1 H d $end
$var reg 1 I q $end
$upscope $end
$upscope $end
$scope module reg_gen(3) $end
$scope module i_dff $end
$var reg 1 J clk $end
$var reg 1 K rst $end
$var reg 1 L d $end
$var reg 1 M q $end
$upscope $end
$upscope $end
$scope module reg_gen(4) $end
$scope module i_dff $end
$var reg 1 N clk $end
$var reg 1 O rst $end
$var reg 1 P d $end
$var reg 1 Q q $end
$upscope $end
$upscope $end
$scope module reg_gen(5) $end
$scope module i_dff $end
$var reg 1 R clk $end
$var reg 1 S rst $end
$var reg 1 T d $end
$var reg 1 U q $end
$upscope $end
$upscope $end
$scope module reg_gen(6) $end
$scope module i_dff $end
$var reg 1 V clk $end
$var reg 1 W rst $end
$var reg 1 X d $end
$var reg 1 Y q $end
$upscope $end
$upscope $end
$scope module reg_gen(7) $end
$scope module i_dff $end
$var reg 1 Z clk $end
$var reg 1 [ rst $end
$var reg 1 \ d $end
$var reg 1 ] q $end
$upscope $end
$upscope $end
$upscope $end
$scope module reg_pb $end
$var reg 1 ^ clk $end
$var reg 1 _ rst $end
$var reg 8 ` d[7:0] $end
$var reg 8 a q[7:0] $end
$scope module reg_gen(0) $end
$scope module i_dff $end
$var reg 1 b clk $end
$var reg 1 c rst $end
$var reg 1 d d $end
$var reg 1 e q $end
$upscope $end
$upscope $end
$scope module reg_gen(1) $end
$scope module i_dff $end
$var reg 1 f clk $end
$var reg 1 g rst $end
$var reg 1 h d $end
$var reg 1 i q $end
$upscope $end
$upscope $end
$scope module reg_gen(2) $end
$scope module i_dff $end
$var reg 1 j clk $end
$var reg 1 k rst $end
$var reg 1 l d $end
$var reg 1 m q $end
$upscope $end
$upscope $end
$scope module reg_gen(3) $end
$scope module i_dff $end
$var reg 1 n clk $end
$var reg 1 o rst $end
$var reg 1 p d $end
$var reg 1 q q $end
$upscope $end
$upscope $end
$scope module reg_gen(4) $end
$scope module i_dff $end
$var reg 1 r clk $end
$var reg 1 s rst $end
$var reg 1 t d $end
$var reg 1 u q $end
$upscope $end
$upscope $end
$scope module reg_gen(5) $end
$scope module i_dff $end
$var reg 1 v clk $end
$var reg 1 w rst $end
$var reg 1 x d $end
$var reg 1 y q $end
$upscope $end
$upscope $end
$scope module reg_gen(6) $end
$scope module i_dff $end
$var reg 1 z clk $end
$var reg 1 { rst $end
$var reg 1 | d $end
$var reg 1 } q $end
$upscope $end
$upscope $end
$scope module reg_gen(7) $end
$scope module i_dff $end
$var reg 1 !" clk $end
$var reg 1 "" rst $end
$var reg 1 #" d $end
$var reg 1 $" q $end
$upscope $end
$upscope $end
$upscope $end
$scope module gen_padding(0) $end
$upscope $end
$scope module gen_padding(1) $end
$upscope $end
$scope module gen_padding(2) $end
$upscope $end
$scope module gen_padding(3) $end
$upscope $end
$scope module gen_padding(4) $end
$upscope $end
$scope module gen_padding(5) $end
$upscope $end
$scope module gen_padding(6) $end
$upscope $end
$scope module gen_padding(7) $end
$upscope $end
$scope module sub $end
$var reg 8 %" a[7:0] $end
$var reg 8 &" b[7:0] $end
$var reg 8 '" s[7:0] $end
$upscope $end
$scope module phaseacc $end
$var reg 1 (" clk $end
$var reg 1 )" rst $end
$var reg 16 *" pa_in[15:0] $end
$var reg 16 +" pa_out[15:0] $end
$var reg 16 ," kfw_s[15:0] $end
$var reg 16 -" kfw_next[15:0] $end
$scope module i_adder $end
$var reg 16 ." x[15:0] $end
$var reg 16 /" y[15:0] $end
$var reg 1 0" c0 $end
$var reg 16 1" s[15:0] $end
$var reg 1 2" cn $end
$var reg 17 3" c[16:0] $end
$scope module gen_rca(0) $end
$scope module i_fa $end
$var reg 1 4" x $end
$var reg 1 5" y $end
$var reg 1 6" cin $end
$var reg 1 7" s $end
$var reg 1 8" cout $end
$upscope $end
$upscope $end
$scope module gen_rca(1) $end
$scope module i_fa $end
$var reg 1 9" x $end
$var reg 1 :" y $end
$var reg 1 ;" cin $end
$var reg 1 <" s $end
$var reg 1 =" cout $end
$upscope $end
$upscope $end
$scope module gen_rca(2) $end
$scope module i_fa $end
$var reg 1 >" x $end
$var reg 1 ?" y $end
$var reg 1 @" cin $end
$var reg 1 A" s $end
$var reg 1 B" cout $end
$upscope $end
$upscope $end
$scope module gen_rca(3) $end
$scope module i_fa $end
$var reg 1 C" x $end
$var reg 1 D" y $end
$var reg 1 E" cin $end
$var reg 1 F" s $end
$var reg 1 G" cout $end
$upscope $end
$upscope $end
$scope module gen_rca(4) $end
$scope module i_fa $end
$var reg 1 H" x $end
$var reg 1 I" y $end
$var reg 1 J" cin $end
$var reg 1 K" s $end
$var reg 1 L" cout $end
$upscope $end
$upscope $end
$scope module gen_rca(5) $end
$scope module i_fa $end
$var reg 1 M" x $end
$var reg 1 N" y $end
$var reg 1 O" cin $end
$var reg 1 P" s $end
$var reg 1 Q" cout $end
$upscope $end
$upscope $end
$scope module gen_rca(6) $end
$scope module i_fa $end
$var reg 1 R" x $end
$var reg 1 S" y $end
$var reg 1 T" cin $end
$var reg 1 U" s $end
$var reg 1 V" cout $end
$upscope $end
$upscope $end
$scope module gen_rca(7) $end
$scope module i_fa $end
$var reg 1 W" x $end
$var reg 1 X" y $end
$var reg 1 Y" cin $end
$var reg 1 Z" s $end
$var reg 1 [" cout $end
$upscope $end
$upscope $end
$scope module gen_rca(8) $end
$scope module i_fa $end
$var reg 1 \" x $end
$var reg 1 ]" y $end
$var reg 1 ^" cin $end
$var reg 1 _" s $end
$var reg 1 `" cout $end
$upscope $end
$upscope $end
$scope module gen_rca(9) $end
$scope module i_fa $end
$var reg 1 a" x $end
$var reg 1 b" y $end
$var reg 1 c" cin $end
$var reg 1 d" s $end
$var reg 1 e" cout $end
$upscope $end
$upscope $end
$scope module gen_rca(10) $end
$scope module i_fa $end
$var reg 1 f" x $end
$var reg 1 g" y $end
$var reg 1 h" cin $end
$var reg 1 i" s $end
$var reg 1 j" cout $end
$upscope $end
$upscope $end
$scope module gen_rca(11) $end
$scope module i_fa $end
$var reg 1 k" x $end
$var reg 1 l" y $end
$var reg 1 m" cin $end
$var reg 1 n" s $end
$var reg 1 o" cout $end
$upscope $end
$upscope $end
$scope module gen_rca(12) $end
$scope module i_fa $end
$var reg 1 p" x $end
$var reg 1 q" y $end
$var reg 1 r" cin $end
$var reg 1 s" s $end
$var reg 1 t" cout $end
$upscope $end
$upscope $end
$scope module gen_rca(13) $end
$scope module i_fa $end
$var reg 1 u" x $end
$var reg 1 v" y $end
$var reg 1 w" cin $end
$var reg 1 x" s $end
$var reg 1 y" cout $end
$upscope $end
$upscope $end
$scope module gen_rca(14) $end
$scope module i_fa $end
$var reg 1 z" x $end
$var reg 1 {" y $end
$var reg 1 |" cin $end
$var reg 1 }" s $end
$var reg 1 !# cout $end
$upscope $end
$upscope $end
$scope module gen_rca(15) $end
$scope module i_fa $end
$var reg 1 "# x $end
$var reg 1 ## y $end
$var reg 1 $# cin $end
$var reg 1 %# s $end
$var reg 1 &# cout $end
$upscope $end
$upscope $end
$upscope $end
$scope module i_reg $end
$var reg 1 '# clk $end
$var reg 1 (# rst $end
$var reg 16 )# d[15:0] $end
$var reg 16 *# q[15:0] $end
$scope module reg_gen(0) $end
$scope module i_dff $end
$var reg 1 +# clk $end
$var reg 1 ,# rst $end
$var reg 1 -# d $end
$var reg 1 .# q $end
$upscope $end
$upscope $end
$scope module reg_gen(1) $end
$scope module i_dff $end
$var reg 1 /# clk $end
$var reg 1 0# rst $end
$var reg 1 1# d $end
$var reg 1 2# q $end
$upscope $end
$upscope $end
$scope module reg_gen(2) $end
$scope module i_dff $end
$var reg 1 3# clk $end
$var reg 1 4# rst $end
$var reg 1 5# d $end
$var reg 1 6# q $end
$upscope $end
$upscope $end
$scope module reg_gen(3) $end
$scope module i_dff $end
$var reg 1 7# clk $end
$var reg 1 8# rst $end
$var reg 1 9# d $end
$var reg 1 :# q $end
$upscope $end
$upscope $end
$scope module reg_gen(4) $end
$scope module i_dff $end
$var reg 1 ;# clk $end
$var reg 1 <# rst $end
$var reg 1 =# d $end
$var reg 1 ># q $end
$upscope $end
$upscope $end
$scope module reg_gen(5) $end
$scope module i_dff $end
$var reg 1 ?# clk $end
$var reg 1 @# rst $end
$var reg 1 A# d $end
$var reg 1 B# q $end
$upscope $end
$upscope $end
$scope module reg_gen(6) $end
$scope module i_dff $end
$var reg 1 C# clk $end
$var reg 1 D# rst $end
$var reg 1 E# d $end
$var reg 1 F# q $end
$upscope $end
$upscope $end
$scope module reg_gen(7) $end
$scope module i_dff $end
$var reg 1 G# clk $end
$var reg 1 H# rst $end
$var reg 1 I# d $end
$var reg 1 J# q $end
$upscope $end
$upscope $end
$scope module reg_gen(8) $end
$scope module i_dff $end
$var reg 1 K# clk $end
$var reg 1 L# rst $end
$var reg 1 M# d $end
$var reg 1 N# q $end
$upscope $end
$upscope $end
$scope module reg_gen(9) $end
$scope module i_dff $end
$var reg 1 O# clk $end
$var reg 1 P# rst $end
$var reg 1 Q# d $end
$var reg 1 R# q $end
$upscope $end
$upscope $end
$scope module reg_gen(10) $end
$scope module i_dff $end
$var reg 1 S# clk $end
$var reg 1 T# rst $end
$var reg 1 U# d $end
$var reg 1 V# q $end
$upscope $end
$upscope $end
$scope module reg_gen(11) $end
$scope module i_dff $end
$var reg 1 W# clk $end
$var reg 1 X# rst $end
$var reg 1 Y# d $end
$var reg 1 Z# q $end
$upscope $end
$upscope $end
$scope module reg_gen(12) $end
$scope module i_dff $end
$var reg 1 [# clk $end
$var reg 1 \# rst $end
$var reg 1 ]# d $end
$var reg 1 ^# q $end
$upscope $end
$upscope $end
$scope module reg_gen(13) $end
$scope module i_dff $end
$var reg 1 _# clk $end
$var reg 1 `# rst $end
$var reg 1 a# d $end
$var reg 1 b# q $end
$upscope $end
$upscope $end
$scope module reg_gen(14) $end
$scope module i_dff $end
$var reg 1 c# clk $end
$var reg 1 d# rst $end
$var reg 1 e# d $end
$var reg 1 f# q $end
$upscope $end
$upscope $end
$scope module reg_gen(15) $end
$scope module i_dff $end
$var reg 1 g# clk $end
$var reg 1 h# rst $end
$var reg 1 i# d $end
$var reg 1 j# q $end
$upscope $end
$upscope $end
$upscope $end
$upscope $end
$scope module mux1 $end
$var reg 16 k# i0[15:0] $end
$var reg 16 l# i1[15:0] $end
$var reg 1 m# s $end
$var reg 16 n# f[15:0] $end
$upscope $end
$scope module reg_out $end
$var reg 1 o# clk $end
$var reg 1 p# rst $end
$var reg 16 q# d[15:0] $end
$var reg 16 r# q[15:0] $end
$scope module reg_gen(0) $end
$scope module i_dff $end
$var reg 1 s# clk $end
$var reg 1 t# rst $end
$var reg 1 u# d $end
$var reg 1 v# q $end
$upscope $end
$upscope $end
$scope module reg_gen(1) $end
$scope module i_dff $end
$var reg 1 w# clk $end
$var reg 1 x# rst $end
$var reg 1 y# d $end
$var reg 1 z# q $end
$upscope $end
$upscope $end
$scope module reg_gen(2) $end
$scope module i_dff $end
$var reg 1 {# clk $end
$var reg 1 |# rst $end
$var reg 1 }# d $end
$var reg 1 !$ q $end
$upscope $end
$upscope $end
$scope module reg_gen(3) $end
$scope module i_dff $end
$var reg 1 "$ clk $end
$var reg 1 #$ rst $end
$var reg 1 $$ d $end
$var reg 1 %$ q $end
$upscope $end
$upscope $end
$scope module reg_gen(4) $end
$scope module i_dff $end
$var reg 1 &$ clk $end
$var reg 1 '$ rst $end
$var reg 1 ($ d $end
$var reg 1 )$ q $end
$upscope $end
$upscope $end
$scope module reg_gen(5) $end
$scope module i_dff $end
$var reg 1 *$ clk $end
$var reg 1 +$ rst $end
$var reg 1 ,$ d $end
$var reg 1 -$ q $end
$upscope $end
$upscope $end
$scope module reg_gen(6) $end
$scope module i_dff $end
$var reg 1 .$ clk $end
$var reg 1 /$ rst $end
$var reg 1 0$ d $end
$var reg 1 1$ q $end
$upscope $end
$upscope $end
$scope module reg_gen(7) $end
$scope module i_dff $end
$var reg 1 2$ clk $end
$var reg 1 3$ rst $end
$var reg 1 4$ d $end
$var reg 1 5$ q $end
$upscope $end
$upscope $end
$scope module reg_gen(8) $end
$scope module i_dff $end
$var reg 1 6$ clk $end
$var reg 1 7$ rst $end
$var reg 1 8$ d $end
$var reg 1 9$ q $end
$upscope $end
$upscope $end
$scope module reg_gen(9) $end
$scope module i_dff $end
$var reg 1 :$ clk $end
$var reg 1 ;$ rst $end
$var reg 1 <$ d $end
$var reg 1 =$ q $end
$upscope $end
$upscope $end
$scope module reg_gen(10) $end
$scope module i_dff $end
$var reg 1 >$ clk $end
$var reg 1 ?$ rst $end
$var reg 1 @$ d $end
$var reg 1 A$ q $end
$upscope $end
$upscope $end
$scope module reg_gen(11) $end
$scope module i_dff $end
$var reg 1 B$ clk $end
$var reg 1 C$ rst $end
$var reg 1 D$ d $end
$var reg 1 E$ q $end
$upscope $end
$upscope $end
$scope module reg_gen(12) $end
$scope module i_dff $end
$var reg 1 F$ clk $end
$var reg 1 G$ rst $end
$var reg 1 H$ d $end
$var reg 1 I$ q $end
$upscope $end
$upscope $end
$scope module reg_gen(13) $end
$scope module i_dff $end
$var reg 1 J$ clk $end
$var reg 1 K$ rst $end
$var reg 1 L$ d $end
$var reg 1 M$ q $end
$upscope $end
$upscope $end
$scope module reg_gen(14) $end
$scope module i_dff $end
$var reg 1 N$ clk $end
$var reg 1 O$ rst $end
$var reg 1 P$ d $end
$var reg 1 Q$ q $end
$upscope $end
$upscope $end
$scope module reg_gen(15) $end
$scope module i_dff $end
$var reg 1 R$ clk $end
$var reg 1 S$ rst $end
$var reg 1 T$ d $end
$var reg 1 U$ q $end
$upscope $end
$upscope $end
$upscope $end
$scope module cnt $end
$var reg 1 V$ count_puls $end
$var reg 1 W$ count_enable $end
$var reg 1 X$ rst $end
$var reg 1 Y$ tc $end
$upscope $end
$upscope $end
$enddefinitions $end
#0
0!
U"
1#
bUUUUUUUU $
bUUUUUUUU %
1&
0'
U(
bUUUUUUUU )
bUUUUUUUU *
1+
bUUUUUUUUUUUUUUUU ,
U-
b00000000 .
bUUUUUUUU /
bUUUUUUUU 0
bXXXXXXXX 1
b00000000XXXXXXXX 2
U3
bUUUUUUUUUUUUUUUU 4
bUUUUUUUUUUUUUUUU 5
U6
bUUUUUUUUUUUUUUUU 7
U8
U9
0:
U;
bUUUUUUUU <
bUUUUUUUU =
0>
U?
U@
UA
0B
UC
UD
UE
0F
UG
UH
UI
0J
UK
UL
UM
0N
UO
UP
UQ
0R
US
UT
UU
0V
UW
UX
UY
0Z
U[
U\
U]
0^
U_
bUUUUUUUU `
bUUUUUUUU a
0b
Uc
Ud
Ue
0f
Ug
Uh
Ui
0j
Uk
Ul
Um
0n
Uo
Up
Uq
0r
Us
Ut
Uu
0v
Uw
Ux
Uy
0z
U{
U|
U}
0!"
U""
U#"
U$"
bUUUUUUUU %"
bUUUUUUUU &"
bXXXXXXXX '"
0("
U)"
b00000000XXXXXXXX *"
bUUUUUUUUUUUUUUUU +"
bUUUUUUUUUUUUUUUU ,"
bUUUUUUUUUUUUUUUU -"
b00000000XXXXXXXX ."
bUUUUUUUUUUUUUUUU /"
00"
bUUUUUUUUUUUUUUUU 1"
U2"
bUUUUUUUUUUUUUUUU0 3"
X4"
U5"
06"
U7"
U8"
X9"
U:"
U;"
U<"
U="
X>"
U?"
U@"
UA"
UB"
XC"
UD"
UE"
UF"
UG"
XH"
UI"
UJ"
UK"
UL"
XM"
UN"
UO"
UP"
UQ"
XR"
US"
UT"
UU"
UV"
XW"
UX"
UY"
UZ"
U["
0\"
U]"
U^"
U_"
U`"
0a"
Ub"
Uc"
Ud"
Ue"
0f"
Ug"
Uh"
Ui"
Uj"
0k"
Ul"
Um"
Un"
Uo"
0p"
Uq"
Ur"
Us"
Ut"
0u"
Uv"
Uw"
Ux"
Uy"
0z"
U{"
U|"
U}"
U!#
0"#
U##
U$#
U%#
U&#
0'#
U(#
bUUUUUUUUUUUUUUUU )#
bUUUUUUUUUUUUUUUU *#
0+#
U,#
U-#
U.#
0/#
U0#
U1#
U2#
03#
U4#
U5#
U6#
07#
U8#
U9#
U:#
0;#
U<#
U=#
U>#
0?#
U@#
UA#
UB#
0C#
UD#
UE#
UF#
0G#
UH#
UI#
UJ#
0K#
UL#
UM#
UN#
0O#
UP#
UQ#
UR#
0S#
UT#
UU#
UV#
0W#
UX#
UY#
UZ#
0[#
U\#
U]#
U^#
0_#
U`#
Ua#
Ub#
0c#
Ud#
Ue#
Uf#
0g#
Uh#
Ui#
Uj#
bUUUUUUUUUUUUUUUU k#
bUUUUUUUUUUUUUUUU l#
Um#
bUUUUUUUUUUUUUUUU n#
0o#
Up#
bUUUUUUUUUUUUUUUU q#
bUUUUUUUUUUUUUUUU r#
0s#
Ut#
Uu#
Uv#
0w#
Ux#
Uy#
Uz#
0{#
U|#
U}#
U!$
0"$
U#$
U$$
U%$
0&$
U'$
U($
U)$
0*$
U+$
U,$
U-$
0.$
U/$
U0$
U1$
02$
U3$
U4$
U5$
06$
U7$
U8$
U9$
0:$
U;$
U<$
U=$
0>$
U?$
U@$
UA$
0B$
UC$
UD$
UE$
0F$
UG$
UH$
UI$
0J$
UK$
UL$
UM$
0N$
UO$
UP$
UQ$
0R$
US$
UT$
UU$
0V$
1W$
UX$
UY$
#2500000
1!
1'
1:
1>
1B
1F
1J
1N
1R
1V
1Z
1^
1b
1f
1j
1n
1r
1v
1z
1!"
1("
1'#
1+#
1/#
13#
17#
1;#
1?#
1C#
1G#
1K#
1O#
1S#
1W#
1[#
1_#
1c#
1g#
1o#
1s#
1w#
1{#
1"$
1&$
1*$
1.$
12$
16$
1:$
1>$
1B$
1F$
1J$
1N$
1R$
1V$
#5000000
0!
0'
0:
0>
0B
0F
0J
0N
0R
0V
0Z
0^
0b
0f
0j
0n
0r
0v
0z
0!"
0("
0'#
0+#
0/#
03#
07#
0;#
0?#
0C#
0G#
0K#
0O#
0S#
0W#
0[#
0_#
0c#
0g#
0o#
0s#
0w#
0{#
0"$
0&$
0*$
0.$
02$
06$
0:$
0>$
0B$
0F$
0J$
0N$
0R$
0V$
#7500000
1!
1'
1:
1>
1B
1F
1J
1N
1R
1V
1Z
1^
1b
1f
1j
1n
1r
1v
1z
1!"
1("
1'#
1+#
1/#
13#
17#
1;#
1?#
1C#
1G#
1K#
1O#
1S#
1W#
1[#
1_#
1c#
1g#
1o#
1s#
1w#
1{#
1"$
1&$
1*$
1.$
12$
16$
1:$
1>$
1B$
1F$
1J$
1N$
1R$
1V$
#10000000
0!
0'
0:
0>
0B
0F
0J
0N
0R
0V
0Z
0^
0b
0f
0j
0n
0r
0v
0z
0!"
0("
0'#
0+#
0/#
03#
07#
0;#
0?#
0C#
0G#
0K#
0O#
0S#
0W#
0[#
0_#
0c#
0g#
0o#
0s#
0w#
0{#
0"$
0&$
0*$
0.$
02$
06$
0:$
0>$
0B$
0F$
0J$
0N$
0R$
0V$
#12000000
b00000001 $
b00000000 %
b00000001 )
b00000000 *
b00000001 <
1@
0D
0H
0L
0P
0T
0X
0\
b00000000 `
0d
0h
0l
0p
0t
0x
0|
0#"
#12500000
1!
1'
b00000001 /
b00000000 0
b00000001 1
b0000000000000001 2
1:
b00000001 =
1>
1A
1B
0E
1F
0I
1J
0M
1N
0Q
1R
0U
1V
0Y
1Z
0]
1^
b00000000 a
1b
0e
1f
0i
1j
0m
1n
0q
1r
0u
1v
0y
1z
0}
1!"
0$"
b00000001 %"
b00000000 &"
b00000001 '"
1("
b0000000000000001 *"
b0000000000000001 ."
14"
09"
0>"
0C"
0H"
0M"
0R"
0W"
1'#
1+#
1/#
13#
17#
1;#
1?#
1C#
1G#
1K#
1O#
1S#
1W#
1[#
1_#
1c#
1g#
1o#
1s#
1w#
1{#
1"$
1&$
1*$
1.$
12$
16$
1:$
1>$
1B$
1F$
1J$
1N$
1R$
1V$
#15000000
0!
0'
0:
0>
0B
0F
0J
0N
0R
0V
0Z
0^
0b
0f
0j
0n
0r
0v
0z
0!"
0("
0'#
0+#
0/#
03#
07#
0;#
0?#
0C#
0G#
0K#
0O#
0S#
0W#
0[#
0_#
0c#
0g#
0o#
0s#
0w#
0{#
0"$
0&$
0*$
0.$
02$
06$
0:$
0>$
0B$
0F$
0J$
0N$
0R$
0V$
#17500000
1!
1'
1:
1>
1B
1F
1J
1N
1R
1V
1Z
1^
1b
1f
1j
1n
1r
1v
1z
1!"
1("
1'#
1+#
1/#
13#
17#
1;#
1?#
1C#
1G#
1K#
1O#
1S#
1W#
1[#
1_#
1c#
1g#
1o#
1s#
1w#
1{#
1"$
1&$
1*$
1.$
12$
16$
1:$
1>$
1B$
1F$
1J$
1N$
1R$
1V$
#20000000
0!
0'
0:
0>
0B
0F
0J
0N
0R
0V
0Z
0^
0b
0f
0j
0n
0r
0v
0z
0!"
0("
0'#
0+#
0/#
03#
07#
0;#
0?#
0C#
0G#
0K#
0O#
0S#
0W#
0[#
0_#
0c#
0g#
0o#
0s#
0w#
0{#
0"$
0&$
0*$
0.$
02$
06$
0:$
0>$
0B$
0F$
0J$
0N$
0R$
0V$
#22500000
1!
1'
1:
1>
1B
1F
1J
1N
1R
1V
1Z
1^
1b
1f
1j
1n
1r
1v
1z
1!"
1("
1'#
1+#
1/#
13#
17#
1;#
1?#
1C#
1G#
1K#
1O#
1S#
1W#
1[#
1_#
1c#
1g#
1o#
1s#
1w#
1{#
1"$
1&$
1*$
1.$
12$
16$
1:$
1>$
1B$
1F$
1J$
1N$
1R$
1V$
#25000000
0!
0'
0:
0>
0B
0F
0J
0N
0R
0V
0Z
0^
0b
0f
0j
0n
0r
0v
0z
0!"
0("
0'#
0+#
0/#
03#
07#
0;#
0?#
0C#
0G#
0K#
0O#
0S#
0W#
0[#
0_#
0c#
0g#
0o#
0s#
0w#
0{#
0"$
0&$
0*$
0.$
02$
06$
0:$
0>$
0B$
0F$
0J$
0N$
0R$
0V$
#27500000
1!
1'
1:
1>
1B
1F
1J
1N
1R
1V
1Z
1^
1b
1f
1j
1n
1r
1v
1z
1!"
1("
1'#
1+#
1/#
13#
17#
1;#
1?#
1C#
1G#
1K#
1O#
1S#
1W#
1[#
1_#
1c#
1g#
1o#
1s#
1w#
1{#
1"$
1&$
1*$
1.$
12$
16$
1:$
1>$
1B$
1F$
1J$
1N$
1R$
1V$
#30000000
0!
0'
0:
0>
0B
0F
0J
0N
0R
0V
0Z
0^
0b
0f
0j
0n
0r
0v
0z
0!"
0("
0'#
0+#
0/#
03#
07#
0;#
0?#
0C#
0G#
0K#
0O#
0S#
0W#
0[#
0_#
0c#
0g#
0o#
0s#
0w#
0{#
0"$
0&$
0*$
0.$
02$
06$
0:$
0>$
0B$
0F$
0J$
0N$
0R$
0V$
#32500000
1!
1'
1:
1>
1B
1F
1J
1N
1R
1V
1Z
1^
1b
1f
1j
1n
1r
1v
1z
1!"
1("
1'#
1+#
1/#
13#
17#
1;#
1?#
1C#
1G#
1K#
1O#
1S#
1W#
1[#
1_#
1c#
1g#
1o#
1s#
1w#
1{#
1"$
1&$
1*$
1.$
12$
16$
1:$
1>$
1B$
1F$
1J$
1N$
1R$
1V$
#35000000
0!
0'
0:
0>
0B
0F
0J
0N
0R
0V
0Z
0^
0b
0f
0j
0n
0r
0v
0z
0!"
0("
0'#
0+#
0/#
03#
07#
0;#
0?#
0C#
0G#
0K#
0O#
0S#
0W#
0[#
0_#
0c#
0g#
0o#
0s#
0w#
0{#
0"$
0&$
0*$
0.$
02$
06$
0:$
0>$
0B$
0F$
0J$
0N$
0R$
0V$
#37500000
1!
1'
1:
1>
1B
1F
1J
1N
1R
1V
1Z
1^
1b
1f
1j
1n
1r
1v
1z
1!"
1("
1'#
1+#
1/#
13#
17#
1;#
1?#
1C#
1G#
1K#
1O#
1S#
1W#
1[#
1_#
1c#
1g#
1o#
1s#
1w#
1{#
1"$
1&$
1*$
1.$
12$
16$
1:$
1>$
1B$
1F$
1J$
1N$
1R$
1V$
#40000000
0!
0'
0:
0>
0B
0F
0J
0N
0R
0V
0Z
0^
0b
0f
0j
0n
0r
0v
0z
0!"
0("
0'#
0+#
0/#
03#
07#
0;#
0?#
0C#
0G#
0K#
0O#
0S#
0W#
0[#
0_#
0c#
0g#
0o#
0s#
0w#
0{#
0"$
0&$
0*$
0.$
02$
06$
0:$
0>$
0B$
0F$
0J$
0N$
0R$
0V$
#42500000
1!
1'
1:
1>
1B
1F
1J
1N
1R
1V
1Z
1^
1b
1f
1j
1n
1r
1v
1z
1!"
1("
1'#
1+#
1/#
13#
17#
1;#
1?#
1C#
1G#
1K#
1O#
1S#
1W#
1[#
1_#
1c#
1g#
1o#
1s#
1w#
1{#
1"$
1&$
1*$
1.$
12$
16$
1:$
1>$
1B$
1F$
1J$
1N$
1R$
1V$
#45000000
0!
0'
0:
0>
0B
0F
0J
0N
0R
0V
0Z
0^
0b
0f
0j
0n
0r
0v
0z
0!"
0("
0'#
0+#
0/#
03#
07#
0;#
0?#
0C#
0G#
0K#
0O#
0S#
0W#
0[#
0_#
0c#
0g#
0o#
0s#
0w#
0{#
0"$
0&$
0*$
0.$
02$
06$
0:$
0>$
0B$
0F$
0J$
0N$
0R$
0V$
#47500000
1!
1'
1:
1>
1B
1F
1J
1N
1R
1V
1Z
1^
1b
1f
1j
1n
1r
1v
1z
1!"
1("
1'#
1+#
1/#
13#
17#
1;#
1?#
1C#
1G#
1K#
1O#
1S#
1W#
1[#
1_#
1c#
1g#
1o#
1s#
1w#
1{#
1"$
1&$
1*$
1.$
12$
16$
1:$
1>$
1B$
1F$
1J$
1N$
1R$
1V$
#50000000
0!
0'
0:
0>
0B
0F
0J
0N
0R
0V
0Z
0^
0b
0f
0j
0n
0r
0v
0z
0!"
0("
0'#
0+#
0/#
03#
07#
0;#
0?#
0C#
0G#
0K#
0O#
0S#
0W#
0[#
0_#
0c#
0g#
0o#
0s#
0w#
0{#
0"$
0&$
0*$
0.$
02$
06$
0:$
0>$
0B$
0F$
0J$
0N$
0R$
0V$
#52500000
1!
1'
1:
1>
1B
1F
1J
1N
1R
1V
1Z
1^
1b
1f
1j
1n
1r
1v
1z
1!"
1("
1'#
1+#
1/#
13#
17#
1;#
1?#
1C#
1G#
1K#
1O#
1S#
1W#
1[#
1_#
1c#
1g#
1o#
1s#
1w#
1{#
1"$
1&$
1*$
1.$
12$
16$
1:$
1>$
1B$
1F$
1J$
1N$
1R$
1V$
#55000000
0!
0'
0:
0>
0B
0F
0J
0N
0R
0V
0Z
0^
0b
0f
0j
0n
0r
0v
0z
0!"
0("
0'#
0+#
0/#
03#
07#
0;#
0?#
0C#
0G#
0K#
0O#
0S#
0W#
0[#
0_#
0c#
0g#
0o#
0s#
0w#
0{#
0"$
0&$
0*$
0.$
02$
06$
0:$
0>$
0B$
0F$
0J$
0N$
0R$
0V$
#57500000
1!
1'
1:
1>
1B
1F
1J
1N
1R
1V
1Z
1^
1b
1f
1j
1n
1r
1v
1z
1!"
1("
1'#
1+#
1/#
13#
17#
1;#
1?#
1C#
1G#
1K#
1O#
1S#
1W#
1[#
1_#
1c#
1g#
1o#
1s#
1w#
1{#
1"$
1&$
1*$
1.$
12$
16$
1:$
1>$
1B$
1F$
1J$
1N$
1R$
1V$
#60000000
0!
0'
0:
0>
0B
0F
0J
0N
0R
0V
0Z
0^
0b
0f
0j
0n
0r
0v
0z
0!"
0("
0'#
0+#
0/#
03#
07#
0;#
0?#
0C#
0G#
0K#
0O#
0S#
0W#
0[#
0_#
0c#
0g#
0o#
0s#
0w#
0{#
0"$
0&$
0*$
0.$
02$
06$
0:$
0>$
0B$
0F$
0J$
0N$
0R$
0V$
#62500000
1!
1'
1:
1>
1B
1F
1J
1N
1R
1V
1Z
1^
1b
1f
1j
1n
1r
1v
1z
1!"
1("
1'#
1+#
1/#
13#
17#
1;#
1?#
1C#
1G#
1K#
1O#
1S#
1W#
1[#
1_#
1c#
1g#
1o#
1s#
1w#
1{#
1"$
1&$
1*$
1.$
12$
16$
1:$
1>$
1B$
1F$
1J$
1N$
1R$
1V$
