waveforms/tb2_SAD.vcd
$date
  Sat May 26 09:59:00 2018
$end
$version
  GHDL v0
$end
$timescale
  1 fs
$end
$var reg 8 ! pa[7:0] $end
$var reg 8 " pb[7:0] $end
$var reg 1 # clk $end
$var reg 1 $ reset $end
$var reg 1 % enable $end
$var reg 1 & testing $end
$var integer 32 ' clk_cycle $end
$scope module sad_port $end
$var reg 1 ( clk $end
$var reg 1 ) rst $end
$var reg 8 * pa[7:0] $end
$var reg 8 + pb[7:0] $end
$var reg 1 , en $end
$var reg 16 - sad[15:0] $end
$var reg 1 . data_valid $end
$var reg 8 / padding[7:0] $end
$var reg 8 0 pa_to_sub_nbit[7:0] $end
$var reg 8 1 pb_to_sub_nbit[7:0] $end
$var reg 16 2 pa_to_sub_mbit[15:0] $end
$var reg 16 3 pb_to_sub_mbit[15:0] $end
$var reg 16 4 sub_to_rca[15:0] $end
$var reg 16 5 reg_to_rca[15:0] $end
$var reg 16 6 rca_out[15:0] $end
$var reg 16 7 mux_to_reg_out_wire[15:0] $end
$var reg 1 8 rst_input_registers $end
$var reg 16 9 sad_wire[15:0] $end
$var reg 1 : tc_wire $end
$var reg 1 ; s_latch_wire $end
$var reg 1 < hold_wire $end
$var reg 1 = sr_q_wire $end
$scope module reg_pa $end
$var reg 1 > clk $end
$var reg 1 ? rst $end
$var reg 8 @ d[7:0] $end
$var reg 8 A q[7:0] $end
$scope module reg_gen(0) $end
$scope module i_dff $end
$var reg 1 B clk $end
$var reg 1 C rst $end
$var reg 1 D d $end
$var reg 1 E q $end
$upscope $end
$upscope $end
$scope module reg_gen(1) $end
$scope module i_dff $end
$var reg 1 F clk $end
$var reg 1 G rst $end
$var reg 1 H d $end
$var reg 1 I q $end
$upscope $end
$upscope $end
$scope module reg_gen(2) $end
$scope module i_dff $end
$var reg 1 J clk $end
$var reg 1 K rst $end
$var reg 1 L d $end
$var reg 1 M q $end
$upscope $end
$upscope $end
$scope module reg_gen(3) $end
$scope module i_dff $end
$var reg 1 N clk $end
$var reg 1 O rst $end
$var reg 1 P d $end
$var reg 1 Q q $end
$upscope $end
$upscope $end
$scope module reg_gen(4) $end
$scope module i_dff $end
$var reg 1 R clk $end
$var reg 1 S rst $end
$var reg 1 T d $end
$var reg 1 U q $end
$upscope $end
$upscope $end
$scope module reg_gen(5) $end
$scope module i_dff $end
$var reg 1 V clk $end
$var reg 1 W rst $end
$var reg 1 X d $end
$var reg 1 Y q $end
$upscope $end
$upscope $end
$scope module reg_gen(6) $end
$scope module i_dff $end
$var reg 1 Z clk $end
$var reg 1 [ rst $end
$var reg 1 \ d $end
$var reg 1 ] q $end
$upscope $end
$upscope $end
$scope module reg_gen(7) $end
$scope module i_dff $end
$var reg 1 ^ clk $end
$var reg 1 _ rst $end
$var reg 1 ` d $end
$var reg 1 a q $end
$upscope $end
$upscope $end
$upscope $end
$scope module reg_pb $end
$var reg 1 b clk $end
$var reg 1 c rst $end
$var reg 8 d d[7:0] $end
$var reg 8 e q[7:0] $end
$scope module reg_gen(0) $end
$scope module i_dff $end
$var reg 1 f clk $end
$var reg 1 g rst $end
$var reg 1 h d $end
$var reg 1 i q $end
$upscope $end
$upscope $end
$scope module reg_gen(1) $end
$scope module i_dff $end
$var reg 1 j clk $end
$var reg 1 k rst $end
$var reg 1 l d $end
$var reg 1 m q $end
$upscope $end
$upscope $end
$scope module reg_gen(2) $end
$scope module i_dff $end
$var reg 1 n clk $end
$var reg 1 o rst $end
$var reg 1 p d $end
$var reg 1 q q $end
$upscope $end
$upscope $end
$scope module reg_gen(3) $end
$scope module i_dff $end
$var reg 1 r clk $end
$var reg 1 s rst $end
$var reg 1 t d $end
$var reg 1 u q $end
$upscope $end
$upscope $end
$scope module reg_gen(4) $end
$scope module i_dff $end
$var reg 1 v clk $end
$var reg 1 w rst $end
$var reg 1 x d $end
$var reg 1 y q $end
$upscope $end
$upscope $end
$scope module reg_gen(5) $end
$scope module i_dff $end
$var reg 1 z clk $end
$var reg 1 { rst $end
$var reg 1 | d $end
$var reg 1 } q $end
$upscope $end
$upscope $end
$scope module reg_gen(6) $end
$scope module i_dff $end
$var reg 1 !" clk $end
$var reg 1 "" rst $end
$var reg 1 #" d $end
$var reg 1 $" q $end
$upscope $end
$upscope $end
$scope module reg_gen(7) $end
$scope module i_dff $end
$var reg 1 %" clk $end
$var reg 1 &" rst $end
$var reg 1 '" d $end
$var reg 1 (" q $end
$upscope $end
$upscope $end
$upscope $end
$scope module gen_padding(0) $end
$upscope $end
$scope module gen_padding(1) $end
$upscope $end
$scope module gen_padding(2) $end
$upscope $end
$scope module gen_padding(3) $end
$upscope $end
$scope module gen_padding(4) $end
$upscope $end
$scope module gen_padding(5) $end
$upscope $end
$scope module gen_padding(6) $end
$upscope $end
$scope module gen_padding(7) $end
$upscope $end
$scope module sub $end
$var reg 16 )" a[15:0] $end
$var reg 16 *" b[15:0] $end
$var reg 16 +" s[15:0] $end
$upscope $end
$scope module add $end
$var reg 16 ," x[15:0] $end
$var reg 16 -" y[15:0] $end
$var reg 1 ." c0 $end
$var reg 16 /" s[15:0] $end
$var reg 1 0" cn $end
$var reg 17 1" c[16:0] $end
$scope module gen_rca(0) $end
$scope module i_fa $end
$var reg 1 2" x $end
$var reg 1 3" y $end
$var reg 1 4" cin $end
$var reg 1 5" s $end
$var reg 1 6" cout $end
$upscope $end
$upscope $end
$scope module gen_rca(1) $end
$scope module i_fa $end
$var reg 1 7" x $end
$var reg 1 8" y $end
$var reg 1 9" cin $end
$var reg 1 :" s $end
$var reg 1 ;" cout $end
$upscope $end
$upscope $end
$scope module gen_rca(2) $end
$scope module i_fa $end
$var reg 1 <" x $end
$var reg 1 =" y $end
$var reg 1 >" cin $end
$var reg 1 ?" s $end
$var reg 1 @" cout $end
$upscope $end
$upscope $end
$scope module gen_rca(3) $end
$scope module i_fa $end
$var reg 1 A" x $end
$var reg 1 B" y $end
$var reg 1 C" cin $end
$var reg 1 D" s $end
$var reg 1 E" cout $end
$upscope $end
$upscope $end
$scope module gen_rca(4) $end
$scope module i_fa $end
$var reg 1 F" x $end
$var reg 1 G" y $end
$var reg 1 H" cin $end
$var reg 1 I" s $end
$var reg 1 J" cout $end
$upscope $end
$upscope $end
$scope module gen_rca(5) $end
$scope module i_fa $end
$var reg 1 K" x $end
$var reg 1 L" y $end
$var reg 1 M" cin $end
$var reg 1 N" s $end
$var reg 1 O" cout $end
$upscope $end
$upscope $end
$scope module gen_rca(6) $end
$scope module i_fa $end
$var reg 1 P" x $end
$var reg 1 Q" y $end
$var reg 1 R" cin $end
$var reg 1 S" s $end
$var reg 1 T" cout $end
$upscope $end
$upscope $end
$scope module gen_rca(7) $end
$scope module i_fa $end
$var reg 1 U" x $end
$var reg 1 V" y $end
$var reg 1 W" cin $end
$var reg 1 X" s $end
$var reg 1 Y" cout $end
$upscope $end
$upscope $end
$scope module gen_rca(8) $end
$scope module i_fa $end
$var reg 1 Z" x $end
$var reg 1 [" y $end
$var reg 1 \" cin $end
$var reg 1 ]" s $end
$var reg 1 ^" cout $end
$upscope $end
$upscope $end
$scope module gen_rca(9) $end
$scope module i_fa $end
$var reg 1 _" x $end
$var reg 1 `" y $end
$var reg 1 a" cin $end
$var reg 1 b" s $end
$var reg 1 c" cout $end
$upscope $end
$upscope $end
$scope module gen_rca(10) $end
$scope module i_fa $end
$var reg 1 d" x $end
$var reg 1 e" y $end
$var reg 1 f" cin $end
$var reg 1 g" s $end
$var reg 1 h" cout $end
$upscope $end
$upscope $end
$scope module gen_rca(11) $end
$scope module i_fa $end
$var reg 1 i" x $end
$var reg 1 j" y $end
$var reg 1 k" cin $end
$var reg 1 l" s $end
$var reg 1 m" cout $end
$upscope $end
$upscope $end
$scope module gen_rca(12) $end
$scope module i_fa $end
$var reg 1 n" x $end
$var reg 1 o" y $end
$var reg 1 p" cin $end
$var reg 1 q" s $end
$var reg 1 r" cout $end
$upscope $end
$upscope $end
$scope module gen_rca(13) $end
$scope module i_fa $end
$var reg 1 s" x $end
$var reg 1 t" y $end
$var reg 1 u" cin $end
$var reg 1 v" s $end
$var reg 1 w" cout $end
$upscope $end
$upscope $end
$scope module gen_rca(14) $end
$scope module i_fa $end
$var reg 1 x" x $end
$var reg 1 y" y $end
$var reg 1 z" cin $end
$var reg 1 {" s $end
$var reg 1 |" cout $end
$upscope $end
$upscope $end
$scope module gen_rca(15) $end
$scope module i_fa $end
$var reg 1 }" x $end
$var reg 1 !# y $end
$var reg 1 "# cin $end
$var reg 1 ## s $end
$var reg 1 $# cout $end
$upscope $end
$upscope $end
$upscope $end
$scope module reg_loop $end
$var reg 1 %# clk $end
$var reg 1 &# rst $end
$var reg 16 '# d[15:0] $end
$var reg 16 (# q[15:0] $end
$scope module reg_gen(0) $end
$scope module i_dff $end
$var reg 1 )# clk $end
$var reg 1 *# rst $end
$var reg 1 +# d $end
$var reg 1 ,# q $end
$upscope $end
$upscope $end
$scope module reg_gen(1) $end
$scope module i_dff $end
$var reg 1 -# clk $end
$var reg 1 .# rst $end
$var reg 1 /# d $end
$var reg 1 0# q $end
$upscope $end
$upscope $end
$scope module reg_gen(2) $end
$scope module i_dff $end
$var reg 1 1# clk $end
$var reg 1 2# rst $end
$var reg 1 3# d $end
$var reg 1 4# q $end
$upscope $end
$upscope $end
$scope module reg_gen(3) $end
$scope module i_dff $end
$var reg 1 5# clk $end
$var reg 1 6# rst $end
$var reg 1 7# d $end
$var reg 1 8# q $end
$upscope $end
$upscope $end
$scope module reg_gen(4) $end
$scope module i_dff $end
$var reg 1 9# clk $end
$var reg 1 :# rst $end
$var reg 1 ;# d $end
$var reg 1 <# q $end
$upscope $end
$upscope $end
$scope module reg_gen(5) $end
$scope module i_dff $end
$var reg 1 =# clk $end
$var reg 1 ># rst $end
$var reg 1 ?# d $end
$var reg 1 @# q $end
$upscope $end
$upscope $end
$scope module reg_gen(6) $end
$scope module i_dff $end
$var reg 1 A# clk $end
$var reg 1 B# rst $end
$var reg 1 C# d $end
$var reg 1 D# q $end
$upscope $end
$upscope $end
$scope module reg_gen(7) $end
$scope module i_dff $end
$var reg 1 E# clk $end
$var reg 1 F# rst $end
$var reg 1 G# d $end
$var reg 1 H# q $end
$upscope $end
$upscope $end
$scope module reg_gen(8) $end
$scope module i_dff $end
$var reg 1 I# clk $end
$var reg 1 J# rst $end
$var reg 1 K# d $end
$var reg 1 L# q $end
$upscope $end
$upscope $end
$scope module reg_gen(9) $end
$scope module i_dff $end
$var reg 1 M# clk $end
$var reg 1 N# rst $end
$var reg 1 O# d $end
$var reg 1 P# q $end
$upscope $end
$upscope $end
$scope module reg_gen(10) $end
$scope module i_dff $end
$var reg 1 Q# clk $end
$var reg 1 R# rst $end
$var reg 1 S# d $end
$var reg 1 T# q $end
$upscope $end
$upscope $end
$scope module reg_gen(11) $end
$scope module i_dff $end
$var reg 1 U# clk $end
$var reg 1 V# rst $end
$var reg 1 W# d $end
$var reg 1 X# q $end
$upscope $end
$upscope $end
$scope module reg_gen(12) $end
$scope module i_dff $end
$var reg 1 Y# clk $end
$var reg 1 Z# rst $end
$var reg 1 [# d $end
$var reg 1 \# q $end
$upscope $end
$upscope $end
$scope module reg_gen(13) $end
$scope module i_dff $end
$var reg 1 ]# clk $end
$var reg 1 ^# rst $end
$var reg 1 _# d $end
$var reg 1 `# q $end
$upscope $end
$upscope $end
$scope module reg_gen(14) $end
$scope module i_dff $end
$var reg 1 a# clk $end
$var reg 1 b# rst $end
$var reg 1 c# d $end
$var reg 1 d# q $end
$upscope $end
$upscope $end
$scope module reg_gen(15) $end
$scope module i_dff $end
$var reg 1 e# clk $end
$var reg 1 f# rst $end
$var reg 1 g# d $end
$var reg 1 h# q $end
$upscope $end
$upscope $end
$upscope $end
$scope module mux1 $end
$var reg 16 i# i0[15:0] $end
$var reg 16 j# i1[15:0] $end
$var reg 1 k# s $end
$var reg 16 l# f[15:0] $end
$upscope $end
$scope module reg_out $end
$var reg 1 m# clk $end
$var reg 1 n# rst $end
$var reg 16 o# d[15:0] $end
$var reg 16 p# q[15:0] $end
$scope module reg_gen(0) $end
$scope module i_dff $end
$var reg 1 q# clk $end
$var reg 1 r# rst $end
$var reg 1 s# d $end
$var reg 1 t# q $end
$upscope $end
$upscope $end
$scope module reg_gen(1) $end
$scope module i_dff $end
$var reg 1 u# clk $end
$var reg 1 v# rst $end
$var reg 1 w# d $end
$var reg 1 x# q $end
$upscope $end
$upscope $end
$scope module reg_gen(2) $end
$scope module i_dff $end
$var reg 1 y# clk $end
$var reg 1 z# rst $end
$var reg 1 {# d $end
$var reg 1 |# q $end
$upscope $end
$upscope $end
$scope module reg_gen(3) $end
$scope module i_dff $end
$var reg 1 }# clk $end
$var reg 1 !$ rst $end
$var reg 1 "$ d $end
$var reg 1 #$ q $end
$upscope $end
$upscope $end
$scope module reg_gen(4) $end
$scope module i_dff $end
$var reg 1 $$ clk $end
$var reg 1 %$ rst $end
$var reg 1 &$ d $end
$var reg 1 '$ q $end
$upscope $end
$upscope $end
$scope module reg_gen(5) $end
$scope module i_dff $end
$var reg 1 ($ clk $end
$var reg 1 )$ rst $end
$var reg 1 *$ d $end
$var reg 1 +$ q $end
$upscope $end
$upscope $end
$scope module reg_gen(6) $end
$scope module i_dff $end
$var reg 1 ,$ clk $end
$var reg 1 -$ rst $end
$var reg 1 .$ d $end
$var reg 1 /$ q $end
$upscope $end
$upscope $end
$scope module reg_gen(7) $end
$scope module i_dff $end
$var reg 1 0$ clk $end
$var reg 1 1$ rst $end
$var reg 1 2$ d $end
$var reg 1 3$ q $end
$upscope $end
$upscope $end
$scope module reg_gen(8) $end
$scope module i_dff $end
$var reg 1 4$ clk $end
$var reg 1 5$ rst $end
$var reg 1 6$ d $end
$var reg 1 7$ q $end
$upscope $end
$upscope $end
$scope module reg_gen(9) $end
$scope module i_dff $end
$var reg 1 8$ clk $end
$var reg 1 9$ rst $end
$var reg 1 :$ d $end
$var reg 1 ;$ q $end
$upscope $end
$upscope $end
$scope module reg_gen(10) $end
$scope module i_dff $end
$var reg 1 <$ clk $end
$var reg 1 =$ rst $end
$var reg 1 >$ d $end
$var reg 1 ?$ q $end
$upscope $end
$upscope $end
$scope module reg_gen(11) $end
$scope module i_dff $end
$var reg 1 @$ clk $end
$var reg 1 A$ rst $end
$var reg 1 B$ d $end
$var reg 1 C$ q $end
$upscope $end
$upscope $end
$scope module reg_gen(12) $end
$scope module i_dff $end
$var reg 1 D$ clk $end
$var reg 1 E$ rst $end
$var reg 1 F$ d $end
$var reg 1 G$ q $end
$upscope $end
$upscope $end
$scope module reg_gen(13) $end
$scope module i_dff $end
$var reg 1 H$ clk $end
$var reg 1 I$ rst $end
$var reg 1 J$ d $end
$var reg 1 K$ q $end
$upscope $end
$upscope $end
$scope module reg_gen(14) $end
$scope module i_dff $end
$var reg 1 L$ clk $end
$var reg 1 M$ rst $end
$var reg 1 N$ d $end
$var reg 1 O$ q $end
$upscope $end
$upscope $end
$scope module reg_gen(15) $end
$scope module i_dff $end
$var reg 1 P$ clk $end
$var reg 1 Q$ rst $end
$var reg 1 R$ d $end
$var reg 1 S$ q $end
$upscope $end
$upscope $end
$upscope $end
$scope module cnt $end
$var reg 1 T$ count_puls $end
$var reg 1 U$ count_enable $end
$var reg 1 V$ rst $end
$var reg 8 W$ q[7:0] $end
$var reg 1 X$ tc $end
$var reg 8 Y$ internal[7:0] $end
$upscope $end
$scope module sr $end
$var reg 1 Z$ s $end
$var reg 1 [$ r $end
$var reg 1 \$ q $end
$var reg 1 ]$ not_q $end
$upscope $end
$upscope $end
$enddefinitions $end
#0
b00000101 !
b00001010 "
0#
0$
1%
1&
b0 '
0(
0)
b00000101 *
b00001010 +
1,
bUUUUUUUUUUUUUUUU -
U.
b00000000 /
bUUUUUUUU 0
bUUUUUUUU 1
b00000000UUUUUUUU 2
b00000000UUUUUUUU 3
bXXXXXXXXXXXXXXXX 4
bUUUUUUUUUUUUUUUU 5
bUUUUUUUUUUUUUUUU 6
bUUUUUUUUUUUUUUUU 7
08
bUUUUUUUUUUUUUUUU 9
0:
0;
U<
U=
0>
0?
b00000101 @
bUUUUUUUU A
0B
0C
1D
UE
0F
0G
0H
UI
0J
0K
1L
UM
0N
0O
0P
UQ
0R
0S
0T
UU
0V
0W
0X
UY
0Z
0[
0\
U]
0^
0_
0`
Ua
0b
0c
b00001010 d
bUUUUUUUU e
0f
0g
0h
Ui
0j
0k
1l
Um
0n
0o
0p
Uq
0r
0s
1t
Uu
0v
0w
0x
Uy
0z
0{
0|
U}
0!"
0""
0#"
U$"
0%"
0&"
0'"
U("
b00000000UUUUUUUU )"
b00000000UUUUUUUU *"
bXXXXXXXXXXXXXXXX +"
bXXXXXXXXXXXXXXXX ,"
bUUUUUUUUUUUUUUUU -"
0."
bUUUUUUUUUUUUUUUU /"
U0"
bUUUUUUUUUUUUUUUU0 1"
X2"
U3"
04"
U5"
U6"
X7"
U8"
U9"
U:"
U;"
X<"
U="
U>"
U?"
U@"
XA"
UB"
UC"
UD"
UE"
XF"
UG"
UH"
UI"
UJ"
XK"
UL"
UM"
UN"
UO"
XP"
UQ"
UR"
US"
UT"
XU"
UV"
UW"
UX"
UY"
XZ"
U["
U\"
U]"
U^"
X_"
U`"
Ua"
Ub"
Uc"
Xd"
Ue"
Uf"
Ug"
Uh"
Xi"
Uj"
Uk"
Ul"
Um"
Xn"
Uo"
Up"
Uq"
Ur"
Xs"
Ut"
Uu"
Uv"
Uw"
Xx"
Uy"
Uz"
U{"
U|"
X}"
U!#
U"#
U##
U$#
0%#
0&#
bUUUUUUUUUUUUUUUU '#
bUUUUUUUUUUUUUUUU (#
0)#
0*#
U+#
U,#
0-#
0.#
U/#
U0#
01#
02#
U3#
U4#
05#
06#
U7#
U8#
09#
0:#
U;#
U<#
0=#
0>#
U?#
U@#
0A#
0B#
UC#
UD#
0E#
0F#
UG#
UH#
0I#
0J#
UK#
UL#
0M#
0N#
UO#
UP#
0Q#
0R#
US#
UT#
0U#
0V#
UW#
UX#
0Y#
0Z#
U[#
U\#
0]#
0^#
U_#
U`#
0a#
0b#
Uc#
Ud#
0e#
0f#
Ug#
Uh#
bUUUUUUUUUUUUUUUU i#
bUUUUUUUUUUUUUUUU j#
Uk#
bUUUUUUUUUUUUUUUU l#
0m#
0n#
bUUUUUUUUUUUUUUUU o#
bUUUUUUUUUUUUUUUU p#
0q#
0r#
Us#
Ut#
0u#
0v#
Uw#
Ux#
0y#
0z#
U{#
U|#
0}#
0!$
U"$
U#$
0$$
0%$
U&$
U'$
0($
0)$
U*$
U+$
0,$
0-$
U.$
U/$
00$
01$
U2$
U3$
04$
05$
U6$
U7$
08$
09$
U:$
U;$
0<$
0=$
U>$
U?$
0@$
0A$
UB$
UC$
0D$
0E$
UF$
UG$
0H$
0I$
UJ$
UK$
0L$
0M$
UN$
UO$
0P$
0Q$
UR$
US$
0T$
1U$
0V$
bUUUUUUUU W$
0X$
bUUUUUUUU Y$
0Z$
0[$
U\$
U]$
#100000000
1#
b1 '
1(
b00000101 0
b00001010 1
b0000000000000101 2
b0000000000001010 3
b0000000000000101 4
1>
b00000101 A
1B
1E
1F
0I
1J
1M
1N
0Q
1R
0U
1V
0Y
1Z
0]
1^
0a
1b
b00001010 e
1f
0i
1j
1m
1n
0q
1r
1u
1v
0y
1z
0}
1!"
0$"
1%"
0("
b0000000000000101 )"
b0000000000001010 *"
b0000000000000101 +"
b0000000000000101 ,"
12"
07"
1<"
0A"
0F"
0K"
0P"
0U"
0Z"
0_"
0d"
0i"
0n"
0s"
0x"
0}"
1%#
1)#
1-#
11#
15#
19#
1=#
1A#
1E#
1I#
1M#
1Q#
1U#
1Y#
1]#
1a#
1e#
1m#
1q#
1u#
1y#
1}#
1$$
1($
1,$
10$
14$
18$
1<$
1@$
1D$
1H$
1L$
1P$
1T$
bXXXXXXXX W$
bXXXXXXXX Y$
#200000000
0#
0(
0>
0B
0F
0J
0N
0R
0V
0Z
0^
0b
0f
0j
0n
0r
0v
0z
0!"
0%"
0%#
0)#
0-#
01#
05#
09#
0=#
0A#
0E#
0I#
0M#
0Q#
0U#
0Y#
0]#
0a#
0e#
0m#
0q#
0u#
0y#
0}#
0$$
0($
0,$
00$
04$
08$
0<$
0@$
0D$
0H$
0L$
0P$
0T$
#300000000
1#
1$
b10 '
1(
1)
b0000000000000000 -
0.
b00000000 0
b00000000 1
b0000000000000000 2
b0000000000000000 3
b0000000000000000 4
b0000000000000000 5
b0000000000000000 6
b0000000000000000 7
18
b0000000000000000 9
0<
0=
1>
1?
b00000000 A
1B
1C
0E
1F
1G
1J
1K
0M
1N
1O
1R
1S
1V
1W
1Z
1[
1^
1_
1b
1c
b00000000 e
1f
1g
1j
1k
0m
1n
1o
1r
1s
0u
1v
1w
1z
1{
1!"
1""
1%"
1&"
b0000000000000000 )"
b0000000000000000 *"
b0000000000000000 +"
b0000000000000000 ,"
b0000000000000000 -"
b0000000000000000 /"
00"
b00000000000000000 1"
02"
03"
05"
06"
08"
09"
0:"
0;"
0<"
0="
0>"
0?"
0@"
0B"
0C"
0D"
0E"
0G"
0H"
0I"
0J"
0L"
0M"
0N"
0O"
0Q"
0R"
0S"
0T"
0V"
0W"
0X"
0Y"
0["
0\"
0]"
0^"
0`"
0a"
0b"
0c"
0e"
0f"
0g"
0h"
0j"
0k"
0l"
0m"
0o"
0p"
0q"
0r"
0t"
0u"
0v"
0w"
0y"
0z"
0{"
0|"
0!#
0"#
0##
0$#
1%#
1&#
b0000000000000000 '#
b0000000000000000 (#
1)#
1*#
0+#
0,#
1-#
1.#
0/#
00#
11#
12#
03#
04#
15#
16#
07#
08#
19#
1:#
0;#
0<#
1=#
1>#
0?#
0@#
1A#
1B#
0C#
0D#
1E#
1F#
0G#
0H#
1I#
1J#
0K#
0L#
1M#
1N#
0O#
0P#
1Q#
1R#
0S#
0T#
1U#
1V#
0W#
0X#
1Y#
1Z#
0[#
0\#
1]#
1^#
0_#
0`#
1a#
1b#
0c#
0d#
1e#
1f#
0g#
0h#
b0000000000000000 i#
b0000000000000000 j#
0k#
b0000000000000000 l#
1m#
1n#
b0000000000000000 o#
b0000000000000000 p#
1q#
1r#
0s#
0t#
1u#
1v#
0w#
0x#
1y#
1z#
0{#
0|#
1}#
1!$
0"$
0#$
1$$
1%$
0&$
0'$
1($
1)$
0*$
0+$
1,$
1-$
0.$
0/$
10$
11$
02$
03$
14$
15$
06$
07$
18$
19$
0:$
0;$
1<$
1=$
0>$
0?$
1@$
1A$
0B$
0C$
1D$
1E$
0F$
0G$
1H$
1I$
0J$
0K$
1L$
1M$
0N$
0O$
1P$
1Q$
0R$
0S$
1T$
1V$
1[$
0\$
1]$
#400000000
0#
0(
0>
0B
0F
0J
0N
0R
0V
0Z
0^
0b
0f
0j
0n
0r
0v
0z
0!"
0%"
0%#
0)#
0-#
01#
05#
09#
0=#
0A#
0E#
0I#
0M#
0Q#
0U#
0Y#
0]#
0a#
0e#
0m#
0q#
0u#
0y#
0}#
0$$
0($
0,$
00$
04$
08$
0<$
0@$
0D$
0H$
0L$
0P$
0T$
#500000000
1#
b11 '
1(
1>
1B
1F
1J
1N
1R
1V
1Z
1^
1b
1f
1j
1n
1r
1v
1z
1!"
1%"
1%#
1)#
1-#
11#
15#
19#
1=#
1A#
1E#
1I#
1M#
1Q#
1U#
1Y#
1]#
1a#
1e#
1m#
1q#
1u#
1y#
1}#
1$$
1($
1,$
10$
14$
18$
1<$
1@$
1D$
1H$
1L$
1P$
1T$
b00000000 W$
b00000000 Y$
#600000000
0#
0$
0(
0)
08
0>
0?
0B
0C
0F
0G
0J
0K
0N
0O
0R
0S
0V
0W
0Z
0[
0^
0_
0b
0c
0f
0g
0j
0k
0n
0o
0r
0s
0v
0w
0z
0{
0!"
0""
0%"
0&"
0%#
0&#
0)#
0*#
0-#
0.#
01#
02#
05#
06#
09#
0:#
0=#
0>#
0A#
0B#
0E#
0F#
0I#
0J#
0M#
0N#
0Q#
0R#
0U#
0V#
0Y#
0Z#
0]#
0^#
0a#
0b#
0e#
0f#
0m#
0n#
0q#
0r#
0u#
0v#
0y#
0z#
0}#
0!$
0$$
0%$
0($
0)$
0,$
0-$
00$
01$
04$
05$
08$
09$
0<$
0=$
0@$
0A$
0D$
0E$
0H$
0I$
0L$
0M$
0P$
0Q$
0T$
0V$
0[$
#700000000
1#
b100 '
1(
b00000101 0
b00001010 1
b0000000000000101 2
b0000000000001010 3
b0000000000000101 4
b0000000000000101 6
b0000000000000101 7
1>
b00000101 A
1B
1E
1F
1J
1M
1N
1R
1V
1Z
1^
1b
b00001010 e
1f
1j
1m
1n
1r
1u
1v
1z
1!"
1%"
b0000000000000101 )"
b0000000000001010 *"
b0000000000000101 +"
b0000000000000101 ,"
b0000000000000101 /"
12"
15"
1<"
1?"
1%#
b0000000000000101 '#
1)#
1+#
1-#
11#
13#
15#
19#
1=#
1A#
1E#
1I#
1M#
1Q#
1U#
1Y#
1]#
1a#
1e#
b0000000000000101 i#
b0000000000000101 l#
1m#
b0000000000000101 o#
1q#
1s#
1u#
1y#
1{#
1}#
1$$
1($
1,$
10$
14$
18$
1<$
1@$
1D$
1H$
1L$
1P$
1T$
b00000001 W$
b00000001 Y$
#800000000
0#
0(
0>
0B
0F
0J
0N
0R
0V
0Z
0^
0b
0f
0j
0n
0r
0v
0z
0!"
0%"
0%#
0)#
0-#
01#
05#
09#
0=#
0A#
0E#
0I#
0M#
0Q#
0U#
0Y#
0]#
0a#
0e#
0m#
0q#
0u#
0y#
0}#
0$$
0($
0,$
00$
04$
08$
0<$
0@$
0D$
0H$
0L$
0P$
0T$
#900000000
1#
b101 '
1(
b0000000000000101 -
b0000000000000101 5
b0000000000001010 6
b0000000000001010 7
b0000000000000101 9
1>
1B
1F
1J
1N
1R
1V
1Z
1^
1b
1f
1j
1n
1r
1v
1z
1!"
1%"
b0000000000000101 -"
b0000000000001010 /"
b00000000000001010 1"
13"
05"
16"
19"
1:"
1="
0?"
1@"
1C"
1D"
1%#
b0000000000001010 '#
b0000000000000101 (#
1)#
0+#
1,#
1-#
1/#
11#
03#
14#
15#
17#
19#
1=#
1A#
1E#
1I#
1M#
1Q#
1U#
1Y#
1]#
1a#
1e#
b0000000000001010 i#
b0000000000000101 j#
b0000000000001010 l#
1m#
b0000000000001010 o#
b0000000000000101 p#
1q#
0s#
1t#
1u#
1w#
1y#
0{#
1|#
1}#
1"$
1$$
1($
1,$
10$
14$
18$
1<$
1@$
1D$
1H$
1L$
1P$
1T$
b00000010 W$
b00000010 Y$
#1000000000
0#
0(
0>
0B
0F
0J
0N
0R
0V
0Z
0^
0b
0f
0j
0n
0r
0v
0z
0!"
0%"
0%#
0)#
0-#
01#
05#
09#
0=#
0A#
0E#
0I#
0M#
0Q#
0U#
0Y#
0]#
0a#
0e#
0m#
0q#
0u#
0y#
0}#
0$$
0($
0,$
00$
04$
08$
0<$
0@$
0D$
0H$
0L$
0P$
0T$
#1100000000
1#
b110 '
1(
b0000000000001010 -
b0000000000001010 5
b0000000000001111 6
b0000000000001111 7
b0000000000001010 9
1>
1B
1F
1J
1N
1R
1V
1Z
1^
1b
1f
1j
1n
1r
1v
1z
1!"
1%"
b0000000000001010 -"
b0000000000001111 /"
b00000000000000000 1"
03"
15"
06"
18"
09"
1:"
0;"
0="
0>"
1?"
0@"
1B"
0C"
1D"
0E"
0H"
0I"
1%#
b0000000000001111 '#
b0000000000001010 (#
1)#
1+#
0,#
1-#
1/#
10#
11#
13#
04#
15#
17#
18#
19#
0;#
1=#
1A#
1E#
1I#
1M#
1Q#
1U#
1Y#
1]#
1a#
1e#
b0000000000001111 i#
b0000000000001010 j#
b0000000000001111 l#
1m#
b0000000000001111 o#
b0000000000001010 p#
1q#
1s#
0t#
1u#
1w#
1x#
1y#
1{#
0|#
1}#
1"$
1#$
1$$
0&$
1($
1,$
10$
14$
18$
1<$
1@$
1D$
1H$
1L$
1P$
1T$
b00000011 W$
b00000011 Y$
#1200000000
0#
0(
0>
0B
0F
0J
0N
0R
0V
0Z
0^
0b
0f
0j
0n
0r
0v
0z
0!"
0%"
0%#
0)#
0-#
01#
05#
09#
0=#
0A#
0E#
0I#
0M#
0Q#
0U#
0Y#
0]#
0a#
0e#
0m#
0q#
0u#
0y#
0}#
0$$
0($
0,$
00$
04$
08$
0<$
0@$
0D$
0H$
0L$
0P$
0T$
#1300000000
1#
b111 '
1(
b0000000000001111 -
b0000000000001111 5
b0000000000010100 6
b0000000000010100 7
b0000000000001111 9
1>
1B
1F
1J
1N
1R
1V
1Z
1^
1b
1f
1j
1n
1r
1v
1z
1!"
1%"
b0000000000001111 -"
b0000000000010100 /"
b00000000000011110 1"
13"
05"
16"
19"
0:"
1;"
1="
1>"
1?"
1@"
1C"
0D"
1E"
1H"
1I"
1%#
b0000000000010100 '#
b0000000000001111 (#
1)#
0+#
1,#
1-#
0/#
11#
13#
14#
15#
07#
19#
1;#
1=#
1A#
1E#
1I#
1M#
1Q#
1U#
1Y#
1]#
1a#
1e#
b0000000000010100 i#
b0000000000001111 j#
b0000000000010100 l#
1m#
b0000000000010100 o#
b0000000000001111 p#
1q#
0s#
1t#
1u#
0w#
1y#
1{#
1|#
1}#
0"$
1$$
1&$
1($
1,$
10$
14$
18$
1<$
1@$
1D$
1H$
1L$
1P$
1T$
b00000100 W$
b00000100 Y$
