waveforms/tb_PhaseAccumulator.vcd
$date
  Sun May 27 20:33:20 2018
$end
$version
  GHDL v0
$end
$timescale
  1 fs
$end
$var reg 1 ! clk_ext $end
$var reg 1 " rst_ext $end
$var reg 16 # pa_in_ext[15:0] $end
$var reg 1 $ testing $end
$scope module dut $end
$var reg 1 % clk $end
$var reg 1 & rst $end
$var reg 16 ' pa_in[15:0] $end
$var reg 16 ( pa_out[15:0] $end
$var reg 16 ) kfw_s[15:0] $end
$var reg 16 * kfw_next[15:0] $end
$scope module i_adder $end
$var reg 16 + x[15:0] $end
$var reg 16 , y[15:0] $end
$var reg 1 - c0 $end
$var reg 16 . s[15:0] $end
$var reg 1 / cn $end
$var reg 17 0 c[16:0] $end
$scope module gen_rca(0) $end
$scope module i_fa $end
$var reg 1 1 x $end
$var reg 1 2 y $end
$var reg 1 3 cin $end
$var reg 1 4 s $end
$var reg 1 5 cout $end
$upscope $end
$upscope $end
$scope module gen_rca(1) $end
$scope module i_fa $end
$var reg 1 6 x $end
$var reg 1 7 y $end
$var reg 1 8 cin $end
$var reg 1 9 s $end
$var reg 1 : cout $end
$upscope $end
$upscope $end
$scope module gen_rca(2) $end
$scope module i_fa $end
$var reg 1 ; x $end
$var reg 1 < y $end
$var reg 1 = cin $end
$var reg 1 > s $end
$var reg 1 ? cout $end
$upscope $end
$upscope $end
$scope module gen_rca(3) $end
$scope module i_fa $end
$var reg 1 @ x $end
$var reg 1 A y $end
$var reg 1 B cin $end
$var reg 1 C s $end
$var reg 1 D cout $end
$upscope $end
$upscope $end
$scope module gen_rca(4) $end
$scope module i_fa $end
$var reg 1 E x $end
$var reg 1 F y $end
$var reg 1 G cin $end
$var reg 1 H s $end
$var reg 1 I cout $end
$upscope $end
$upscope $end
$scope module gen_rca(5) $end
$scope module i_fa $end
$var reg 1 J x $end
$var reg 1 K y $end
$var reg 1 L cin $end
$var reg 1 M s $end
$var reg 1 N cout $end
$upscope $end
$upscope $end
$scope module gen_rca(6) $end
$scope module i_fa $end
$var reg 1 O x $end
$var reg 1 P y $end
$var reg 1 Q cin $end
$var reg 1 R s $end
$var reg 1 S cout $end
$upscope $end
$upscope $end
$scope module gen_rca(7) $end
$scope module i_fa $end
$var reg 1 T x $end
$var reg 1 U y $end
$var reg 1 V cin $end
$var reg 1 W s $end
$var reg 1 X cout $end
$upscope $end
$upscope $end
$scope module gen_rca(8) $end
$scope module i_fa $end
$var reg 1 Y x $end
$var reg 1 Z y $end
$var reg 1 [ cin $end
$var reg 1 \ s $end
$var reg 1 ] cout $end
$upscope $end
$upscope $end
$scope module gen_rca(9) $end
$scope module i_fa $end
$var reg 1 ^ x $end
$var reg 1 _ y $end
$var reg 1 ` cin $end
$var reg 1 a s $end
$var reg 1 b cout $end
$upscope $end
$upscope $end
$scope module gen_rca(10) $end
$scope module i_fa $end
$var reg 1 c x $end
$var reg 1 d y $end
$var reg 1 e cin $end
$var reg 1 f s $end
$var reg 1 g cout $end
$upscope $end
$upscope $end
$scope module gen_rca(11) $end
$scope module i_fa $end
$var reg 1 h x $end
$var reg 1 i y $end
$var reg 1 j cin $end
$var reg 1 k s $end
$var reg 1 l cout $end
$upscope $end
$upscope $end
$scope module gen_rca(12) $end
$scope module i_fa $end
$var reg 1 m x $end
$var reg 1 n y $end
$var reg 1 o cin $end
$var reg 1 p s $end
$var reg 1 q cout $end
$upscope $end
$upscope $end
$scope module gen_rca(13) $end
$scope module i_fa $end
$var reg 1 r x $end
$var reg 1 s y $end
$var reg 1 t cin $end
$var reg 1 u s $end
$var reg 1 v cout $end
$upscope $end
$upscope $end
$scope module gen_rca(14) $end
$scope module i_fa $end
$var reg 1 w x $end
$var reg 1 x y $end
$var reg 1 y cin $end
$var reg 1 z s $end
$var reg 1 { cout $end
$upscope $end
$upscope $end
$scope module gen_rca(15) $end
$scope module i_fa $end
$var reg 1 | x $end
$var reg 1 } y $end
$var reg 1 !" cin $end
$var reg 1 "" s $end
$var reg 1 #" cout $end
$upscope $end
$upscope $end
$upscope $end
$scope module i_reg $end
$var reg 1 $" clk $end
$var reg 1 %" rst $end
$var reg 16 &" d[15:0] $end
$var reg 16 '" q[15:0] $end
$scope module reg_gen(0) $end
$scope module i_dff $end
$var reg 1 (" clk $end
$var reg 1 )" rst $end
$var reg 1 *" d $end
$var reg 1 +" q $end
$upscope $end
$upscope $end
$scope module reg_gen(1) $end
$scope module i_dff $end
$var reg 1 ," clk $end
$var reg 1 -" rst $end
$var reg 1 ." d $end
$var reg 1 /" q $end
$upscope $end
$upscope $end
$scope module reg_gen(2) $end
$scope module i_dff $end
$var reg 1 0" clk $end
$var reg 1 1" rst $end
$var reg 1 2" d $end
$var reg 1 3" q $end
$upscope $end
$upscope $end
$scope module reg_gen(3) $end
$scope module i_dff $end
$var reg 1 4" clk $end
$var reg 1 5" rst $end
$var reg 1 6" d $end
$var reg 1 7" q $end
$upscope $end
$upscope $end
$scope module reg_gen(4) $end
$scope module i_dff $end
$var reg 1 8" clk $end
$var reg 1 9" rst $end
$var reg 1 :" d $end
$var reg 1 ;" q $end
$upscope $end
$upscope $end
$scope module reg_gen(5) $end
$scope module i_dff $end
$var reg 1 <" clk $end
$var reg 1 =" rst $end
$var reg 1 >" d $end
$var reg 1 ?" q $end
$upscope $end
$upscope $end
$scope module reg_gen(6) $end
$scope module i_dff $end
$var reg 1 @" clk $end
$var reg 1 A" rst $end
$var reg 1 B" d $end
$var reg 1 C" q $end
$upscope $end
$upscope $end
$scope module reg_gen(7) $end
$scope module i_dff $end
$var reg 1 D" clk $end
$var reg 1 E" rst $end
$var reg 1 F" d $end
$var reg 1 G" q $end
$upscope $end
$upscope $end
$scope module reg_gen(8) $end
$scope module i_dff $end
$var reg 1 H" clk $end
$var reg 1 I" rst $end
$var reg 1 J" d $end
$var reg 1 K" q $end
$upscope $end
$upscope $end
$scope module reg_gen(9) $end
$scope module i_dff $end
$var reg 1 L" clk $end
$var reg 1 M" rst $end
$var reg 1 N" d $end
$var reg 1 O" q $end
$upscope $end
$upscope $end
$scope module reg_gen(10) $end
$scope module i_dff $end
$var reg 1 P" clk $end
$var reg 1 Q" rst $end
$var reg 1 R" d $end
$var reg 1 S" q $end
$upscope $end
$upscope $end
$scope module reg_gen(11) $end
$scope module i_dff $end
$var reg 1 T" clk $end
$var reg 1 U" rst $end
$var reg 1 V" d $end
$var reg 1 W" q $end
$upscope $end
$upscope $end
$scope module reg_gen(12) $end
$scope module i_dff $end
$var reg 1 X" clk $end
$var reg 1 Y" rst $end
$var reg 1 Z" d $end
$var reg 1 [" q $end
$upscope $end
$upscope $end
$scope module reg_gen(13) $end
$scope module i_dff $end
$var reg 1 \" clk $end
$var reg 1 ]" rst $end
$var reg 1 ^" d $end
$var reg 1 _" q $end
$upscope $end
$upscope $end
$scope module reg_gen(14) $end
$scope module i_dff $end
$var reg 1 `" clk $end
$var reg 1 a" rst $end
$var reg 1 b" d $end
$var reg 1 c" q $end
$upscope $end
$upscope $end
$scope module reg_gen(15) $end
$scope module i_dff $end
$var reg 1 d" clk $end
$var reg 1 e" rst $end
$var reg 1 f" d $end
$var reg 1 g" q $end
$upscope $end
$upscope $end
$upscope $end
$upscope $end
$enddefinitions $end
#0
0!
1"
bUUUUUUUUUUUUUUUU #
1$
0%
1&
bUUUUUUUUUUUUUUUU '
b0000000000000000 (
b0000000000000000 )
bUUUUUUUUUUUUUUUU *
bUUUUUUUUUUUUUUUU +
b0000000000000000 ,
0-
bUUUUUUUUUUUUUUUU .
0/
b00000000000000000 0
U1
02
03
U4
05
U6
07
08
U9
0:
U;
0<
0=
U>
0?
U@
0A
0B
UC
0D
UE
0F
0G
UH
0I
UJ
0K
0L
UM
0N
UO
0P
0Q
UR
0S
UT
0U
0V
UW
0X
UY
0Z
0[
U\
0]
U^
0_
0`
Ua
0b
Uc
0d
0e
Uf
0g
Uh
0i
0j
Uk
0l
Um
0n
0o
Up
0q
Ur
0s
0t
Uu
0v
Uw
0x
0y
Uz
0{
U|
0}
0!"
U""
0#"
0$"
1%"
bUUUUUUUUUUUUUUUU &"
b0000000000000000 '"
0("
1)"
U*"
0+"
0,"
1-"
U."
0/"
00"
11"
U2"
03"
04"
15"
U6"
07"
08"
19"
U:"
0;"
0<"
1="
U>"
0?"
0@"
1A"
UB"
0C"
0D"
1E"
UF"
0G"
0H"
1I"
UJ"
0K"
0L"
1M"
UN"
0O"
0P"
1Q"
UR"
0S"
0T"
1U"
UV"
0W"
0X"
1Y"
UZ"
0["
0\"
1]"
U^"
0_"
0`"
1a"
Ub"
0c"
0d"
1e"
Uf"
0g"
#10000000
1!
1%
1$"
1("
1,"
10"
14"
18"
1<"
1@"
1D"
1H"
1L"
1P"
1T"
1X"
1\"
1`"
1d"
#20000000
0!
0%
0$"
0("
0,"
00"
04"
08"
0<"
0@"
0D"
0H"
0L"
0P"
0T"
0X"
0\"
0`"
0d"
#30000000
1!
1%
1$"
1("
1,"
10"
14"
18"
1<"
1@"
1D"
1H"
1L"
1P"
1T"
1X"
1\"
1`"
1d"
#40000000
0!
0%
0$"
0("
0,"
00"
04"
08"
0<"
0@"
0D"
0H"
0L"
0P"
0T"
0X"
0\"
0`"
0d"
#50000000
1!
1%
1$"
1("
1,"
10"
14"
18"
1<"
1@"
1D"
1H"
1L"
1P"
1T"
1X"
1\"
1`"
1d"
#52000000
b0001000110110001 #
b0001000110110001 '
b0001000110110001 *
b0001000110110001 +
b0001000110110001 .
11
14
06
09
0;
0>
0@
0C
1E
1H
1J
1M
0O
0R
1T
1W
1Y
1\
0^
0a
0c
0f
0h
0k
1m
1p
0r
0u
0w
0z
0|
0""
b0001000110110001 &"
1*"
0."
02"
06"
1:"
1>"
0B"
1F"
1J"
0N"
0R"
0V"
1Z"
0^"
0b"
0f"
#60000000
0!
0%
0$"
0("
0,"
00"
04"
08"
0<"
0@"
0D"
0H"
0L"
0P"
0T"
0X"
0\"
0`"
0d"
#70000000
1!
1%
1$"
1("
1,"
10"
14"
18"
1<"
1@"
1D"
1H"
1L"
1P"
1T"
1X"
1\"
1`"
1d"
#80000000
0!
0%
0$"
0("
0,"
00"
04"
08"
0<"
0@"
0D"
0H"
0L"
0P"
0T"
0X"
0\"
0`"
0d"
#90000000
1!
1%
1$"
1("
1,"
10"
14"
18"
1<"
1@"
1D"
1H"
1L"
1P"
1T"
1X"
1\"
1`"
1d"
#100000000
0!
0%
0$"
0("
0,"
00"
04"
08"
0<"
0@"
0D"
0H"
0L"
0P"
0T"
0X"
0\"
0`"
0d"
#102000000
b1111111101001100 #
b1111111101001100 '
b1111111101001100 *
b1111111101001100 +
b1111111101001100 .
01
04
1;
1>
1@
1C
0E
0H
0J
0M
1O
1R
0T
0W
1^
1a
1c
1f
1h
1k
1r
1u
1w
1z
1|
1""
b1111111101001100 &"
0*"
12"
16"
0:"
0>"
1B"
0F"
1N"
1R"
1V"
1^"
1b"
1f"
#110000000
1!
1%
1$"
1("
1,"
10"
14"
18"
1<"
1@"
1D"
1H"
1L"
1P"
1T"
1X"
1\"
1`"
1d"
#120000000
0!
0%
0$"
0("
0,"
00"
04"
08"
0<"
0@"
0D"
0H"
0L"
0P"
0T"
0X"
0\"
0`"
0d"
#130000000
1!
1%
1$"
1("
1,"
10"
14"
18"
1<"
1@"
1D"
1H"
1L"
1P"
1T"
1X"
1\"
1`"
1d"
#140000000
0!
0%
0$"
0("
0,"
00"
04"
08"
0<"
0@"
0D"
0H"
0L"
0P"
0T"
0X"
0\"
0`"
0d"
#150000000
1!
1%
1$"
1("
1,"
10"
14"
18"
1<"
1@"
1D"
1H"
1L"
1P"
1T"
1X"
1\"
1`"
1d"
#160000000
0!
0%
0$"
0("
0,"
00"
04"
08"
0<"
0@"
0D"
0H"
0L"
0P"
0T"
0X"
0\"
0`"
0d"
#170000000
1!
1%
1$"
1("
1,"
10"
14"
18"
1<"
1@"
1D"
1H"
1L"
1P"
1T"
1X"
1\"
1`"
1d"
#172000000
0"
0&
0%"
0)"
0-"
01"
05"
09"
0="
0A"
0E"
0I"
0M"
0Q"
0U"
0Y"
0]"
0a"
0e"
#180000000
0!
0%
0$"
0("
0,"
00"
04"
08"
0<"
0@"
0D"
0H"
0L"
0P"
0T"
0X"
0\"
0`"
0d"
#182000000
b0000000000000001 #
b0000000000000001 '
b0000000000000001 *
b0000000000000001 +
b0000000000000001 .
11
14
0;
0>
0@
0C
0O
0R
0Y
0\
0^
0a
0c
0f
0h
0k
0m
0p
0r
0u
0w
0z
0|
0""
b0000000000000001 &"
1*"
02"
06"
0B"
0J"
0N"
0R"
0V"
0Z"
0^"
0b"
0f"
#190000000
1!
1%
b0000000000000001 (
b0000000000000001 )
b0000000000000010 *
b0000000000000001 ,
b0000000000000010 .
b00000000000000010 0
12
04
15
18
19
1$"
b0000000000000010 &"
b0000000000000001 '"
1("
0*"
1+"
1,"
1."
10"
14"
18"
1<"
1@"
1D"
1H"
1L"
1P"
1T"
1X"
1\"
1`"
1d"
#200000000
0!
0%
0$"
0("
0,"
00"
04"
08"
0<"
0@"
0D"
0H"
0L"
0P"
0T"
0X"
0\"
0`"
0d"
#210000000
1!
1%
b0000000000000010 (
b0000000000000010 )
b0000000000000011 *
b0000000000000010 ,
b0000000000000011 .
b00000000000000000 0
02
14
05
17
08
19
0:
0=
0>
1$"
b0000000000000011 &"
b0000000000000010 '"
1("
1*"
0+"
1,"
1."
1/"
10"
02"
14"
18"
1<"
1@"
1D"
1H"
1L"
1P"
1T"
1X"
1\"
1`"
1d"
#220000000
0!
0%
0$"
0("
0,"
00"
04"
08"
0<"
0@"
0D"
0H"
0L"
0P"
0T"
0X"
0\"
0`"
0d"
#230000000
1!
1%
b0000000000000011 (
b0000000000000011 )
b0000000000000100 *
b0000000000000011 ,
b0000000000000100 .
b00000000000000110 0
12
04
15
18
09
1:
1=
1>
1$"
b0000000000000100 &"
b0000000000000011 '"
1("
0*"
1+"
1,"
0."
10"
12"
14"
18"
1<"
1@"
1D"
1H"
1L"
1P"
1T"
1X"
1\"
1`"
1d"
#232000000
1"
1&
b0000000000000000 (
b0000000000000000 )
b0000000000000001 *
b0000000000000000 ,
b0000000000000001 .
b00000000000000000 0
02
14
05
07
08
09
0:
0=
0>
1%"
b0000000000000001 &"
b0000000000000000 '"
1)"
1*"
0+"
1-"
0."
0/"
11"
02"
15"
19"
1="
1A"
1E"
1I"
1M"
1Q"
1U"
1Y"
1]"
1a"
1e"
#240000000
0!
0%
0$"
0("
0,"
00"
04"
08"
0<"
0@"
0D"
0H"
0L"
0P"
0T"
0X"
0\"
0`"
0d"
#250000000
1!
1%
1$"
1("
1,"
10"
14"
18"
1<"
1@"
1D"
1H"
1L"
1P"
1T"
1X"
1\"
1`"
1d"
#260000000
0!
0%
0$"
0("
0,"
00"
04"
08"
0<"
0@"
0D"
0H"
0L"
0P"
0T"
0X"
0\"
0`"
0d"
#270000000
1!
1%
1$"
1("
1,"
10"
14"
18"
1<"
1@"
1D"
1H"
1L"
1P"
1T"
1X"
1\"
1`"
1d"
#280000000
0!
0%
0$"
0("
0,"
00"
04"
08"
0<"
0@"
0D"
0H"
0L"
0P"
0T"
0X"
0\"
0`"
0d"
#290000000
1!
1%
1$"
1("
1,"
10"
14"
18"
1<"
1@"
1D"
1H"
1L"
1P"
1T"
1X"
1\"
1`"
1d"
#300000000
0!
0%
0$"
0("
0,"
00"
04"
08"
0<"
0@"
0D"
0H"
0L"
0P"
0T"
0X"
0\"
0`"
0d"
#310000000
1!
1%
1$"
1("
1,"
10"
14"
18"
1<"
1@"
1D"
1H"
1L"
1P"
1T"
1X"
1\"
1`"
1d"
#320000000
0!
0%
0$"
0("
0,"
00"
04"
08"
0<"
0@"
0D"
0H"
0L"
0P"
0T"
0X"
0\"
0`"
0d"
#330000000
1!
1%
1$"
1("
1,"
10"
14"
18"
1<"
1@"
1D"
1H"
1L"
1P"
1T"
1X"
1\"
1`"
1d"
#340000000
0!
0%
0$"
0("
0,"
00"
04"
08"
0<"
0@"
0D"
0H"
0L"
0P"
0T"
0X"
0\"
0`"
0d"
#342000000
0"
0&
0%"
0)"
0-"
01"
05"
09"
0="
0A"
0E"
0I"
0M"
0Q"
0U"
0Y"
0]"
0a"
0e"
#350000000
1!
1%
b0000000000000001 (
b0000000000000001 )
b0000000000000010 *
b0000000000000001 ,
b0000000000000010 .
b00000000000000010 0
12
04
15
18
19
1$"
b0000000000000010 &"
b0000000000000001 '"
1("
0*"
1+"
1,"
1."
10"
14"
18"
1<"
1@"
1D"
1H"
1L"
1P"
1T"
1X"
1\"
1`"
1d"
#360000000
0!
0%
0$"
0("
0,"
00"
04"
08"
0<"
0@"
0D"
0H"
0L"
0P"
0T"
0X"
0\"
0`"
0d"
#370000000
1!
1%
b0000000000000010 (
b0000000000000010 )
b0000000000000011 *
b0000000000000010 ,
b0000000000000011 .
b00000000000000000 0
02
14
05
17
08
19
0:
0=
0>
1$"
b0000000000000011 &"
b0000000000000010 '"
1("
1*"
0+"
1,"
1."
1/"
10"
02"
14"
18"
1<"
1@"
1D"
1H"
1L"
1P"
1T"
1X"
1\"
1`"
1d"
#380000000
0!
0%
0$"
0("
0,"
00"
04"
08"
0<"
0@"
0D"
0H"
0L"
0P"
0T"
0X"
0\"
0`"
0d"
#390000000
1!
1%
b0000000000000011 (
b0000000000000011 )
b0000000000000100 *
b0000000000000011 ,
b0000000000000100 .
b00000000000000110 0
12
04
15
18
09
1:
1=
1>
1$"
b0000000000000100 &"
b0000000000000011 '"
1("
0*"
1+"
1,"
0."
10"
12"
14"
18"
1<"
1@"
1D"
1H"
1L"
1P"
1T"
1X"
1\"
1`"
1d"
#400000000
0!
0%
0$"
0("
0,"
00"
04"
08"
0<"
0@"
0D"
0H"
0L"
0P"
0T"
0X"
0\"
0`"
0d"
#410000000
1!
1%
b0000000000000100 (
b0000000000000100 )
b0000000000000101 *
b0000000000000100 ,
b0000000000000101 .
b00000000000000000 0
02
14
05
07
08
09
0:
1<
0=
1>
0?
0B
0C
1$"
b0000000000000101 &"
b0000000000000100 '"
1("
1*"
0+"
1,"
0."
0/"
10"
12"
13"
14"
06"
18"
1<"
1@"
1D"
1H"
1L"
1P"
1T"
1X"
1\"
1`"
1d"
#420000000
0!
0%
0$"
0("
0,"
00"
04"
08"
0<"
0@"
0D"
0H"
0L"
0P"
0T"
0X"
0\"
0`"
0d"
#430000000
1!
1%
b0000000000000101 (
b0000000000000101 )
b0000000000000110 *
b0000000000000101 ,
b0000000000000110 .
b00000000000000010 0
12
04
15
18
19
1$"
b0000000000000110 &"
b0000000000000101 '"
1("
0*"
1+"
1,"
1."
10"
14"
18"
1<"
1@"
1D"
1H"
1L"
1P"
1T"
1X"
1\"
1`"
1d"
#440000000
0!
0%
0$"
0("
0,"
00"
04"
08"
0<"
0@"
0D"
0H"
0L"
0P"
0T"
0X"
0\"
0`"
0d"
#450000000
1!
1%
b0000000000000110 (
b0000000000000110 )
b0000000000000111 *
b0000000000000110 ,
b0000000000000111 .
b00000000000000000 0
02
14
05
17
08
19
0:
0=
1>
0?
0B
0C
1$"
b0000000000000111 &"
b0000000000000110 '"
1("
1*"
0+"
1,"
1."
1/"
10"
12"
14"
06"
18"
1<"
1@"
1D"
1H"
1L"
1P"
1T"
1X"
1\"
1`"
1d"
#460000000
0!
0%
0$"
0("
0,"
00"
04"
08"
0<"
0@"
0D"
0H"
0L"
0P"
0T"
0X"
0\"
0`"
0d"
#470000000
1!
1%
b0000000000000111 (
b0000000000000111 )
b0000000000001000 *
b0000000000000111 ,
b0000000000001000 .
b00000000000001110 0
12
04
15
18
09
1:
1=
0>
1?
1B
1C
1$"
b0000000000001000 &"
b0000000000000111 '"
1("
0*"
1+"
1,"
0."
10"
02"
14"
16"
18"
1<"
1@"
1D"
1H"
1L"
1P"
1T"
1X"
1\"
1`"
1d"
#480000000
0!
0%
0$"
0("
0,"
00"
04"
08"
0<"
0@"
0D"
0H"
0L"
0P"
0T"
0X"
0\"
0`"
0d"
#490000000
1!
1%
b0000000000001000 (
b0000000000001000 )
b0000000000001001 *
b0000000000001000 ,
b0000000000001001 .
b00000000000000000 0
02
14
05
07
08
09
0:
0<
0=
0>
0?
1A
0B
1C
0D
0G
0H
1$"
b0000000000001001 &"
b0000000000001000 '"
1("
1*"
0+"
1,"
0."
0/"
10"
02"
03"
14"
16"
17"
18"
0:"
1<"
1@"
1D"
1H"
1L"
1P"
1T"
1X"
1\"
1`"
1d"
#500000000
0!
0%
0$"
0("
0,"
00"
04"
08"
0<"
0@"
0D"
0H"
0L"
0P"
0T"
0X"
0\"
0`"
0d"
#510000000
1!
1%
b0000000000001001 (
b0000000000001001 )
b0000000000001010 *
b0000000000001001 ,
b0000000000001010 .
b00000000000000010 0
12
04
15
18
19
1$"
b0000000000001010 &"
b0000000000001001 '"
1("
0*"
1+"
1,"
1."
10"
14"
18"
1<"
1@"
1D"
1H"
1L"
1P"
1T"
1X"
1\"
1`"
1d"
#520000000
0!
0%
0$"
0("
0,"
00"
04"
08"
0<"
0@"
0D"
0H"
0L"
0P"
0T"
0X"
0\"
0`"
0d"
#530000000
1!
1%
b0000000000001010 (
b0000000000001010 )
b0000000000001011 *
b0000000000001010 ,
b0000000000001011 .
b00000000000000000 0
02
14
05
17
08
19
0:
0=
0>
1$"
b0000000000001011 &"
b0000000000001010 '"
1("
1*"
0+"
1,"
1."
1/"
10"
02"
14"
18"
1<"
1@"
1D"
1H"
1L"
1P"
1T"
1X"
1\"
1`"
1d"
#540000000
0!
0%
0$"
0("
0,"
00"
04"
08"
0<"
0@"
0D"
0H"
0L"
0P"
0T"
0X"
0\"
0`"
0d"
#550000000
1!
1%
b0000000000001011 (
b0000000000001011 )
b0000000000001100 *
b0000000000001011 ,
b0000000000001100 .
b00000000000000110 0
12
04
15
18
09
1:
1=
1>
1$"
b0000000000001100 &"
b0000000000001011 '"
1("
0*"
1+"
1,"
0."
10"
12"
14"
18"
1<"
1@"
1D"
1H"
1L"
1P"
1T"
1X"
1\"
1`"
1d"
#560000000
0!
0%
0$"
0("
0,"
00"
04"
08"
0<"
0@"
0D"
0H"
0L"
0P"
0T"
0X"
0\"
0`"
0d"
#570000000
1!
1%
b0000000000001100 (
b0000000000001100 )
b0000000000001101 *
b0000000000001100 ,
b0000000000001101 .
b00000000000000000 0
02
14
05
07
08
09
0:
1<
0=
1>
0?
0B
1C
0D
0G
0H
1$"
b0000000000001101 &"
b0000000000001100 '"
1("
1*"
0+"
1,"
0."
0/"
10"
12"
13"
14"
16"
18"
0:"
1<"
1@"
1D"
1H"
1L"
1P"
1T"
1X"
1\"
1`"
1d"
#580000000
0!
0%
0$"
0("
0,"
00"
04"
08"
0<"
0@"
0D"
0H"
0L"
0P"
0T"
0X"
0\"
0`"
0d"
#590000000
1!
1%
b0000000000001101 (
b0000000000001101 )
b0000000000001110 *
b0000000000001101 ,
b0000000000001110 .
b00000000000000010 0
12
04
15
18
19
1$"
b0000000000001110 &"
b0000000000001101 '"
1("
0*"
1+"
1,"
1."
10"
14"
18"
1<"
1@"
1D"
1H"
1L"
1P"
1T"
1X"
1\"
1`"
1d"
#600000000
0!
0%
0$"
0("
0,"
00"
04"
08"
0<"
0@"
0D"
0H"
0L"
0P"
0T"
0X"
0\"
0`"
0d"
#610000000
1!
1%
b0000000000001110 (
b0000000000001110 )
b0000000000001111 *
b0000000000001110 ,
b0000000000001111 .
b00000000000000000 0
02
14
05
17
08
19
0:
0=
1>
0?
0B
1C
0D
0G
0H
1$"
b0000000000001111 &"
b0000000000001110 '"
1("
1*"
0+"
1,"
1."
1/"
10"
12"
14"
16"
18"
0:"
1<"
1@"
1D"
1H"
1L"
1P"
1T"
1X"
1\"
1`"
1d"
#620000000
0!
0%
0$"
0("
0,"
00"
04"
08"
0<"
0@"
0D"
0H"
0L"
0P"
0T"
0X"
0\"
0`"
0d"
#630000000
1!
1%
b0000000000001111 (
b0000000000001111 )
b0000000000010000 *
b0000000000001111 ,
b0000000000010000 .
b00000000000011110 0
12
04
15
18
09
1:
1=
0>
1?
1B
0C
1D
1G
1H
1$"
b0000000000010000 &"
b0000000000001111 '"
1("
0*"
1+"
1,"
0."
10"
02"
14"
06"
18"
1:"
1<"
1@"
1D"
1H"
1L"
1P"
1T"
1X"
1\"
1`"
1d"
#640000000
0!
0%
0$"
0("
0,"
00"
04"
08"
0<"
0@"
0D"
0H"
0L"
0P"
0T"
0X"
0\"
0`"
0d"
#650000000
1!
1%
b0000000000010000 (
b0000000000010000 )
b0000000000010001 *
b0000000000010000 ,
b0000000000010001 .
b00000000000000000 0
02
14
05
07
08
09
0:
0<
0=
0>
0?
0A
0B
0C
0D
1F
0G
1H
0I
0L
0M
1$"
b0000000000010001 &"
b0000000000010000 '"
1("
1*"
0+"
1,"
0."
0/"
10"
02"
03"
14"
06"
07"
18"
1:"
1;"
1<"
0>"
1@"
1D"
1H"
1L"
1P"
1T"
1X"
1\"
1`"
1d"
#660000000
0!
0%
0$"
0("
0,"
00"
04"
08"
0<"
0@"
0D"
0H"
0L"
0P"
0T"
0X"
0\"
0`"
0d"
#670000000
1!
1%
b0000000000010001 (
b0000000000010001 )
b0000000000010010 *
b0000000000010001 ,
b0000000000010010 .
b00000000000000010 0
12
04
15
18
19
1$"
b0000000000010010 &"
b0000000000010001 '"
1("
0*"
1+"
1,"
1."
10"
14"
18"
1<"
1@"
1D"
1H"
1L"
1P"
1T"
1X"
1\"
1`"
1d"
#680000000
0!
0%
0$"
0("
0,"
00"
04"
08"
0<"
0@"
0D"
0H"
0L"
0P"
0T"
0X"
0\"
0`"
0d"
#690000000
1!
1%
b0000000000010010 (
b0000000000010010 )
b0000000000010011 *
b0000000000010010 ,
b0000000000010011 .
b00000000000000000 0
02
14
05
17
08
19
0:
0=
0>
1$"
b0000000000010011 &"
b0000000000010010 '"
1("
1*"
0+"
1,"
1."
1/"
10"
02"
14"
18"
1<"
1@"
1D"
1H"
1L"
1P"
1T"
1X"
1\"
1`"
1d"
#700000000
0!
0%
0$"
0("
0,"
00"
04"
08"
0<"
0@"
0D"
0H"
0L"
0P"
0T"
0X"
0\"
0`"
0d"
#710000000
1!
1%
b0000000000010011 (
b0000000000010011 )
b0000000000010100 *
b0000000000010011 ,
b0000000000010100 .
b00000000000000110 0
12
04
15
18
09
1:
1=
1>
1$"
b0000000000010100 &"
b0000000000010011 '"
1("
0*"
1+"
1,"
0."
10"
12"
14"
18"
1<"
1@"
1D"
1H"
1L"
1P"
1T"
1X"
1\"
1`"
1d"
#720000000
0!
0%
0$"
0("
0,"
00"
04"
08"
0<"
0@"
0D"
0H"
0L"
0P"
0T"
0X"
0\"
0`"
0d"
#730000000
1!
1%
b0000000000010100 (
b0000000000010100 )
b0000000000010101 *
b0000000000010100 ,
b0000000000010101 .
b00000000000000000 0
02
14
05
07
08
09
0:
1<
0=
1>
0?
0B
0C
1$"
b0000000000010101 &"
b0000000000010100 '"
1("
1*"
0+"
1,"
0."
0/"
10"
12"
13"
14"
06"
18"
1<"
1@"
1D"
1H"
1L"
1P"
1T"
1X"
1\"
1`"
1d"
#740000000
0!
0%
0$"
0("
0,"
00"
04"
08"
0<"
0@"
0D"
0H"
0L"
0P"
0T"
0X"
0\"
0`"
0d"
#750000000
1!
1%
b0000000000010101 (
b0000000000010101 )
b0000000000010110 *
b0000000000010101 ,
b0000000000010110 .
b00000000000000010 0
12
04
15
18
19
1$"
b0000000000010110 &"
b0000000000010101 '"
1("
0*"
1+"
1,"
1."
10"
14"
18"
1<"
1@"
1D"
1H"
1L"
1P"
1T"
1X"
1\"
1`"
1d"
#760000000
0!
0%
0$"
0("
0,"
00"
04"
08"
0<"
0@"
0D"
0H"
0L"
0P"
0T"
0X"
0\"
0`"
0d"
#770000000
1!
1%
b0000000000010110 (
b0000000000010110 )
b0000000000010111 *
b0000000000010110 ,
b0000000000010111 .
b00000000000000000 0
02
14
05
17
08
19
0:
0=
1>
0?
0B
0C
1$"
b0000000000010111 &"
b0000000000010110 '"
1("
1*"
0+"
1,"
1."
1/"
10"
12"
14"
06"
18"
1<"
1@"
1D"
1H"
1L"
1P"
1T"
1X"
1\"
1`"
1d"
#780000000
0!
0%
0$"
0("
0,"
00"
04"
08"
0<"
0@"
0D"
0H"
0L"
0P"
0T"
0X"
0\"
0`"
0d"
#790000000
1!
1%
b0000000000010111 (
b0000000000010111 )
b0000000000011000 *
b0000000000010111 ,
b0000000000011000 .
b00000000000001110 0
12
04
15
18
09
1:
1=
0>
1?
1B
1C
1$"
b0000000000011000 &"
b0000000000010111 '"
1("
0*"
1+"
1,"
0."
10"
02"
14"
16"
18"
1<"
1@"
1D"
1H"
1L"
1P"
1T"
1X"
1\"
1`"
1d"
#800000000
0!
0%
0$"
0("
0,"
00"
04"
08"
0<"
0@"
0D"
0H"
0L"
0P"
0T"
0X"
0\"
0`"
0d"
#810000000
1!
1%
b0000000000011000 (
b0000000000011000 )
b0000000000011001 *
b0000000000011000 ,
b0000000000011001 .
b00000000000000000 0
02
14
05
07
08
09
0:
0<
0=
0>
0?
1A
0B
1C
0D
0G
1H
0I
0L
0M
1$"
b0000000000011001 &"
b0000000000011000 '"
1("
1*"
0+"
1,"
0."
0/"
10"
02"
03"
14"
16"
17"
18"
1:"
1<"
0>"
1@"
1D"
1H"
1L"
1P"
1T"
1X"
1\"
1`"
1d"
#820000000
0!
0%
0$"
0("
0,"
00"
04"
08"
0<"
0@"
0D"
0H"
0L"
0P"
0T"
0X"
0\"
0`"
0d"
