waveforms/tb_reg_H.vcd
$date
  Tue May 22 22:14:23 2018
$end
$version
  GHDL v0
$end
$timescale
  1 fs
$end
$var reg 1 ! clk_ext $end
$var reg 1 " reset $end
$var reg 8 # d_in[7:0] $end
$var reg 1 $ hold $end
$var reg 1 % testing $end
$scope module i_dut $end
$var reg 1 & clk $end
$var reg 1 ' rst $end
$var reg 8 ( d[7:0] $end
$var reg 1 ) hold $end
$var reg 8 * q[7:0] $end
$scope module regh_gen(0) $end
$scope module i_dffh $end
$var reg 1 + clk $end
$var reg 1 , rst $end
$var reg 1 - i $end
$var reg 1 . hold $end
$var reg 1 / q $end
$upscope $end
$upscope $end
$scope module regh_gen(1) $end
$scope module i_dffh $end
$var reg 1 0 clk $end
$var reg 1 1 rst $end
$var reg 1 2 i $end
$var reg 1 3 hold $end
$var reg 1 4 q $end
$upscope $end
$upscope $end
$scope module regh_gen(2) $end
$scope module i_dffh $end
$var reg 1 5 clk $end
$var reg 1 6 rst $end
$var reg 1 7 i $end
$var reg 1 8 hold $end
$var reg 1 9 q $end
$upscope $end
$upscope $end
$scope module regh_gen(3) $end
$scope module i_dffh $end
$var reg 1 : clk $end
$var reg 1 ; rst $end
$var reg 1 < i $end
$var reg 1 = hold $end
$var reg 1 > q $end
$upscope $end
$upscope $end
$scope module regh_gen(4) $end
$scope module i_dffh $end
$var reg 1 ? clk $end
$var reg 1 @ rst $end
$var reg 1 A i $end
$var reg 1 B hold $end
$var reg 1 C q $end
$upscope $end
$upscope $end
$scope module regh_gen(5) $end
$scope module i_dffh $end
$var reg 1 D clk $end
$var reg 1 E rst $end
$var reg 1 F i $end
$var reg 1 G hold $end
$var reg 1 H q $end
$upscope $end
$upscope $end
$scope module regh_gen(6) $end
$scope module i_dffh $end
$var reg 1 I clk $end
$var reg 1 J rst $end
$var reg 1 K i $end
$var reg 1 L hold $end
$var reg 1 M q $end
$upscope $end
$upscope $end
$scope module regh_gen(7) $end
$scope module i_dffh $end
$var reg 1 N clk $end
$var reg 1 O rst $end
$var reg 1 P i $end
$var reg 1 Q hold $end
$var reg 1 R q $end
$upscope $end
$upscope $end
$upscope $end
$enddefinitions $end
#0
0!
0"
b11111001 #
0$
1%
0&
0'
b11111001 (
0)
bUUUUUUUU *
0+
0,
1-
0.
U/
00
01
02
03
U4
05
06
07
08
U9
0:
0;
1<
0=
U>
0?
0@
1A
0B
UC
0D
0E
1F
0G
UH
0I
0J
1K
0L
UM
0N
0O
1P
0Q
UR
#2500000
1!
1&
b11111001 *
1+
1/
10
04
15
09
1:
1>
1?
1C
1D
1H
1I
1M
1N
1R
#5000000
0!
0&
0+
00
05
0:
0?
0D
0I
0N
#7500000
1!
1&
1+
10
15
1:
1?
1D
1I
1N
#10000000
0!
0&
0+
00
05
0:
0?
0D
0I
0N
#12500000
1!
1&
1+
10
15
1:
1?
1D
1I
1N
#15000000
0!
0&
0+
00
05
0:
0?
0D
0I
0N
#17500000
1!
1&
1+
10
15
1:
1?
1D
1I
1N
#20000000
0!
0&
0+
00
05
0:
0?
0D
0I
0N
#22500000
1!
1&
1+
10
15
1:
1?
1D
1I
1N
#25000000
0!
0&
0+
00
05
0:
0?
0D
0I
0N
#27500000
1!
1&
1+
10
15
1:
1?
1D
1I
1N
#30000000
0!
0&
0+
00
05
0:
0?
0D
0I
0N
#32500000
1!
1&
1+
10
15
1:
1?
1D
1I
1N
#33000000
1$
1)
1.
13
18
1=
1B
1G
1L
1Q
#35000000
0!
0&
0+
00
05
0:
0?
0D
0I
0N
#37500000
1!
1&
1+
10
15
1:
1?
1D
1I
1N
#40000000
0!
0&
0+
00
05
0:
0?
0D
0I
0N
#42500000
1!
1&
1+
10
15
1:
1?
1D
1I
1N
#45000000
0!
0&
0+
00
05
0:
0?
0D
0I
0N
#47500000
1!
1&
1+
10
15
1:
1?
1D
1I
1N
#50000000
0!
b00001001 #
0&
b00001001 (
0+
00
05
0:
0?
0A
0D
0F
0I
0K
0N
0P
#52000000
1"
1'
b00000000 *
1,
0/
11
16
1;
0>
1@
0C
1E
0H
1J
0M
1O
0R
#52500000
1!
1&
1+
10
15
1:
1?
1D
1I
1N
#55000000
0!
0&
0+
00
05
0:
0?
0D
0I
0N
#57500000
1!
1&
1+
10
15
1:
1?
1D
1I
1N
#60000000
0!
0&
0+
00
05
0:
0?
0D
0I
0N
#62500000
1!
1&
1+
10
15
1:
1?
1D
1I
1N
#65000000
0!
0&
0+
00
05
0:
0?
0D
0I
0N
#67500000
1!
1&
1+
10
15
1:
1?
1D
1I
1N
#70000000
0!
0&
0+
00
05
0:
0?
0D
0I
0N
#72500000
1!
1&
1+
10
15
1:
1?
1D
1I
1N
#75000000
0!
0&
0+
00
05
0:
0?
0D
0I
0N
#77000000
0$
0)
0.
03
08
0=
0B
0G
0L
0Q
#77500000
1!
1&
1+
10
15
1:
1?
1D
1I
1N
#80000000
0!
0&
0+
00
05
0:
0?
0D
0I
0N
#82500000
1!
1&
1+
10
15
1:
1?
1D
1I
1N
#85000000
0!
0&
0+
00
05
0:
0?
0D
0I
0N
#87500000
1!
1&
1+
10
15
1:
1?
1D
1I
1N
#90000000
0!
0&
0+
00
05
0:
0?
0D
0I
0N
#92500000
1!
1&
1+
10
15
1:
1?
1D
1I
1N
#95000000
0!
0&
0+
00
05
0:
0?
0D
0I
0N
#96000000
0"
0'
0,
01
06
0;
0@
0E
0J
0O
#97500000
1!
1&
b00001001 *
1+
1/
10
15
1:
1>
1?
1D
1I
1N
#100000000
0!
0&
0+
00
05
0:
0?
0D
0I
0N
#102500000
1!
1&
1+
10
15
1:
1?
1D
1I
1N
#105000000
0!
0&
0+
00
05
0:
0?
0D
0I
0N
#107500000
1!
1&
1+
10
15
1:
1?
1D
1I
1N
#110000000
0!
0&
0+
00
05
0:
0?
0D
0I
0N
#112500000
1!
1&
1+
10
15
1:
1?
1D
1I
1N
#115000000
0!
0&
0+
00
05
0:
0?
0D
0I
0N
#117500000
1!
1&
1+
10
15
1:
1?
1D
1I
1N
#118000000
b00000111 #
b00000111 (
12
17
0<
#120000000
0!
0&
0+
00
05
0:
0?
0D
0I
0N
#122500000
1!
1&
b00000111 *
1+
10
14
15
19
1:
0>
1?
1D
1I
1N
#125000000
0!
0&
0+
00
05
0:
0?
0D
0I
0N
#127500000
1!
1&
1+
10
15
1:
1?
1D
1I
1N
#130000000
0!
0&
0+
00
05
0:
0?
0D
0I
0N
#132500000
1!
1&
1+
10
15
1:
1?
1D
1I
1N
#135000000
0!
0&
0+
00
05
0:
0?
0D
0I
0N
#137500000
1!
1&
1+
10
15
1:
1?
1D
1I
1N
#140000000
0!
0&
0+
00
05
0:
0?
0D
0I
0N
#142500000
1!
1&
1+
10
15
1:
1?
1D
1I
1N
#145000000
0!
0&
0+
00
05
0:
0?
0D
0I
0N
#147500000
1!
1&
1+
10
15
1:
1?
1D
1I
1N
#150000000
0!
0&
0+
00
05
0:
0?
0D
0I
0N
#152500000
1!
1&
1+
10
15
1:
1?
1D
1I
1N
#155000000
0!
0&
0+
00
05
0:
0?
0D
0I
0N
#157500000
1!
1&
1+
10
15
1:
1?
1D
1I
1N
#160000000
0!
0&
0+
00
05
0:
0?
0D
0I
0N
#162500000
1!
1&
1+
10
15
1:
1?
1D
1I
1N
#165000000
0!
0&
0+
00
05
0:
0?
0D
0I
0N
#167500000
1!
1&
1+
10
15
1:
1?
1D
1I
1N
#170000000
0!
1$
0&
1)
0+
1.
00
13
05
18
0:
1=
0?
1B
0D
1G
0I
1L
0N
1Q
#172500000
1!
1&
1+
10
15
1:
1?
1D
1I
1N
#175000000
0!
0&
0+
00
05
0:
0?
0D
0I
0N
#177500000
1!
1&
1+
10
15
1:
1?
1D
1I
1N
#180000000
0!
0&
0+
00
05
0:
0?
0D
0I
0N
#182500000
1!
1&
1+
10
15
1:
1?
1D
1I
1N
#185000000
0!
0&
0+
00
05
0:
0?
0D
0I
0N
#187500000
1!
1&
1+
10
15
1:
1?
1D
1I
1N
#190000000
0!
0&
0+
00
05
0:
0?
0D
0I
0N
#192500000
1!
1&
1+
10
15
1:
1?
1D
1I
1N
#195000000
0!
0&
0+
00
05
0:
0?
0D
0I
0N
#197500000
1!
1&
1+
10
15
1:
1?
1D
1I
1N
#200000000
0!
0&
0+
00
05
0:
0?
0D
0I
0N
#202500000
1!
1&
1+
10
15
1:
1?
1D
1I
1N
#205000000
0!
0&
0+
00
05
0:
0?
0D
0I
0N
#207500000
1!
1&
1+
10
15
1:
1?
1D
1I
1N
#210000000
0!
0&
0+
00
05
0:
0?
0D
0I
0N
#212500000
1!
1&
1+
10
15
1:
1?
1D
1I
1N
#215000000
0!
0&
0+
00
05
0:
0?
0D
0I
0N
#217500000
1!
1&
1+
10
15
1:
1?
1D
1I
1N
#218000000
#220000000
0!
0&
0+
00
05
0:
0?
0D
0I
0N
#222500000
1!
1&
1+
10
15
1:
1?
1D
1I
1N
#225000000
0!
0&
0+
00
05
0:
0?
0D
0I
0N
#226000000
b01010110 #
b01010110 (
0-
1A
1K
#227500000
1!
1&
1+
10
15
1:
1?
1D
1I
1N
#230000000
0!
0&
0+
00
05
0:
0?
0D
0I
0N
#232500000
1!
1&
1+
10
15
1:
1?
1D
1I
1N
#235000000
0!
0&
0+
00
05
0:
0?
0D
0I
0N
#237500000
1!
1&
1+
10
15
1:
1?
1D
1I
1N
#239000000
b01011111 #
b01011111 (
1-
1<
