waveforms/tb_SAD.vcd
$date
  Sat May 26 17:35:42 2018
$end
$version
  GHDL v0
$end
$timescale
  1 fs
$end
$var reg 1 ! clk $end
$var reg 1 " reset $end
$var reg 1 # enable $end
$var reg 8 $ pa[7:0] $end
$var reg 8 % pb[7:0] $end
$var reg 1 & testing $end
$scope module sad_i $end
$var reg 1 ' clk $end
$var reg 1 ( rst $end
$var reg 8 ) pa[7:0] $end
$var reg 8 * pb[7:0] $end
$var reg 1 + en $end
$var reg 16 , sad[15:0] $end
$var reg 1 - data_valid $end
$var reg 8 . padding[7:0] $end
$var reg 8 / pa_to_sub_nbit[7:0] $end
$var reg 8 0 pb_to_sub_nbit[7:0] $end
$var reg 8 1 sub_to_rca_nbits[7:0] $end
$var reg 16 2 sub_to_rca_sadbits[15:0] $end
$var reg 16 3 reg_to_rca[15:0] $end
$var reg 1 4 counter_in $end
$var reg 16 5 rca_out[15:0] $end
$var reg 16 6 mux_to_reg_out_wire[15:0] $end
$var reg 1 7 rst_input_registers $end
$var reg 16 8 sad_wire[15:0] $end
$var reg 1 9 tc_wire $end
$var reg 1 : s_latch_wire $end
$var reg 1 ; hold_wire $end
$var reg 1 < sr_q_wire $end
$scope module reg_pa $end
$var reg 1 = clk $end
$var reg 1 > rst $end
$var reg 8 ? d[7:0] $end
$var reg 8 @ q[7:0] $end
$scope module reg_gen(0) $end
$scope module i_dff $end
$var reg 1 A clk $end
$var reg 1 B rst $end
$var reg 1 C d $end
$var reg 1 D q $end
$upscope $end
$upscope $end
$scope module reg_gen(1) $end
$scope module i_dff $end
$var reg 1 E clk $end
$var reg 1 F rst $end
$var reg 1 G d $end
$var reg 1 H q $end
$upscope $end
$upscope $end
$scope module reg_gen(2) $end
$scope module i_dff $end
$var reg 1 I clk $end
$var reg 1 J rst $end
$var reg 1 K d $end
$var reg 1 L q $end
$upscope $end
$upscope $end
$scope module reg_gen(3) $end
$scope module i_dff $end
$var reg 1 M clk $end
$var reg 1 N rst $end
$var reg 1 O d $end
$var reg 1 P q $end
$upscope $end
$upscope $end
$scope module reg_gen(4) $end
$scope module i_dff $end
$var reg 1 Q clk $end
$var reg 1 R rst $end
$var reg 1 S d $end
$var reg 1 T q $end
$upscope $end
$upscope $end
$scope module reg_gen(5) $end
$scope module i_dff $end
$var reg 1 U clk $end
$var reg 1 V rst $end
$var reg 1 W d $end
$var reg 1 X q $end
$upscope $end
$upscope $end
$scope module reg_gen(6) $end
$scope module i_dff $end
$var reg 1 Y clk $end
$var reg 1 Z rst $end
$var reg 1 [ d $end
$var reg 1 \ q $end
$upscope $end
$upscope $end
$scope module reg_gen(7) $end
$scope module i_dff $end
$var reg 1 ] clk $end
$var reg 1 ^ rst $end
$var reg 1 _ d $end
$var reg 1 ` q $end
$upscope $end
$upscope $end
$upscope $end
$scope module reg_pb $end
$var reg 1 a clk $end
$var reg 1 b rst $end
$var reg 8 c d[7:0] $end
$var reg 8 d q[7:0] $end
$scope module reg_gen(0) $end
$scope module i_dff $end
$var reg 1 e clk $end
$var reg 1 f rst $end
$var reg 1 g d $end
$var reg 1 h q $end
$upscope $end
$upscope $end
$scope module reg_gen(1) $end
$scope module i_dff $end
$var reg 1 i clk $end
$var reg 1 j rst $end
$var reg 1 k d $end
$var reg 1 l q $end
$upscope $end
$upscope $end
$scope module reg_gen(2) $end
$scope module i_dff $end
$var reg 1 m clk $end
$var reg 1 n rst $end
$var reg 1 o d $end
$var reg 1 p q $end
$upscope $end
$upscope $end
$scope module reg_gen(3) $end
$scope module i_dff $end
$var reg 1 q clk $end
$var reg 1 r rst $end
$var reg 1 s d $end
$var reg 1 t q $end
$upscope $end
$upscope $end
$scope module reg_gen(4) $end
$scope module i_dff $end
$var reg 1 u clk $end
$var reg 1 v rst $end
$var reg 1 w d $end
$var reg 1 x q $end
$upscope $end
$upscope $end
$scope module reg_gen(5) $end
$scope module i_dff $end
$var reg 1 y clk $end
$var reg 1 z rst $end
$var reg 1 { d $end
$var reg 1 | q $end
$upscope $end
$upscope $end
$scope module reg_gen(6) $end
$scope module i_dff $end
$var reg 1 } clk $end
$var reg 1 !" rst $end
$var reg 1 "" d $end
$var reg 1 #" q $end
$upscope $end
$upscope $end
$scope module reg_gen(7) $end
$scope module i_dff $end
$var reg 1 $" clk $end
$var reg 1 %" rst $end
$var reg 1 &" d $end
$var reg 1 '" q $end
$upscope $end
$upscope $end
$upscope $end
$scope module gen_padding(0) $end
$upscope $end
$scope module gen_padding(1) $end
$upscope $end
$scope module gen_padding(2) $end
$upscope $end
$scope module gen_padding(3) $end
$upscope $end
$scope module gen_padding(4) $end
$upscope $end
$scope module gen_padding(5) $end
$upscope $end
$scope module gen_padding(6) $end
$upscope $end
$scope module gen_padding(7) $end
$upscope $end
$scope module sub $end
$var reg 8 (" a[7:0] $end
$var reg 8 )" b[7:0] $end
$var reg 8 *" s[7:0] $end
$upscope $end
$scope module add $end
$var reg 16 +" x[15:0] $end
$var reg 16 ," y[15:0] $end
$var reg 1 -" c0 $end
$var reg 16 ." s[15:0] $end
$var reg 1 /" cn $end
$var reg 17 0" c[16:0] $end
$scope module gen_rca(0) $end
$scope module i_fa $end
$var reg 1 1" x $end
$var reg 1 2" y $end
$var reg 1 3" cin $end
$var reg 1 4" s $end
$var reg 1 5" cout $end
$upscope $end
$upscope $end
$scope module gen_rca(1) $end
$scope module i_fa $end
$var reg 1 6" x $end
$var reg 1 7" y $end
$var reg 1 8" cin $end
$var reg 1 9" s $end
$var reg 1 :" cout $end
$upscope $end
$upscope $end
$scope module gen_rca(2) $end
$scope module i_fa $end
$var reg 1 ;" x $end
$var reg 1 <" y $end
$var reg 1 =" cin $end
$var reg 1 >" s $end
$var reg 1 ?" cout $end
$upscope $end
$upscope $end
$scope module gen_rca(3) $end
$scope module i_fa $end
$var reg 1 @" x $end
$var reg 1 A" y $end
$var reg 1 B" cin $end
$var reg 1 C" s $end
$var reg 1 D" cout $end
$upscope $end
$upscope $end
$scope module gen_rca(4) $end
$scope module i_fa $end
$var reg 1 E" x $end
$var reg 1 F" y $end
$var reg 1 G" cin $end
$var reg 1 H" s $end
$var reg 1 I" cout $end
$upscope $end
$upscope $end
$scope module gen_rca(5) $end
$scope module i_fa $end
$var reg 1 J" x $end
$var reg 1 K" y $end
$var reg 1 L" cin $end
$var reg 1 M" s $end
$var reg 1 N" cout $end
$upscope $end
$upscope $end
$scope module gen_rca(6) $end
$scope module i_fa $end
$var reg 1 O" x $end
$var reg 1 P" y $end
$var reg 1 Q" cin $end
$var reg 1 R" s $end
$var reg 1 S" cout $end
$upscope $end
$upscope $end
$scope module gen_rca(7) $end
$scope module i_fa $end
$var reg 1 T" x $end
$var reg 1 U" y $end
$var reg 1 V" cin $end
$var reg 1 W" s $end
$var reg 1 X" cout $end
$upscope $end
$upscope $end
$scope module gen_rca(8) $end
$scope module i_fa $end
$var reg 1 Y" x $end
$var reg 1 Z" y $end
$var reg 1 [" cin $end
$var reg 1 \" s $end
$var reg 1 ]" cout $end
$upscope $end
$upscope $end
$scope module gen_rca(9) $end
$scope module i_fa $end
$var reg 1 ^" x $end
$var reg 1 _" y $end
$var reg 1 `" cin $end
$var reg 1 a" s $end
$var reg 1 b" cout $end
$upscope $end
$upscope $end
$scope module gen_rca(10) $end
$scope module i_fa $end
$var reg 1 c" x $end
$var reg 1 d" y $end
$var reg 1 e" cin $end
$var reg 1 f" s $end
$var reg 1 g" cout $end
$upscope $end
$upscope $end
$scope module gen_rca(11) $end
$scope module i_fa $end
$var reg 1 h" x $end
$var reg 1 i" y $end
$var reg 1 j" cin $end
$var reg 1 k" s $end
$var reg 1 l" cout $end
$upscope $end
$upscope $end
$scope module gen_rca(12) $end
$scope module i_fa $end
$var reg 1 m" x $end
$var reg 1 n" y $end
$var reg 1 o" cin $end
$var reg 1 p" s $end
$var reg 1 q" cout $end
$upscope $end
$upscope $end
$scope module gen_rca(13) $end
$scope module i_fa $end
$var reg 1 r" x $end
$var reg 1 s" y $end
$var reg 1 t" cin $end
$var reg 1 u" s $end
$var reg 1 v" cout $end
$upscope $end
$upscope $end
$scope module gen_rca(14) $end
$scope module i_fa $end
$var reg 1 w" x $end
$var reg 1 x" y $end
$var reg 1 y" cin $end
$var reg 1 z" s $end
$var reg 1 {" cout $end
$upscope $end
$upscope $end
$scope module gen_rca(15) $end
$scope module i_fa $end
$var reg 1 |" x $end
$var reg 1 }" y $end
$var reg 1 !# cin $end
$var reg 1 "# s $end
$var reg 1 ## cout $end
$upscope $end
$upscope $end
$upscope $end
$scope module reg_loop $end
$var reg 1 $# clk $end
$var reg 1 %# rst $end
$var reg 16 &# d[15:0] $end
$var reg 16 '# q[15:0] $end
$scope module reg_gen(0) $end
$scope module i_dff $end
$var reg 1 (# clk $end
$var reg 1 )# rst $end
$var reg 1 *# d $end
$var reg 1 +# q $end
$upscope $end
$upscope $end
$scope module reg_gen(1) $end
$scope module i_dff $end
$var reg 1 ,# clk $end
$var reg 1 -# rst $end
$var reg 1 .# d $end
$var reg 1 /# q $end
$upscope $end
$upscope $end
$scope module reg_gen(2) $end
$scope module i_dff $end
$var reg 1 0# clk $end
$var reg 1 1# rst $end
$var reg 1 2# d $end
$var reg 1 3# q $end
$upscope $end
$upscope $end
$scope module reg_gen(3) $end
$scope module i_dff $end
$var reg 1 4# clk $end
$var reg 1 5# rst $end
$var reg 1 6# d $end
$var reg 1 7# q $end
$upscope $end
$upscope $end
$scope module reg_gen(4) $end
$scope module i_dff $end
$var reg 1 8# clk $end
$var reg 1 9# rst $end
$var reg 1 :# d $end
$var reg 1 ;# q $end
$upscope $end
$upscope $end
$scope module reg_gen(5) $end
$scope module i_dff $end
$var reg 1 <# clk $end
$var reg 1 =# rst $end
$var reg 1 ># d $end
$var reg 1 ?# q $end
$upscope $end
$upscope $end
$scope module reg_gen(6) $end
$scope module i_dff $end
$var reg 1 @# clk $end
$var reg 1 A# rst $end
$var reg 1 B# d $end
$var reg 1 C# q $end
$upscope $end
$upscope $end
$scope module reg_gen(7) $end
$scope module i_dff $end
$var reg 1 D# clk $end
$var reg 1 E# rst $end
$var reg 1 F# d $end
$var reg 1 G# q $end
$upscope $end
$upscope $end
$scope module reg_gen(8) $end
$scope module i_dff $end
$var reg 1 H# clk $end
$var reg 1 I# rst $end
$var reg 1 J# d $end
$var reg 1 K# q $end
$upscope $end
$upscope $end
$scope module reg_gen(9) $end
$scope module i_dff $end
$var reg 1 L# clk $end
$var reg 1 M# rst $end
$var reg 1 N# d $end
$var reg 1 O# q $end
$upscope $end
$upscope $end
$scope module reg_gen(10) $end
$scope module i_dff $end
$var reg 1 P# clk $end
$var reg 1 Q# rst $end
$var reg 1 R# d $end
$var reg 1 S# q $end
$upscope $end
$upscope $end
$scope module reg_gen(11) $end
$scope module i_dff $end
$var reg 1 T# clk $end
$var reg 1 U# rst $end
$var reg 1 V# d $end
$var reg 1 W# q $end
$upscope $end
$upscope $end
$scope module reg_gen(12) $end
$scope module i_dff $end
$var reg 1 X# clk $end
$var reg 1 Y# rst $end
$var reg 1 Z# d $end
$var reg 1 [# q $end
$upscope $end
$upscope $end
$scope module reg_gen(13) $end
$scope module i_dff $end
$var reg 1 \# clk $end
$var reg 1 ]# rst $end
$var reg 1 ^# d $end
$var reg 1 _# q $end
$upscope $end
$upscope $end
$scope module reg_gen(14) $end
$scope module i_dff $end
$var reg 1 `# clk $end
$var reg 1 a# rst $end
$var reg 1 b# d $end
$var reg 1 c# q $end
$upscope $end
$upscope $end
$scope module reg_gen(15) $end
$scope module i_dff $end
$var reg 1 d# clk $end
$var reg 1 e# rst $end
$var reg 1 f# d $end
$var reg 1 g# q $end
$upscope $end
$upscope $end
$upscope $end
$scope module mux1 $end
$var reg 16 h# i0[15:0] $end
$var reg 16 i# i1[15:0] $end
$var reg 1 j# s $end
$var reg 16 k# f[15:0] $end
$upscope $end
$scope module reg_out $end
$var reg 1 l# clk $end
$var reg 1 m# rst $end
$var reg 16 n# d[15:0] $end
$var reg 16 o# q[15:0] $end
$scope module reg_gen(0) $end
$scope module i_dff $end
$var reg 1 p# clk $end
$var reg 1 q# rst $end
$var reg 1 r# d $end
$var reg 1 s# q $end
$upscope $end
$upscope $end
$scope module reg_gen(1) $end
$scope module i_dff $end
$var reg 1 t# clk $end
$var reg 1 u# rst $end
$var reg 1 v# d $end
$var reg 1 w# q $end
$upscope $end
$upscope $end
$scope module reg_gen(2) $end
$scope module i_dff $end
$var reg 1 x# clk $end
$var reg 1 y# rst $end
$var reg 1 z# d $end
$var reg 1 {# q $end
$upscope $end
$upscope $end
$scope module reg_gen(3) $end
$scope module i_dff $end
$var reg 1 |# clk $end
$var reg 1 }# rst $end
$var reg 1 !$ d $end
$var reg 1 "$ q $end
$upscope $end
$upscope $end
$scope module reg_gen(4) $end
$scope module i_dff $end
$var reg 1 #$ clk $end
$var reg 1 $$ rst $end
$var reg 1 %$ d $end
$var reg 1 &$ q $end
$upscope $end
$upscope $end
$scope module reg_gen(5) $end
$scope module i_dff $end
$var reg 1 '$ clk $end
$var reg 1 ($ rst $end
$var reg 1 )$ d $end
$var reg 1 *$ q $end
$upscope $end
$upscope $end
$scope module reg_gen(6) $end
$scope module i_dff $end
$var reg 1 +$ clk $end
$var reg 1 ,$ rst $end
$var reg 1 -$ d $end
$var reg 1 .$ q $end
$upscope $end
$upscope $end
$scope module reg_gen(7) $end
$scope module i_dff $end
$var reg 1 /$ clk $end
$var reg 1 0$ rst $end
$var reg 1 1$ d $end
$var reg 1 2$ q $end
$upscope $end
$upscope $end
$scope module reg_gen(8) $end
$scope module i_dff $end
$var reg 1 3$ clk $end
$var reg 1 4$ rst $end
$var reg 1 5$ d $end
$var reg 1 6$ q $end
$upscope $end
$upscope $end
$scope module reg_gen(9) $end
$scope module i_dff $end
$var reg 1 7$ clk $end
$var reg 1 8$ rst $end
$var reg 1 9$ d $end
$var reg 1 :$ q $end
$upscope $end
$upscope $end
$scope module reg_gen(10) $end
$scope module i_dff $end
$var reg 1 ;$ clk $end
$var reg 1 <$ rst $end
$var reg 1 =$ d $end
$var reg 1 >$ q $end
$upscope $end
$upscope $end
$scope module reg_gen(11) $end
$scope module i_dff $end
$var reg 1 ?$ clk $end
$var reg 1 @$ rst $end
$var reg 1 A$ d $end
$var reg 1 B$ q $end
$upscope $end
$upscope $end
$scope module reg_gen(12) $end
$scope module i_dff $end
$var reg 1 C$ clk $end
$var reg 1 D$ rst $end
$var reg 1 E$ d $end
$var reg 1 F$ q $end
$upscope $end
$upscope $end
$scope module reg_gen(13) $end
$scope module i_dff $end
$var reg 1 G$ clk $end
$var reg 1 H$ rst $end
$var reg 1 I$ d $end
$var reg 1 J$ q $end
$upscope $end
$upscope $end
$scope module reg_gen(14) $end
$scope module i_dff $end
$var reg 1 K$ clk $end
$var reg 1 L$ rst $end
$var reg 1 M$ d $end
$var reg 1 N$ q $end
$upscope $end
$upscope $end
$scope module reg_gen(15) $end
$scope module i_dff $end
$var reg 1 O$ clk $end
$var reg 1 P$ rst $end
$var reg 1 Q$ d $end
$var reg 1 R$ q $end
$upscope $end
$upscope $end
$upscope $end
$scope module siso $end
$var reg 1 S$ si $end
$var reg 1 T$ clk $end
$var reg 1 U$ rst $end
$var reg 1 V$ so $end
$var reg 4 W$ link_wire[3:0] $end
$scope module sisogen(0) $end
$scope module i_dff $end
$var reg 1 X$ clk $end
$var reg 1 Y$ rst $end
$var reg 1 Z$ d $end
$var reg 1 [$ q $end
$upscope $end
$upscope $end
$scope module sisogen(1) $end
$scope module i_dff $end
$var reg 1 \$ clk $end
$var reg 1 ]$ rst $end
$var reg 1 ^$ d $end
$var reg 1 _$ q $end
$upscope $end
$upscope $end
$scope module sisogen(2) $end
$scope module i_dff $end
$var reg 1 `$ clk $end
$var reg 1 a$ rst $end
$var reg 1 b$ d $end
$var reg 1 c$ q $end
$upscope $end
$upscope $end
$upscope $end
$scope module cnt $end
$var reg 1 d$ count_puls $end
$var reg 1 e$ count_enable $end
$var reg 1 f$ rst $end
$var reg 8 g$ q[7:0] $end
$var reg 1 h$ tc $end
$var reg 8 i$ internal[7:0] $end
$upscope $end
$scope module sr $end
$var reg 1 j$ s $end
$var reg 1 k$ r $end
$var reg 1 l$ q $end
$var reg 1 m$ not_q $end
$upscope $end
$upscope $end
$enddefinitions $end
#0
0!
0"
1#
b00101110 $
b10101101 %
1&
0'
0(
b00101110 )
b10101101 *
1+
bUUUUUUUUUUUUUUUU ,
U-
b00000000 .
bUUUUUUUU /
bUUUUUUUU 0
bXXXXXXXX 1
b00000000XXXXXXXX 2
bUUUUUUUUUUUUUUUU 3
U4
bUUUUUUUUUUUUUUUU 5
bUUUUUUUUUUUUUUUU 6
07
bUUUUUUUUUUUUUUUU 8
09
0:
U;
U<
0=
0>
b00101110 ?
bUUUUUUUU @
0A
0B
0C
UD
0E
0F
1G
UH
0I
0J
1K
UL
0M
0N
1O
UP
0Q
0R
0S
UT
0U
0V
1W
UX
0Y
0Z
0[
U\
0]
0^
0_
U`
0a
0b
b10101101 c
bUUUUUUUU d
0e
0f
1g
Uh
0i
0j
0k
Ul
0m
0n
1o
Up
0q
0r
1s
Ut
0u
0v
0w
Ux
0y
0z
1{
U|
0}
0!"
0""
U#"
0$"
0%"
1&"
U'"
bUUUUUUUU ("
bUUUUUUUU )"
bXXXXXXXX *"
b00000000XXXXXXXX +"
bUUUUUUUUUUUUUUUU ,"
0-"
bUUUUUUUUUUUUUUUU ."
U/"
bUUUUUUUUUUUUUUUU0 0"
X1"
U2"
03"
U4"
U5"
X6"
U7"
U8"
U9"
U:"
X;"
U<"
U="
U>"
U?"
X@"
UA"
UB"
UC"
UD"
XE"
UF"
UG"
UH"
UI"
XJ"
UK"
UL"
UM"
UN"
XO"
UP"
UQ"
UR"
US"
XT"
UU"
UV"
UW"
UX"
0Y"
UZ"
U["
U\"
U]"
0^"
U_"
U`"
Ua"
Ub"
0c"
Ud"
Ue"
Uf"
Ug"
0h"
Ui"
Uj"
Uk"
Ul"
0m"
Un"
Uo"
Up"
Uq"
0r"
Us"
Ut"
Uu"
Uv"
0w"
Ux"
Uy"
Uz"
U{"
0|"
U}"
U!#
U"#
U##
0$#
0%#
bUUUUUUUUUUUUUUUU &#
bUUUUUUUUUUUUUUUU '#
0(#
0)#
U*#
U+#
0,#
0-#
U.#
U/#
00#
01#
U2#
U3#
04#
05#
U6#
U7#
08#
09#
U:#
U;#
0<#
0=#
U>#
U?#
0@#
0A#
UB#
UC#
0D#
0E#
UF#
UG#
0H#
0I#
UJ#
UK#
0L#
0M#
UN#
UO#
0P#
0Q#
UR#
US#
0T#
0U#
UV#
UW#
0X#
0Y#
UZ#
U[#
0\#
0]#
U^#
U_#
0`#
0a#
Ub#
Uc#
0d#
0e#
Uf#
Ug#
bUUUUUUUUUUUUUUUU h#
bUUUUUUUUUUUUUUUU i#
Uj#
bUUUUUUUUUUUUUUUU k#
0l#
0m#
bUUUUUUUUUUUUUUUU n#
bUUUUUUUUUUUUUUUU o#
0p#
0q#
Ur#
Us#
0t#
0u#
Uv#
Uw#
0x#
0y#
Uz#
U{#
0|#
0}#
U!$
U"$
0#$
0$$
U%$
U&$
0'$
0($
U)$
U*$
0+$
0,$
U-$
U.$
0/$
00$
U1$
U2$
03$
04$
U5$
U6$
07$
08$
U9$
U:$
0;$
0<$
U=$
U>$
0?$
0@$
UA$
UB$
0C$
0D$
UE$
UF$
0G$
0H$
UI$
UJ$
0K$
0L$
UM$
UN$
0O$
0P$
UQ$
UR$
1S$
0T$
0U$
UV$
bUUU1 W$
0X$
0Y$
1Z$
U[$
0\$
0]$
U^$
U_$
0`$
0a$
Ub$
Uc$
0d$
Ue$
0f$
bUUUUUUUU g$
0h$
bUUUUUUUU i$
0j$
0k$
Ul$
Um$
#2500000
1!
b00111011 $
b00011001 %
1'
b00111011 )
b00011001 *
b00101110 /
b10101101 0
b01111111 1
b0000000001111111 2
1=
b00111011 ?
b00101110 @
1A
1C
0D
1E
1H
1I
0K
1L
1M
1P
1Q
1S
0T
1U
1X
1Y
0\
1]
0`
1a
b00011001 c
b10101101 d
1e
1h
1i
0l
1m
0o
1p
1q
1t
1u
1w
0x
1y
0{
1|
1}
0#"
1$"
0&"
1'"
b00101110 ("
b10101101 )"
b01111111 *"
b0000000001111111 +"
11"
16"
1;"
1@"
1E"
1J"
1O"
0T"
1$#
1(#
1,#
10#
14#
18#
1<#
1@#
1D#
1H#
1L#
1P#
1T#
1X#
1\#
1`#
1d#
1l#
1p#
1t#
1x#
1|#
1#$
1'$
1+$
1/$
13$
17$
1;$
1?$
1C$
1G$
1K$
1O$
1T$
bUU11 W$
1X$
1[$
1\$
1^$
1`$
1d$
#5000000
0!
0'
0=
0A
0E
0I
0M
0Q
0U
0Y
0]
0a
0e
0i
0m
0q
0u
0y
0}
0$"
0$#
0(#
0,#
00#
04#
08#
0<#
0@#
0D#
0H#
0L#
0P#
0T#
0X#
0\#
0`#
0d#
0l#
0p#
0t#
0x#
0|#
0#$
0'$
0+$
0/$
03$
07$
0;$
0?$
0C$
0G$
0K$
0O$
0T$
0X$
0\$
0`$
0d$
#7500000
1!
b10100100 $
b00011011 %
1'
b10100100 )
b00011011 *
b00111011 /
b00011001 0
b00100010 1
b0000000000100010 2
1=
b10100100 ?
b00111011 @
1A
0C
1D
1E
0G
1I
1K
0L
1M
0O
1Q
0S
1T
1U
1Y
1]
1_
1a
b00011011 c
b00011001 d
1e
1i
1k
1m
0p
1q
1u
1x
1y
0|
1}
1$"
0'"
b00111011 ("
b00011001 )"
b00100010 *"
b0000000000100010 +"
bUUUUUUUUUUUUUUU00 0"
01"
05"
08"
0;"
0@"
0E"
0O"
1$#
1(#
1,#
10#
14#
18#
1<#
1@#
1D#
1H#
1L#
1P#
1T#
1X#
1\#
1`#
1d#
1l#
1p#
1t#
1x#
1|#
1#$
1'$
1+$
1/$
13$
17$
1;$
1?$
1C$
1G$
1K$
1O$
1T$
bU111 W$
1X$
1\$
1_$
1`$
1b$
1d$
#10000000
0!
0'
0=
0A
0E
0I
0M
0Q
0U
0Y
0]
0a
0e
0i
0m
0q
0u
0y
0}
0$"
0$#
0(#
0,#
00#
04#
08#
0<#
0@#
0D#
0H#
0L#
0P#
0T#
0X#
0\#
0`#
0d#
0l#
0p#
0t#
0x#
0|#
0#$
0'$
0+$
0/$
03$
07$
0;$
0?$
0C$
0G$
0K$
0O$
0T$
0X$
0\$
0`$
0d$
#12500000
1!
b01011000 $
b11110111 %
1'
b01011000 )
b11110111 *
b10100100 /
b00011011 0
b10001001 1
b0000000010001001 2
14
1=
b01011000 ?
b10100100 @
1A
0D
1E
0H
1I
0K
1L
1M
1O
0P
1Q
1S
0T
1U
0W
1Y
1[
1]
0_
1`
1a
b11110111 c
b00011011 d
1e
1i
1l
1m
1o
1q
0s
1u
1y
1{
1}
1""
1$"
1&"
b10100100 ("
b00011011 )"
b10001001 *"
b0000000010001001 +"
bUUUUUUUUUUUUUUUU0 0"
11"
U5"
06"
U8"
U:"
U="
U?"
1@"
UB"
0J"
1T"
1$#
1(#
1,#
10#
14#
18#
1<#
1@#
1D#
1H#
1L#
1P#
1T#
1X#
1\#
1`#
1d#
1l#
1p#
1t#
1x#
1|#
1#$
1'$
1+$
1/$
13$
17$
1;$
1?$
1C$
1G$
1K$
1O$
1T$
1V$
b1111 W$
1X$
1\$
1`$
1c$
1d$
1e$
#15000000
0!
0'
0=
0A
0E
0I
0M
0Q
0U
0Y
0]
0a
0e
0i
0m
0q
0u
0y
0}
0$"
0$#
0(#
0,#
00#
04#
08#
0<#
0@#
0D#
0H#
0L#
0P#
0T#
0X#
0\#
0`#
0d#
0l#
0p#
0t#
0x#
0|#
0#$
0'$
0+$
0/$
03$
07$
0;$
0?$
0C$
0G$
0K$
0O$
0T$
0X$
0\$
0`$
0d$
#17500000
1!
b00111001 $
b10101101 %
1'
b00111001 )
b10101101 *
b01011000 /
b11110111 0
b10011111 1
b0000000010011111 2
1=
b00111001 ?
b01011000 @
1A
1C
1E
1I
0L
1M
1P
1Q
1T
1U
1W
0X
1Y
0[
1\
1]
0`
1a
b10101101 c
b11110111 d
1e
1i
0k
1m
1p
1q
1s
0t
1u
0w
1y
1|
1}
0""
1#"
1$"
1'"
b01011000 ("
b11110111 )"
b10011111 *"
b0000000010011111 +"
16"
1;"
1E"
1$#
1(#
1,#
10#
14#
18#
1<#
1@#
1D#
1H#
1L#
1P#
1T#
1X#
1\#
1`#
1d#
1l#
1p#
1t#
1x#
1|#
1#$
1'$
1+$
1/$
13$
17$
1;$
1?$
1C$
1G$
1K$
1O$
1T$
1X$
1\$
1`$
1d$
bXXXXXXXX g$
bXXXXXXXX i$
#20000000
0!
0'
0=
0A
0E
0I
0M
0Q
0U
0Y
0]
0a
0e
0i
0m
0q
0u
0y
0}
0$"
0$#
0(#
0,#
00#
04#
08#
0<#
0@#
0D#
0H#
0L#
0P#
0T#
0X#
0\#
0`#
0d#
0l#
0p#
0t#
0x#
0|#
0#$
0'$
0+$
0/$
03$
07$
0;$
0?$
0C$
0G$
0K$
0O$
0T$
0X$
0\$
0`$
0d$
#22500000
1!
b00100111 $
b10101000 %
1'
b00100111 )
b10101000 *
b00111001 /
b10101101 0
b01110100 1
b0000000001110100 2
1=
b00100111 ?
b00111001 @
1A
1D
1E
1G
1I
1K
1M
0O
1Q
0S
1U
1X
1Y
0\
1]
1a
b10101000 c
b10101101 d
1e
0g
1i
0l
1m
0o
1q
1t
1u
0x
1y
1}
0#"
1$"
b00111001 ("
b10101101 )"
b01110100 *"
b0000000001110100 +"
bUUUUUUUUUUUUUU000 0"
01"
05"
06"
08"
0:"
0="
0@"
1J"
1O"
0T"
1$#
1(#
1,#
10#
14#
18#
1<#
1@#
1D#
1H#
1L#
1P#
1T#
1X#
1\#
1`#
1d#
1l#
1p#
1t#
1x#
1|#
1#$
1'$
1+$
1/$
13$
17$
1;$
1?$
1C$
1G$
1K$
1O$
1T$
1X$
1\$
1`$
1d$
#25000000
0!
0'
0=
0A
0E
0I
0M
0Q
0U
0Y
0]
0a
0e
0i
0m
0q
0u
0y
0}
0$"
0$#
0(#
0,#
00#
04#
08#
0<#
0@#
0D#
0H#
0L#
0P#
0T#
0X#
0\#
0`#
0d#
0l#
0p#
0t#
0x#
0|#
0#$
0'$
0+$
0/$
03$
07$
0;$
0?$
0C$
0G$
0K$
0O$
0T$
0X$
0\$
0`$
0d$
#27500000
1!
1"
b10010100 $
b11110101 %
1'
1(
b10010100 )
b11110101 *
b0000000000000000 ,
0-
b00000000 /
b00000000 0
b00000000 1
b0000000000000000 2
b0000000000000000 3
04
b0000000000000000 5
b0000000000000000 6
17
b0000000000000000 8
0;
0<
1=
1>
b10010100 ?
b00000000 @
1A
1B
0C
0D
1E
1F
0G
0H
1I
1J
0L
1M
1N
0P
1Q
1R
1S
0T
1U
1V
0W
0X
1Y
1Z
1]
1^
1_
1a
1b
b11110101 c
b00000000 d
1e
1f
1g
0h
1i
1j
1m
1n
1o
0p
1q
1r
0s
0t
1u
1v
1w
1y
1z
0|
1}
1!"
1""
1$"
1%"
0'"
b00000000 ("
b00000000 )"
b00000000 *"
b0000000000000000 +"
b0000000000000000 ,"
b0000000000000000 ."
0/"
b00000000000000000 0"
01"
02"
04"
07"
09"
0;"
0<"
0>"
0?"
0A"
0B"
0C"
0D"
0E"
0F"
0G"
0H"
0I"
0J"
0K"
0L"
0M"
0N"
0O"
0P"
0Q"
0R"
0S"
0T"
0U"
0V"
0W"
0X"
0Z"
0["
0\"
0]"
0_"
0`"
0a"
0b"
0d"
0e"
0f"
0g"
0i"
0j"
0k"
0l"
0n"
0o"
0p"
0q"
0s"
0t"
0u"
0v"
0x"
0y"
0z"
0{"
0}"
0!#
0"#
0##
1$#
1%#
b0000000000000000 &#
b0000000000000000 '#
1(#
1)#
0*#
0+#
1,#
1-#
0.#
0/#
10#
11#
02#
03#
14#
15#
06#
07#
18#
19#
0:#
0;#
1<#
1=#
0>#
0?#
1@#
1A#
0B#
0C#
1D#
1E#
0F#
0G#
1H#
1I#
0J#
0K#
1L#
1M#
0N#
0O#
1P#
1Q#
0R#
0S#
1T#
1U#
0V#
0W#
1X#
1Y#
0Z#
0[#
1\#
1]#
0^#
0_#
1`#
1a#
0b#
0c#
1d#
1e#
0f#
0g#
b0000000000000000 h#
b0000000000000000 i#
0j#
b0000000000000000 k#
1l#
1m#
b0000000000000000 n#
b0000000000000000 o#
1p#
1q#
0r#
0s#
1t#
1u#
0v#
0w#
1x#
1y#
0z#
0{#
1|#
1}#
0!$
0"$
1#$
1$$
0%$
0&$
1'$
1($
0)$
0*$
1+$
1,$
0-$
0.$
1/$
10$
01$
02$
13$
14$
05$
06$
17$
18$
09$
0:$
1;$
1<$
0=$
0>$
1?$
1@$
0A$
0B$
1C$
1D$
0E$
0F$
1G$
1H$
0I$
0J$
1K$
1L$
0M$
0N$
1O$
1P$
0Q$
0R$
1T$
1U$
0V$
b0001 W$
1X$
1Y$
0[$
1\$
1]$
0^$
0_$
1`$
1a$
0b$
0c$
1d$
0e$
1f$
1k$
0l$
1m$
#30000000
0!
0'
0=
0A
0E
0I
0M
0Q
0U
0Y
0]
0a
0e
0i
0m
0q
0u
0y
0}
0$"
0$#
0(#
0,#
00#
04#
08#
0<#
0@#
0D#
0H#
0L#
0P#
0T#
0X#
0\#
0`#
0d#
0l#
0p#
0t#
0x#
0|#
0#$
0'$
0+$
0/$
03$
07$
0;$
0?$
0C$
0G$
0K$
0O$
0T$
0X$
0\$
0`$
0d$
