waveforms/tb_SAD.vcd
$date
  Sat May 26 22:16:48 2018
$end
$version
  GHDL v0
$end
$timescale
  1 fs
$end
$var reg 1 ! clk $end
$var reg 1 " reset $end
$var reg 1 # enable $end
$var reg 8 $ pa[7:0] $end
$var reg 8 % pb[7:0] $end
$var reg 1 & testing $end
$scope module sad_i $end
$var reg 1 ' clk $end
$var reg 1 ( rst $end
$var reg 8 ) pa[7:0] $end
$var reg 8 * pb[7:0] $end
$var reg 1 + en $end
$var reg 16 , sad[15:0] $end
$var reg 1 - data_valid $end
$var reg 16 . sumdiffs[15:0] $end
$var integer 32 / op_count $end
$upscope $end
$enddefinitions $end
#0
0!
0"
1#
b01101011 $
b11011101 %
1&
0'
0(
b01101011 )
b11011101 *
1+
bUUUUUUUUUUUUUUUU ,
U-
bUUUUUUUUUUUUUUUU .
b10000000000000000000000000000000 /
#2500000
1!
b10110000 $
b11010010 %
1'
b10110000 )
b11010010 *
bXXXXXXXXXXXXXXXX ,
bXXXXXXXXXXXXXXXX .
b10000000000000000000000000000001 /
#5000000
0!
0'
#7500000
1!
b00110110 $
b00101110 %
1'
b00110110 )
b00101110 *
b10000000000000000000000000000010 /
#10000000
0!
0'
#12500000
1!
b00101101 $
b10010010 %
1'
b00101101 )
b10010010 *
b10000000000000000000000000000011 /
#15000000
0!
0'
#17500000
1!
b00010000 $
b00111000 %
1'
b00010000 )
b00111000 *
b10000000000000000000000000000100 /
#20000000
0!
0'
#22500000
1!
b01101111 $
b00100010 %
1'
b01101111 )
b00100010 *
b10000000000000000000000000000101 /
#25000000
0!
0'
#27500000
1!
1"
b01011100 $
b00111001 %
1'
1(
b01011100 )
b00111001 *
b0000000000000000 ,
0-
b0000000000000000 .
b0 /
#30000000
0!
0'
#32500000
1!
b00101001 $
b01010011 %
1'
b00101001 )
b01010011 *
#35000000
0!
0'
#37500000
1!
0#
b00111011 $
b00100111 %
1'
b00111011 )
b00100111 *
0+
#40000000
0!
0'
#42500000
1!
b11110110 $
b01001110 %
1'
b11110110 )
b01001110 *
#45000000
0!
0'
#47500000
1!
0"
1#
b00000000 $
b00000000 %
1'
0(
b00000000 )
b00000000 *
1+
#50000000
0!
0'
#52500000
1!
b10010101 $
b11001101 %
1'
b10010101 )
b11001101 *
b1 /
#55000000
0!
0'
#57500000
1!
b11010011 $
b10110101 %
1'
b11010011 )
b10110101 *
b0000000000111000 ,
b0000000000111000 .
b10 /
#60000000
0!
0'
#62500000
1!
b01100100 $
b01010000 %
1'
b01100100 )
b01010000 *
b0000000001010110 ,
b0000000001010110 .
b11 /
#65000000
0!
0'
#67500000
1!
b10101011 $
b01100100 %
1'
b10101011 )
b01100100 *
b0000000001101010 ,
b0000000001101010 .
b100 /
#70000000
0!
0'
#72500000
1!
b00000100 $
b10100010 %
1'
b00000100 )
b10100010 *
b0000000010110001 ,
b0000000010110001 .
b101 /
#75000000
0!
0'
#77500000
1!
b00000101 $
b01101101 %
1'
b00000101 )
b01101101 *
b0000000101001111 ,
b0000000101001111 .
b110 /
#80000000
0!
0'
#82500000
1!
b00010011 $
b11111001 %
1'
b00010011 )
b11111001 *
b0000000110110111 ,
b0000000110110111 .
b111 /
#85000000
0!
0'
#87500000
1!
b00101000 $
b11001011 %
1'
b00101000 )
b11001011 *
b0000001010011101 ,
b0000001010011101 .
b1000 /
#90000000
0!
0'
#92500000
1!
b01101001 $
b11001001 %
1'
b01101001 )
b11001001 *
b0000001101000000 ,
b0000001101000000 .
b1001 /
#95000000
0!
0'
#97500000
1!
b10011010 $
b10011001 %
1'
b10011010 )
b10011001 *
b0000001110100000 ,
b0000001110100000 .
b1010 /
#100000000
0!
0'
#102500000
1!
b11110001 $
b10101000 %
1'
b11110001 )
b10101000 *
b0000001110100001 ,
b0000001110100001 .
b1011 /
#105000000
0!
0'
#107500000
1!
b01010111 $
b10010111 %
1'
b01010111 )
b10010111 *
b0000001111101010 ,
b0000001111101010 .
b1100 /
#110000000
0!
0'
#112500000
1!
b01011001 $
b10000110 %
1'
b01011001 )
b10000110 *
b0000010000101010 ,
b0000010000101010 .
b1101 /
#115000000
0!
0'
#117500000
1!
b10010100 $
b00100010 %
1'
b10010100 )
b00100010 *
b0000010001010111 ,
b0000010001010111 .
b1110 /
#120000000
0!
0'
#122500000
1!
b10110001 $
b00111110 %
1'
b10110001 )
b00111110 *
b0000010011001001 ,
b0000010011001001 .
b1111 /
#125000000
0!
0'
#127500000
1!
b01001010 $
b10110011 %
1'
b01001010 )
b10110011 *
b0000010100111100 ,
b0000010100111100 .
b10000 /
#130000000
0!
0'
#132500000
1!
b10101110 $
b11010000 %
1'
b10101110 )
b11010000 *
b0000010110100101 ,
b0000010110100101 .
b10001 /
#135000000
0!
0'
#137500000
1!
b00001111 $
b00000111 %
1'
b00001111 )
b00000111 *
b0000010111000111 ,
b0000010111000111 .
b10010 /
#140000000
0!
0'
#142500000
1!
b01101100 $
b11011010 %
1'
b01101100 )
b11011010 *
b0000010111001111 ,
b0000010111001111 .
b10011 /
#145000000
0!
0'
#147500000
1!
b11100101 $
b11110100 %
1'
b11100101 )
b11110100 *
b0000011000111101 ,
b0000011000111101 .
b10100 /
#150000000
0!
0'
#152500000
1!
b10110100 $
b11010010 %
1'
b10110100 )
b11010010 *
b0000011001001100 ,
b0000011001001100 .
b10101 /
#155000000
0!
0'
#157500000
1!
b00100001 $
b10101100 %
1'
b00100001 )
b10101100 *
b0000011001101010 ,
b0000011001101010 .
b10110 /
#160000000
0!
0'
#162500000
1!
b01010101 $
b11000111 %
1'
b01010101 )
b11000111 *
b0000011011110101 ,
b0000011011110101 .
b10111 /
#165000000
0!
0'
#167500000
1!
b01001100 $
b01000100 %
1'
b01001100 )
b01000100 *
b0000011101100111 ,
b0000011101100111 .
b11000 /
#170000000
0!
0'
#172500000
1!
b10111110 $
b10101011 %
1'
b10111110 )
b10101011 *
b0000011101101111 ,
b0000011101101111 .
b11001 /
#175000000
0!
0'
#177500000
1!
b10001110 $
b11110101 %
1'
b10001110 )
b11110101 *
b0000011110000010 ,
b0000011110000010 .
b11010 /
#180000000
0!
0'
#182500000
1!
b11011100 $
b00010110 %
1'
b11011100 )
b00010110 *
b0000011111101001 ,
b0000011111101001 .
b11011 /
#185000000
0!
0'
#187500000
1!
b11100111 $
b10010001 %
1'
b11100111 )
b10010001 *
b0000100010101111 ,
b0000100010101111 .
b11100 /
#190000000
0!
0'
#192500000
1!
b10011110 $
b10100100 %
1'
b10011110 )
b10100100 *
b0000100100000101 ,
b0000100100000101 .
b11101 /
#195000000
0!
0'
#197500000
1!
b11100100 $
b00011111 %
1'
b11100100 )
b00011111 *
b0000100100001011 ,
b0000100100001011 .
b11110 /
#200000000
0!
0'
#202500000
1!
b01100101 $
b01000000 %
1'
b01100101 )
b01000000 *
b0000100111010000 ,
b0000100111010000 .
b11111 /
#205000000
0!
0'
#207500000
1!
b00100000 $
b00010001 %
1'
b00100000 )
b00010001 *
b0000100111110101 ,
b0000100111110101 .
b100000 /
#210000000
0!
0'
#212500000
1!
b10100001 $
b01010111 %
1'
b10100001 )
b01010111 *
b0000101000000100 ,
b0000101000000100 .
b100001 /
#215000000
0!
0'
#217500000
1!
b11001011 $
b11001001 %
1'
b11001011 )
b11001001 *
b0000101001001110 ,
b0000101001001110 .
b100010 /
#220000000
0!
0'
#222500000
1!
b11110111 $
b10000000 %
1'
b11110111 )
b10000000 *
b0000101001010000 ,
b0000101001010000 .
b100011 /
#225000000
0!
0'
#227500000
1!
b11001010 $
b00001001 %
1'
b11001010 )
b00001001 *
b0000101011000111 ,
b0000101011000111 .
b100100 /
#230000000
0!
0'
#232500000
1!
b11011000 $
b10101100 %
1'
b11011000 )
b10101100 *
b0000101110001000 ,
b0000101110001000 .
b100101 /
#235000000
0!
0'
#237500000
1!
b01001101 $
b00100010 %
1'
b01001101 )
b00100010 *
b0000101110110100 ,
b0000101110110100 .
b100110 /
#240000000
0!
0'
#242500000
1!
b00101011 $
b00001110 %
1'
b00101011 )
b00001110 *
b0000101111011111 ,
b0000101111011111 .
b100111 /
#245000000
0!
0'
#247500000
1!
b10110001 $
b10000111 %
1'
b10110001 )
b10000111 *
b0000101111111100 ,
b0000101111111100 .
b101000 /
#250000000
0!
0'
#252500000
1!
b11010111 $
b11000010 %
1'
b11010111 )
b11000010 *
b0000110000100110 ,
b0000110000100110 .
b101001 /
#255000000
0!
0'
#257500000
1!
b01110000 $
b10000000 %
1'
b01110000 )
b10000000 *
b0000110000111011 ,
b0000110000111011 .
b101010 /
#260000000
0!
0'
#262500000
1!
b01101001 $
b00111111 %
1'
b01101001 )
b00111111 *
b0000110001001011 ,
b0000110001001011 .
b101011 /
#265000000
0!
0'
#267500000
1!
b00110000 $
b01001111 %
1'
b00110000 )
b01001111 *
b0000110001110101 ,
b0000110001110101 .
b101100 /
#270000000
0!
0'
#272500000
1!
b10100000 $
b00101111 %
1'
b10100000 )
b00101111 *
b0000110010010100 ,
b0000110010010100 .
b101101 /
#275000000
0!
0'
#277500000
1!
b10101111 $
b11111111 %
1'
b10101111 )
b11111111 *
b0000110100000101 ,
b0000110100000101 .
b101110 /
#280000000
0!
0'
#282500000
1!
b00000100 $
b10011010 %
1'
b00000100 )
b10011010 *
b0000110101010101 ,
b0000110101010101 .
b101111 /
#285000000
0!
0'
#287500000
1!
b10001101 $
b01001111 %
1'
b10001101 )
b01001111 *
b0000110111101011 ,
b0000110111101011 .
b110000 /
#290000000
0!
0'
#292500000
1!
b10010000 $
b11110110 %
1'
b10010000 )
b11110110 *
b0000111000101001 ,
b0000111000101001 .
b110001 /
#295000000
0!
0'
#297500000
1!
b11110000 $
b00010110 %
1'
b11110000 )
b00010110 *
b0000111010001111 ,
b0000111010001111 .
b110010 /
#300000000
0!
0'
#302500000
1!
b11000001 $
b00101100 %
1'
b11000001 )
b00101100 *
b0000111101101001 ,
b0000111101101001 .
b110011 /
#305000000
0!
0'
#307500000
1!
b11011001 $
b00011001 %
1'
b11011001 )
b00011001 *
b0000111111111110 ,
b0000111111111110 .
b110100 /
#310000000
0!
0'
#312500000
1!
b11001111 $
b01010111 %
1'
b11001111 )
b01010111 *
b0001000010111110 ,
b0001000010111110 .
b110101 /
#315000000
0!
0'
#317500000
1!
b10111111 $
b00101010 %
1'
b10111111 )
b00101010 *
b0001000100110110 ,
b0001000100110110 .
b110110 /
#320000000
0!
0'
#322500000
1!
b10100110 $
b00000000 %
1'
b10100110 )
b00000000 *
b0001000111001011 ,
b0001000111001011 .
b110111 /
#325000000
0!
0'
#327500000
1!
b10110111 $
b10001011 %
1'
b10110111 )
b10001011 *
b0001001001110001 ,
b0001001001110001 .
b111000 /
#330000000
0!
0'
#332500000
1!
b11010111 $
b11111010 %
1'
b11010111 )
b11111010 *
b0001001010011101 ,
b0001001010011101 .
b111001 /
#335000000
0!
0'
#337500000
1!
b11011000 $
b00110100 %
1'
b11011000 )
b00110100 *
b0001001011000000 ,
b0001001011000000 .
b111010 /
#340000000
0!
0'
#342500000
1!
b11000001 $
b10001011 %
1'
b11000001 )
b10001011 *
b0001001101100100 ,
b0001001101100100 .
b111011 /
#345000000
0!
0'
#347500000
1!
b10111011 $
b11110001 %
1'
b10111011 )
b11110001 *
b0001001110011010 ,
b0001001110011010 .
b111100 /
#350000000
0!
0'
#352500000
1!
b01000111 $
b10110000 %
1'
b01000111 )
b10110000 *
b0001001111010000 ,
b0001001111010000 .
b111101 /
#355000000
0!
0'
#357500000
1!
b11000111 $
b10111000 %
1'
b11000111 )
b10111000 *
b0001010000111001 ,
b0001010000111001 .
b111110 /
#360000000
0!
0'
#362500000
1!
b01000001 $
b01001001 %
1'
b01000001 )
b01001001 *
b0001010001001000 ,
b0001010001001000 .
b111111 /
#365000000
0!
0'
#367500000
1!
b11000111 $
b10001000 %
1'
b11000111 )
b10001000 *
b0001010001010000 ,
b0001010001010000 .
b1000000 /
#370000000
0!
0'
#372500000
1!
b01101000 $
b11010011 %
1'
b01101000 )
b11010011 *
b0001010010001111 ,
b0001010010001111 .
b1000001 /
#375000000
0!
0'
#377500000
1!
b00010111 $
b10011111 %
1'
b00010111 )
b10011111 *
b0001010011111010 ,
b0001010011111010 .
b1000010 /
#380000000
0!
0'
#382500000
1!
b01101101 $
b00110101 %
1'
b01101101 )
b00110101 *
b0001010110000010 ,
b0001010110000010 .
b1000011 /
#385000000
0!
0'
#387500000
1!
b10111101 $
b10111011 %
1'
b10111101 )
b10111011 *
b0001010110111010 ,
b0001010110111010 .
b1000100 /
#390000000
0!
0'
#392500000
1!
b00100000 $
b10100101 %
1'
b00100000 )
b10100101 *
b0001010110111100 ,
b0001010110111100 .
b1000101 /
#395000000
0!
0'
#397500000
1!
b01010010 $
b10111010 %
1'
b01010010 )
b10111010 *
b0001011001000001 ,
b0001011001000001 .
b1000110 /
#400000000
0!
0'
#402500000
1!
b00001100 $
b11100110 %
1'
b00001100 )
b11100110 *
b0001011010101001 ,
b0001011010101001 .
b1000111 /
#405000000
0!
0'
#407500000
1!
b11000101 $
b00101110 %
1'
b11000101 )
b00101110 *
b0001011110000011 ,
b0001011110000011 .
b1001000 /
#410000000
0!
0'
#412500000
1!
b00010111 $
b01110011 %
1'
b00010111 )
b01110011 *
b0001100000011010 ,
b0001100000011010 .
b1001001 /
#415000000
0!
0'
#417500000
1!
b00000111 $
b00101010 %
1'
b00000111 )
b00101010 *
b0001100001110110 ,
b0001100001110110 .
b1001010 /
#420000000
0!
0'
#422500000
1!
b01111011 $
b00000001 %
1'
b01111011 )
b00000001 *
b0001100010011001 ,
b0001100010011001 .
b1001011 /
#425000000
0!
0'
#427500000
1!
b01011100 $
b01100010 %
1'
b01011100 )
b01100010 *
b0001100100010011 ,
b0001100100010011 .
b1001100 /
#430000000
0!
0'
#432500000
1!
b11001001 $
b00111000 %
1'
b11001001 )
b00111000 *
b0001100100011001 ,
b0001100100011001 .
b1001101 /
#435000000
0!
0'
#437500000
1!
b01010011 $
b11111101 %
1'
b01010011 )
b11111101 *
b0001100110101010 ,
b0001100110101010 .
b1001110 /
#440000000
0!
0'
#442500000
1!
b11101111 $
b10110000 %
1'
b11101111 )
b10110000 *
b0001101001010100 ,
b0001101001010100 .
b1001111 /
#445000000
0!
0'
#447500000
1!
b01110011 $
b01111100 %
1'
b01110011 )
b01111100 *
b0001101010010011 ,
b0001101010010011 .
b1010000 /
#450000000
0!
0'
#452500000
1!
b11101111 $
b10100111 %
1'
b11101111 )
b10100111 *
b0001101010011100 ,
b0001101010011100 .
b1010001 /
#455000000
0!
0'
#457500000
1!
b00011011 $
b11010100 %
1'
b00011011 )
b11010100 *
b0001101011100100 ,
b0001101011100100 .
b1010010 /
#460000000
0!
0'
#462500000
1!
b11000000 $
b11000111 %
1'
b11000000 )
b11000111 *
b0001101110011101 ,
b0001101110011101 .
b1010011 /
#465000000
0!
0'
#467500000
1!
b10010000 $
b01110010 %
1'
b10010000 )
b01110010 *
b0001101110100100 ,
b0001101110100100 .
b1010100 /
#470000000
0!
0'
#472500000
1!
b00011001 $
b01110110 %
1'
b00011001 )
b01110110 *
b0001101111000010 ,
b0001101111000010 .
b1010101 /
#475000000
0!
0'
#477500000
1!
b11100101 $
b10001101 %
1'
b11100101 )
b10001101 *
b0001110000011111 ,
b0001110000011111 .
b1010110 /
#480000000
0!
0'
#482500000
1!
b01001101 $
b00000111 %
1'
b01001101 )
b00000111 *
b0001110001110111 ,
b0001110001110111 .
b1010111 /
#485000000
0!
0'
#487500000
1!
b00001000 $
b01100110 %
1'
b00001000 )
b01100110 *
b0001110010111101 ,
b0001110010111101 .
b1011000 /
#490000000
0!
0'
#492500000
1!
b00010101 $
b10001001 %
1'
b00010101 )
b10001001 *
b0001110100011011 ,
b0001110100011011 .
b1011001 /
#495000000
0!
0'
#497500000
1!
b11000111 $
b11001001 %
1'
b11000111 )
b11001001 *
b0001110110001111 ,
b0001110110001111 .
b1011010 /
#500000000
0!
0'
#502500000
1!
b11110111 $
b00011001 %
1'
b11110111 )
b00011001 *
b0001110110010001 ,
b0001110110010001 .
b1011011 /
#505000000
0!
0'
#507500000
1!
b10101011 $
b01101101 %
1'
b10101011 )
b01101101 *
b0001111001101111 ,
b0001111001101111 .
b1011100 /
#510000000
0!
0'
#512500000
1!
b00101100 $
b01101110 %
1'
b00101100 )
b01101110 *
b0001111010101101 ,
b0001111010101101 .
b1011101 /
#515000000
0!
0'
#517500000
1!
b11000111 $
b00000110 %
1'
b11000111 )
b00000110 *
b0001111011101111 ,
b0001111011101111 .
b1011110 /
#520000000
0!
0'
#522500000
1!
b01010000 $
b01001000 %
1'
b01010000 )
b01001000 *
b0001111110110000 ,
b0001111110110000 .
b1011111 /
#525000000
0!
0'
#527500000
1!
b10101110 $
b11100011 %
1'
b10101110 )
b11100011 *
b0001111110111000 ,
b0001111110111000 .
b1100000 /
#530000000
0!
0'
#532500000
1!
b00101010 $
b11111011 %
1'
b00101010 )
b11111011 *
b0001111111101101 ,
b0001111111101101 .
b1100001 /
#535000000
0!
0'
#537500000
1!
b11010000 $
b00101011 %
1'
b11010000 )
b00101011 *
b0010000010111110 ,
b0010000010111110 .
b1100010 /
#540000000
0!
0'
#542500000
1!
b10111011 $
b01001001 %
1'
b10111011 )
b01001001 *
b0010000101100011 ,
b0010000101100011 .
b1100011 /
#545000000
0!
0'
#547500000
1!
b01010100 $
b00110011 %
1'
b01010100 )
b00110011 *
b0010000111010101 ,
b0010000111010101 .
b1100100 /
#550000000
0!
0'
#552500000
1!
b10100100 $
b10100010 %
1'
b10100100 )
b10100010 *
b0010000111110110 ,
b0010000111110110 .
b1100101 /
#555000000
0!
0'
#557500000
1!
b00100011 $
b00011000 %
1'
b00100011 )
b00011000 *
b0010000111111000 ,
b0010000111111000 .
b1100110 /
#560000000
0!
0'
#562500000
1!
b00100101 $
b00110010 %
1'
b00100101 )
b00110010 *
b0010001000000011 ,
b0010001000000011 .
b1100111 /
#565000000
0!
0'
#567500000
1!
b01101111 $
b11010111 %
1'
b01101111 )
b11010111 *
b0010001000010000 ,
b0010001000010000 .
b1101000 /
#570000000
0!
0'
#572500000
1!
b11110111 $
b00011001 %
1'
b11110111 )
b00011001 *
b0010001001111000 ,
b0010001001111000 .
b1101001 /
#575000000
0!
0'
#577500000
1!
b11000100 $
b00001010 %
1'
b11000100 )
b00001010 *
b0010001101010110 ,
b0010001101010110 .
b1101010 /
#580000000
0!
0'
#582500000
1!
b11100101 $
b01000010 %
1'
b11100101 )
b01000010 *
b0010010000010000 ,
b0010010000010000 .
b1101011 /
#585000000
0!
0'
#587500000
1!
b01101010 $
b10101101 %
1'
b01101010 )
b10101101 *
b0010010010110011 ,
b0010010010110011 .
b1101100 /
#590000000
0!
0'
#592500000
1!
b00001011 $
b10101111 %
1'
b00001011 )
b10101111 *
b0010010011110110 ,
b0010010011110110 .
b1101101 /
#595000000
0!
0'
#597500000
1!
b10001011 $
b11100110 %
1'
b10001011 )
b11100110 *
b0010010110011010 ,
b0010010110011010 .
b1101110 /
#600000000
0!
0'
#602500000
1!
b11001001 $
b11010101 %
1'
b11001001 )
b11010101 *
b0010010111110101 ,
b0010010111110101 .
b1101111 /
#605000000
0!
0'
#607500000
1!
b10110110 $
b11011010 %
1'
b10110110 )
b11011010 *
b0010011000000001 ,
b0010011000000001 .
b1110000 /
#610000000
0!
0'
#612500000
1!
b11100101 $
b11100011 %
1'
b11100101 )
b11100011 *
b0010011000100101 ,
b0010011000100101 .
b1110001 /
#615000000
0!
0'
#617500000
1!
b11100000 $
b11001110 %
1'
b11100000 )
b11001110 *
b0010011000100111 ,
b0010011000100111 .
b1110010 /
#620000000
0!
0'
#622500000
1!
b11010101 $
b01111111 %
1'
b11010101 )
b01111111 *
b0010011000111001 ,
b0010011000111001 .
b1110011 /
#625000000
0!
0'
#627500000
1!
b00111101 $
b11100101 %
1'
b00111101 )
b11100101 *
b0010011010001111 ,
b0010011010001111 .
b1110100 /
#630000000
0!
0'
#632500000
1!
b11110101 $
b11001111 %
1'
b11110101 )
b11001111 *
b0010011100110111 ,
b0010011100110111 .
b1110101 /
#635000000
0!
0'
#637500000
1!
b11110010 $
b10010011 %
1'
b11110010 )
b10010011 *
b0010011101011101 ,
b0010011101011101 .
b1110110 /
#640000000
0!
0'
#642500000
1!
b00100001 $
b10101101 %
1'
b00100001 )
b10101101 *
b0010011110111100 ,
b0010011110111100 .
b1110111 /
#645000000
0!
0'
#647500000
1!
b00010011 $
b11010111 %
1'
b00010011 )
b11010111 *
b0010100001001000 ,
b0010100001001000 .
b1111000 /
#650000000
0!
0'
#652500000
1!
b11000000 $
b10011111 %
1'
b11000000 )
b10011111 *
b0010100100001100 ,
b0010100100001100 .
b1111001 /
#655000000
0!
0'
#657500000
1!
b11011111 $
b11001101 %
1'
b11011111 )
b11001101 *
b0010100100101101 ,
b0010100100101101 .
b1111010 /
#660000000
0!
0'
#662500000
1!
b01111010 $
b10111100 %
1'
b01111010 )
b10111100 *
b0010100100111111 ,
b0010100100111111 .
b1111011 /
#665000000
0!
0'
#667500000
1!
b01001111 $
b00110000 %
1'
b01001111 )
b00110000 *
b0010100110000001 ,
b0010100110000001 .
b1111100 /
#670000000
0!
0'
#672500000
1!
b11001011 $
b01110100 %
1'
b11001011 )
b01110100 *
b0010100110100000 ,
b0010100110100000 .
b1111101 /
#675000000
0!
0'
#677500000
1!
b01111111 $
b11000111 %
1'
b01111111 )
b11000111 *
b0010100111110111 ,
b0010100111110111 .
b1111110 /
#680000000
0!
0'
#682500000
1!
b00011000 $
b00011100 %
1'
b00011000 )
b00011100 *
b0010101000111111 ,
b0010101000111111 .
b1111111 /
#685000000
0!
0'
#687500000
1!
b11010101 $
b11101011 %
1'
b11010101 )
b11101011 *
b0010101001000011 ,
b0010101001000011 .
b10000000 /
#690000000
0!
0'
#692500000
1!
b01010110 $
b10101001 %
1'
b01010110 )
b10101001 *
b0010101001011001 ,
b0010101001011001 .
b10000001 /
#695000000
0!
0'
#697500000
1!
b11100011 $
b00011111 %
1'
b11100011 )
b00011111 *
b0010101010101100 ,
b0010101010101100 .
b10000010 /
#700000000
0!
0'
#702500000
1!
b11010000 $
b01110111 %
1'
b11010000 )
b01110111 *
b0010101101110000 ,
b0010101101110000 .
b10000011 /
#705000000
0!
0'
#707500000
1!
b01111111 $
b01010100 %
1'
b01111111 )
b01010100 *
b0010101111001001 ,
b0010101111001001 .
b10000100 /
#710000000
0!
0'
#712500000
1!
b11110100 $
b11111011 %
1'
b11110100 )
b11111011 *
b0010101111110100 ,
b0010101111110100 .
b10000101 /
#715000000
0!
0'
#717500000
1!
b01000010 $
b00100001 %
1'
b01000010 )
b00100001 *
b0010101111111011 ,
b0010101111111011 .
b10000110 /
#720000000
0!
0'
#722500000
1!
b01110100 $
b10110010 %
1'
b01110100 )
b10110010 *
b0010110000011100 ,
b0010110000011100 .
b10000111 /
#725000000
0!
0'
#727500000
1!
b10110110 $
b00100011 %
1'
b10110110 )
b00100011 *
b0010110001011010 ,
b0010110001011010 .
b10001000 /
#730000000
0!
0'
#732500000
1!
b11111000 $
b10101111 %
1'
b11111000 )
b10101111 *
b0010110011101101 ,
b0010110011101101 .
b10001001 /
#735000000
0!
0'
#737500000
1!
b00011111 $
b01011011 %
1'
b00011111 )
b01011011 *
b0010110100110110 ,
b0010110100110110 .
b10001010 /
#740000000
0!
0'
#742500000
1!
b00001000 $
b10011010 %
1'
b00001000 )
b10011010 *
b0010110101110010 ,
b0010110101110010 .
b10001011 /
#745000000
0!
0'
#747500000
1!
b00000110 $
b11100011 %
1'
b00000110 )
b11100011 *
b0010111000000100 ,
b0010111000000100 .
b10001100 /
#750000000
0!
0'
#752500000
1!
b11001111 $
b00010111 %
1'
b11001111 )
b00010111 *
b0010111011100001 ,
b0010111011100001 .
b10001101 /
#755000000
0!
0'
#757500000
1!
b10011010 $
b11110110 %
1'
b10011010 )
b11110110 *
b0010111110011001 ,
b0010111110011001 .
b10001110 /
#760000000
0!
0'
#762500000
1!
b10100001 $
b10011101 %
1'
b10100001 )
b10011101 *
b0010111111110101 ,
b0010111111110101 .
b10001111 /
#765000000
0!
0'
#767500000
1!
b11111001 $
b11111111 %
1'
b11111001 )
b11111111 *
b0010111111111001 ,
b0010111111111001 .
b10010000 /
#770000000
0!
0'
#772500000
1!
b11010001 $
b11001011 %
1'
b11010001 )
b11001011 *
b0010111111111111 ,
b0010111111111111 .
b10010001 /
#775000000
0!
0'
#777500000
1!
b10110000 $
b01101001 %
1'
b10110000 )
b01101001 *
b0011000000000101 ,
b0011000000000101 .
b10010010 /
#780000000
0!
0'
#782500000
1!
b01110011 $
b11001110 %
1'
b01110011 )
b11001110 *
b0011000001001100 ,
b0011000001001100 .
b10010011 /
#785000000
0!
0'
#787500000
1!
b01100101 $
b01110011 %
1'
b01100101 )
b01110011 *
b0011000010100111 ,
b0011000010100111 .
b10010100 /
#790000000
0!
0'
#792500000
1!
b01011000 $
b00111011 %
1'
b01011000 )
b00111011 *
b0011000010110101 ,
b0011000010110101 .
b10010101 /
#795000000
0!
0'
#797500000
1!
b00101011 $
b10100101 %
1'
b00101011 )
b10100101 *
b0011000011010010 ,
b0011000011010010 .
b10010110 /
#800000000
0!
0'
#802500000
1!
b01010100 $
b11010101 %
1'
b01010100 )
b11010101 *
b0011000101001100 ,
b0011000101001100 .
b10010111 /
#805000000
0!
0'
#807500000
1!
b10011110 $
b11000101 %
1'
b10011110 )
b11000101 *
b0011000111001101 ,
b0011000111001101 .
b10011000 /
#810000000
0!
0'
#812500000
1!
b01111101 $
b00101010 %
1'
b01111101 )
b00101010 *
b0011000111110100 ,
b0011000111110100 .
b10011001 /
#815000000
0!
0'
#817500000
1!
b01010101 $
b10010111 %
1'
b01010101 )
b10010111 *
b0011001001000111 ,
b0011001001000111 .
b10011010 /
#820000000
0!
0'
#822500000
1!
b00000011 $
b11011101 %
1'
b00000011 )
b11011101 *
b0011001010001001 ,
b0011001010001001 .
b10011011 /
#825000000
0!
0'
#827500000
1!
b11010010 $
b01000110 %
1'
b11010010 )
b01000110 *
b0011001101100011 ,
b0011001101100011 .
b10011100 /
#830000000
0!
0'
#832500000
1!
b11110000 $
b10101111 %
1'
b11110000 )
b10101111 *
b0011001111101111 ,
b0011001111101111 .
b10011101 /
#835000000
0!
0'
#837500000
1!
b10110000 $
b10011001 %
1'
b10110000 )
b10011001 *
b0011010000110000 ,
b0011010000110000 .
b10011110 /
#840000000
0!
0'
#842500000
1!
b11101000 $
b11001010 %
1'
b11101000 )
b11001010 *
b0011010001000111 ,
b0011010001000111 .
b10011111 /
#845000000
0!
0'
#847500000
1!
b11001001 $
b01001100 %
1'
b11001001 )
b01001100 *
b0011010001100101 ,
b0011010001100101 .
b10100000 /
#850000000
0!
0'
#852500000
1!
b00010111 $
b10110101 %
1'
b00010111 )
b10110101 *
b0011010011100010 ,
b0011010011100010 .
b10100001 /
#855000000
0!
0'
#857500000
1!
b01011100 $
b01100100 %
1'
b01011100 )
b01100100 *
b0011010110000000 ,
b0011010110000000 .
b10100010 /
#860000000
0!
0'
#862500000
1!
b11101000 $
b10101111 %
1'
b11101000 )
b10101111 *
b0011010110001000 ,
b0011010110001000 .
b10100011 /
#865000000
0!
0'
#867500000
1!
b00110001 $
b11010000 %
1'
b00110001 )
b11010000 *
b0011010111000001 ,
b0011010111000001 .
b10100100 /
#870000000
0!
0'
#872500000
1!
b01001010 $
b11001001 %
1'
b01001010 )
b11001001 *
b0011011001100000 ,
b0011011001100000 .
b10100101 /
#875000000
0!
0'
#877500000
1!
b00111000 $
b01001000 %
1'
b00111000 )
b01001000 *
b0011011011011111 ,
b0011011011011111 .
b10100110 /
#880000000
0!
0'
#882500000
1!
b10111110 $
b00101111 %
1'
b10111110 )
b00101111 *
b0011011011101111 ,
b0011011011101111 .
b10100111 /
#885000000
0!
0'
#887500000
1!
b01110010 $
b10010010 %
1'
b01110010 )
b10010010 *
b0011011101111110 ,
b0011011101111110 .
b10101000 /
#890000000
0!
0'
#892500000
1!
b10010010 $
b01000111 %
1'
b10010010 )
b01000111 *
b0011011110011110 ,
b0011011110011110 .
b10101001 /
#895000000
0!
0'
#897500000
1!
b11100000 $
b11110000 %
1'
b11100000 )
b11110000 *
b0011011111101001 ,
b0011011111101001 .
b10101010 /
#900000000
0!
0'
#902500000
1!
b10010010 $
b11011010 %
1'
b10010010 )
b11011010 *
b0011011111111001 ,
b0011011111111001 .
b10101011 /
#905000000
0!
0'
#907500000
1!
b00101000 $
b00111011 %
1'
b00101000 )
b00111011 *
b0011100001000001 ,
b0011100001000001 .
b10101100 /
#910000000
0!
0'
#912500000
1!
b10000001 $
b11011001 %
1'
b10000001 )
b11011001 *
b0011100001010100 ,
b0011100001010100 .
b10101101 /
#915000000
0!
0'
#917500000
1!
b10111011 $
b00101101 %
1'
b10111011 )
b00101101 *
b0011100010101100 ,
b0011100010101100 .
b10101110 /
#920000000
0!
0'
#922500000
1!
b11001001 $
b11100000 %
1'
b11001001 )
b11100000 *
b0011100100111010 ,
b0011100100111010 .
b10101111 /
#925000000
0!
0'
#927500000
1!
b11011011 $
b10011011 %
1'
b11011011 )
b10011011 *
b0011100101010001 ,
b0011100101010001 .
b10110000 /
#930000000
0!
0'
#932500000
1!
b00111110 $
b10111111 %
1'
b00111110 )
b10111111 *
b0011100110010001 ,
b0011100110010001 .
b10110001 /
#935000000
0!
0'
#937500000
1!
b01010101 $
b01111001 %
1'
b01010101 )
b01111001 *
b0011101000010010 ,
b0011101000010010 .
b10110010 /
#940000000
0!
0'
#942500000
1!
b00101001 $
b01100100 %
1'
b00101001 )
b01100100 *
b0011101000110110 ,
b0011101000110110 .
b10110011 /
#945000000
0!
0'
