waveforms/tb_SAD.vcd
$date
  Thu May 31 15:33:48 2018
$end
$version
  GHDL v0
$end
$timescale
  1 fs
$end
$var reg 1 ! clk $end
$var reg 1 " reset $end
$var reg 1 # enable $end
$var reg 8 $ pa[7:0] $end
$var reg 8 % pb[7:0] $end
$var reg 1 & testing $end
$scope module sad_i $end
$var reg 1 ' clk $end
$var reg 1 ( rst $end
$var reg 8 ) pa[7:0] $end
$var reg 8 * pb[7:0] $end
$var reg 1 + en $end
$var reg 16 , sad[15:0] $end
$var reg 1 - data_valid $end
$var reg 8 . padding[7:0] $end
$var reg 8 / pa_to_sub_nbit[7:0] $end
$var reg 8 0 pb_to_sub_nbit[7:0] $end
$var reg 8 1 sub_out_nbits[7:0] $end
$var reg 16 2 pa_in[15:0] $end
$var reg 1 3 counter_in $end
$var reg 16 4 pa_out[15:0] $end
$var reg 16 5 mux_to_reg_out_wire[15:0] $end
$var reg 1 6 rst_input_registers $end
$var reg 16 7 sad_wire[15:0] $end
$var reg 1 8 tc_wire $end
$var reg 1 9 hold_wire $end
$scope module reg_pa $end
$var reg 1 : clk $end
$var reg 1 ; rst $end
$var reg 8 < d[7:0] $end
$var reg 8 = q[7:0] $end
$scope module reg_gen(0) $end
$scope module i_dff $end
$var reg 1 > clk $end
$var reg 1 ? rst $end
$var reg 1 @ d $end
$var reg 1 A q $end
$upscope $end
$upscope $end
$scope module reg_gen(1) $end
$scope module i_dff $end
$var reg 1 B clk $end
$var reg 1 C rst $end
$var reg 1 D d $end
$var reg 1 E q $end
$upscope $end
$upscope $end
$scope module reg_gen(2) $end
$scope module i_dff $end
$var reg 1 F clk $end
$var reg 1 G rst $end
$var reg 1 H d $end
$var reg 1 I q $end
$upscope $end
$upscope $end
$scope module reg_gen(3) $end
$scope module i_dff $end
$var reg 1 J clk $end
$var reg 1 K rst $end
$var reg 1 L d $end
$var reg 1 M q $end
$upscope $end
$upscope $end
$scope module reg_gen(4) $end
$scope module i_dff $end
$var reg 1 N clk $end
$var reg 1 O rst $end
$var reg 1 P d $end
$var reg 1 Q q $end
$upscope $end
$upscope $end
$scope module reg_gen(5) $end
$scope module i_dff $end
$var reg 1 R clk $end
$var reg 1 S rst $end
$var reg 1 T d $end
$var reg 1 U q $end
$upscope $end
$upscope $end
$scope module reg_gen(6) $end
$scope module i_dff $end
$var reg 1 V clk $end
$var reg 1 W rst $end
$var reg 1 X d $end
$var reg 1 Y q $end
$upscope $end
$upscope $end
$scope module reg_gen(7) $end
$scope module i_dff $end
$var reg 1 Z clk $end
$var reg 1 [ rst $end
$var reg 1 \ d $end
$var reg 1 ] q $end
$upscope $end
$upscope $end
$upscope $end
$scope module reg_pb $end
$var reg 1 ^ clk $end
$var reg 1 _ rst $end
$var reg 8 ` d[7:0] $end
$var reg 8 a q[7:0] $end
$scope module reg_gen(0) $end
$scope module i_dff $end
$var reg 1 b clk $end
$var reg 1 c rst $end
$var reg 1 d d $end
$var reg 1 e q $end
$upscope $end
$upscope $end
$scope module reg_gen(1) $end
$scope module i_dff $end
$var reg 1 f clk $end
$var reg 1 g rst $end
$var reg 1 h d $end
$var reg 1 i q $end
$upscope $end
$upscope $end
$scope module reg_gen(2) $end
$scope module i_dff $end
$var reg 1 j clk $end
$var reg 1 k rst $end
$var reg 1 l d $end
$var reg 1 m q $end
$upscope $end
$upscope $end
$scope module reg_gen(3) $end
$scope module i_dff $end
$var reg 1 n clk $end
$var reg 1 o rst $end
$var reg 1 p d $end
$var reg 1 q q $end
$upscope $end
$upscope $end
$scope module reg_gen(4) $end
$scope module i_dff $end
$var reg 1 r clk $end
$var reg 1 s rst $end
$var reg 1 t d $end
$var reg 1 u q $end
$upscope $end
$upscope $end
$scope module reg_gen(5) $end
$scope module i_dff $end
$var reg 1 v clk $end
$var reg 1 w rst $end
$var reg 1 x d $end
$var reg 1 y q $end
$upscope $end
$upscope $end
$scope module reg_gen(6) $end
$scope module i_dff $end
$var reg 1 z clk $end
$var reg 1 { rst $end
$var reg 1 | d $end
$var reg 1 } q $end
$upscope $end
$upscope $end
$scope module reg_gen(7) $end
$scope module i_dff $end
$var reg 1 !" clk $end
$var reg 1 "" rst $end
$var reg 1 #" d $end
$var reg 1 $" q $end
$upscope $end
$upscope $end
$upscope $end
$scope module gen_padding(0) $end
$upscope $end
$scope module gen_padding(1) $end
$upscope $end
$scope module gen_padding(2) $end
$upscope $end
$scope module gen_padding(3) $end
$upscope $end
$scope module gen_padding(4) $end
$upscope $end
$scope module gen_padding(5) $end
$upscope $end
$scope module gen_padding(6) $end
$upscope $end
$scope module gen_padding(7) $end
$upscope $end
$scope module sub $end
$var reg 8 %" a[7:0] $end
$var reg 8 &" b[7:0] $end
$var reg 8 '" s[7:0] $end
$upscope $end
$scope module phaseacc $end
$var reg 1 (" clk $end
$var reg 1 )" rst $end
$var reg 16 *" pa_in[15:0] $end
$var reg 16 +" pa_out[15:0] $end
$var reg 16 ," kfw_s[15:0] $end
$var reg 16 -" kfw_next[15:0] $end
$scope module i_adder $end
$var reg 16 ." x[15:0] $end
$var reg 16 /" y[15:0] $end
$var reg 1 0" c0 $end
$var reg 16 1" s[15:0] $end
$var reg 1 2" cn $end
$var reg 17 3" c[16:0] $end
$scope module gen_rca(0) $end
$scope module i_fa $end
$var reg 1 4" x $end
$var reg 1 5" y $end
$var reg 1 6" cin $end
$var reg 1 7" s $end
$var reg 1 8" cout $end
$upscope $end
$upscope $end
$scope module gen_rca(1) $end
$scope module i_fa $end
$var reg 1 9" x $end
$var reg 1 :" y $end
$var reg 1 ;" cin $end
$var reg 1 <" s $end
$var reg 1 =" cout $end
$upscope $end
$upscope $end
$scope module gen_rca(2) $end
$scope module i_fa $end
$var reg 1 >" x $end
$var reg 1 ?" y $end
$var reg 1 @" cin $end
$var reg 1 A" s $end
$var reg 1 B" cout $end
$upscope $end
$upscope $end
$scope module gen_rca(3) $end
$scope module i_fa $end
$var reg 1 C" x $end
$var reg 1 D" y $end
$var reg 1 E" cin $end
$var reg 1 F" s $end
$var reg 1 G" cout $end
$upscope $end
$upscope $end
$scope module gen_rca(4) $end
$scope module i_fa $end
$var reg 1 H" x $end
$var reg 1 I" y $end
$var reg 1 J" cin $end
$var reg 1 K" s $end
$var reg 1 L" cout $end
$upscope $end
$upscope $end
$scope module gen_rca(5) $end
$scope module i_fa $end
$var reg 1 M" x $end
$var reg 1 N" y $end
$var reg 1 O" cin $end
$var reg 1 P" s $end
$var reg 1 Q" cout $end
$upscope $end
$upscope $end
$scope module gen_rca(6) $end
$scope module i_fa $end
$var reg 1 R" x $end
$var reg 1 S" y $end
$var reg 1 T" cin $end
$var reg 1 U" s $end
$var reg 1 V" cout $end
$upscope $end
$upscope $end
$scope module gen_rca(7) $end
$scope module i_fa $end
$var reg 1 W" x $end
$var reg 1 X" y $end
$var reg 1 Y" cin $end
$var reg 1 Z" s $end
$var reg 1 [" cout $end
$upscope $end
$upscope $end
$scope module gen_rca(8) $end
$scope module i_fa $end
$var reg 1 \" x $end
$var reg 1 ]" y $end
$var reg 1 ^" cin $end
$var reg 1 _" s $end
$var reg 1 `" cout $end
$upscope $end
$upscope $end
$scope module gen_rca(9) $end
$scope module i_fa $end
$var reg 1 a" x $end
$var reg 1 b" y $end
$var reg 1 c" cin $end
$var reg 1 d" s $end
$var reg 1 e" cout $end
$upscope $end
$upscope $end
$scope module gen_rca(10) $end
$scope module i_fa $end
$var reg 1 f" x $end
$var reg 1 g" y $end
$var reg 1 h" cin $end
$var reg 1 i" s $end
$var reg 1 j" cout $end
$upscope $end
$upscope $end
$scope module gen_rca(11) $end
$scope module i_fa $end
$var reg 1 k" x $end
$var reg 1 l" y $end
$var reg 1 m" cin $end
$var reg 1 n" s $end
$var reg 1 o" cout $end
$upscope $end
$upscope $end
$scope module gen_rca(12) $end
$scope module i_fa $end
$var reg 1 p" x $end
$var reg 1 q" y $end
$var reg 1 r" cin $end
$var reg 1 s" s $end
$var reg 1 t" cout $end
$upscope $end
$upscope $end
$scope module gen_rca(13) $end
$scope module i_fa $end
$var reg 1 u" x $end
$var reg 1 v" y $end
$var reg 1 w" cin $end
$var reg 1 x" s $end
$var reg 1 y" cout $end
$upscope $end
$upscope $end
$scope module gen_rca(14) $end
$scope module i_fa $end
$var reg 1 z" x $end
$var reg 1 {" y $end
$var reg 1 |" cin $end
$var reg 1 }" s $end
$var reg 1 !# cout $end
$upscope $end
$upscope $end
$scope module gen_rca(15) $end
$scope module i_fa $end
$var reg 1 "# x $end
$var reg 1 ## y $end
$var reg 1 $# cin $end
$var reg 1 %# s $end
$var reg 1 &# cout $end
$upscope $end
$upscope $end
$upscope $end
$scope module i_reg $end
$var reg 1 '# clk $end
$var reg 1 (# rst $end
$var reg 16 )# d[15:0] $end
$var reg 16 *# q[15:0] $end
$scope module reg_gen(0) $end
$scope module i_dff $end
$var reg 1 +# clk $end
$var reg 1 ,# rst $end
$var reg 1 -# d $end
$var reg 1 .# q $end
$upscope $end
$upscope $end
$scope module reg_gen(1) $end
$scope module i_dff $end
$var reg 1 /# clk $end
$var reg 1 0# rst $end
$var reg 1 1# d $end
$var reg 1 2# q $end
$upscope $end
$upscope $end
$scope module reg_gen(2) $end
$scope module i_dff $end
$var reg 1 3# clk $end
$var reg 1 4# rst $end
$var reg 1 5# d $end
$var reg 1 6# q $end
$upscope $end
$upscope $end
$scope module reg_gen(3) $end
$scope module i_dff $end
$var reg 1 7# clk $end
$var reg 1 8# rst $end
$var reg 1 9# d $end
$var reg 1 :# q $end
$upscope $end
$upscope $end
$scope module reg_gen(4) $end
$scope module i_dff $end
$var reg 1 ;# clk $end
$var reg 1 <# rst $end
$var reg 1 =# d $end
$var reg 1 ># q $end
$upscope $end
$upscope $end
$scope module reg_gen(5) $end
$scope module i_dff $end
$var reg 1 ?# clk $end
$var reg 1 @# rst $end
$var reg 1 A# d $end
$var reg 1 B# q $end
$upscope $end
$upscope $end
$scope module reg_gen(6) $end
$scope module i_dff $end
$var reg 1 C# clk $end
$var reg 1 D# rst $end
$var reg 1 E# d $end
$var reg 1 F# q $end
$upscope $end
$upscope $end
$scope module reg_gen(7) $end
$scope module i_dff $end
$var reg 1 G# clk $end
$var reg 1 H# rst $end
$var reg 1 I# d $end
$var reg 1 J# q $end
$upscope $end
$upscope $end
$scope module reg_gen(8) $end
$scope module i_dff $end
$var reg 1 K# clk $end
$var reg 1 L# rst $end
$var reg 1 M# d $end
$var reg 1 N# q $end
$upscope $end
$upscope $end
$scope module reg_gen(9) $end
$scope module i_dff $end
$var reg 1 O# clk $end
$var reg 1 P# rst $end
$var reg 1 Q# d $end
$var reg 1 R# q $end
$upscope $end
$upscope $end
$scope module reg_gen(10) $end
$scope module i_dff $end
$var reg 1 S# clk $end
$var reg 1 T# rst $end
$var reg 1 U# d $end
$var reg 1 V# q $end
$upscope $end
$upscope $end
$scope module reg_gen(11) $end
$scope module i_dff $end
$var reg 1 W# clk $end
$var reg 1 X# rst $end
$var reg 1 Y# d $end
$var reg 1 Z# q $end
$upscope $end
$upscope $end
$scope module reg_gen(12) $end
$scope module i_dff $end
$var reg 1 [# clk $end
$var reg 1 \# rst $end
$var reg 1 ]# d $end
$var reg 1 ^# q $end
$upscope $end
$upscope $end
$scope module reg_gen(13) $end
$scope module i_dff $end
$var reg 1 _# clk $end
$var reg 1 `# rst $end
$var reg 1 a# d $end
$var reg 1 b# q $end
$upscope $end
$upscope $end
$scope module reg_gen(14) $end
$scope module i_dff $end
$var reg 1 c# clk $end
$var reg 1 d# rst $end
$var reg 1 e# d $end
$var reg 1 f# q $end
$upscope $end
$upscope $end
$scope module reg_gen(15) $end
$scope module i_dff $end
$var reg 1 g# clk $end
$var reg 1 h# rst $end
$var reg 1 i# d $end
$var reg 1 j# q $end
$upscope $end
$upscope $end
$upscope $end
$upscope $end
$scope module mux1 $end
$var reg 16 k# i0[15:0] $end
$var reg 16 l# i1[15:0] $end
$var reg 1 m# s $end
$var reg 16 n# f[15:0] $end
$upscope $end
$scope module reg_out $end
$var reg 1 o# clk $end
$var reg 1 p# rst $end
$var reg 16 q# d[15:0] $end
$var reg 16 r# q[15:0] $end
$scope module reg_gen(0) $end
$scope module i_dff $end
$var reg 1 s# clk $end
$var reg 1 t# rst $end
$var reg 1 u# d $end
$var reg 1 v# q $end
$upscope $end
$upscope $end
$scope module reg_gen(1) $end
$scope module i_dff $end
$var reg 1 w# clk $end
$var reg 1 x# rst $end
$var reg 1 y# d $end
$var reg 1 z# q $end
$upscope $end
$upscope $end
$scope module reg_gen(2) $end
$scope module i_dff $end
$var reg 1 {# clk $end
$var reg 1 |# rst $end
$var reg 1 }# d $end
$var reg 1 !$ q $end
$upscope $end
$upscope $end
$scope module reg_gen(3) $end
$scope module i_dff $end
$var reg 1 "$ clk $end
$var reg 1 #$ rst $end
$var reg 1 $$ d $end
$var reg 1 %$ q $end
$upscope $end
$upscope $end
$scope module reg_gen(4) $end
$scope module i_dff $end
$var reg 1 &$ clk $end
$var reg 1 '$ rst $end
$var reg 1 ($ d $end
$var reg 1 )$ q $end
$upscope $end
$upscope $end
$scope module reg_gen(5) $end
$scope module i_dff $end
$var reg 1 *$ clk $end
$var reg 1 +$ rst $end
$var reg 1 ,$ d $end
$var reg 1 -$ q $end
$upscope $end
$upscope $end
$scope module reg_gen(6) $end
$scope module i_dff $end
$var reg 1 .$ clk $end
$var reg 1 /$ rst $end
$var reg 1 0$ d $end
$var reg 1 1$ q $end
$upscope $end
$upscope $end
$scope module reg_gen(7) $end
$scope module i_dff $end
$var reg 1 2$ clk $end
$var reg 1 3$ rst $end
$var reg 1 4$ d $end
$var reg 1 5$ q $end
$upscope $end
$upscope $end
$scope module reg_gen(8) $end
$scope module i_dff $end
$var reg 1 6$ clk $end
$var reg 1 7$ rst $end
$var reg 1 8$ d $end
$var reg 1 9$ q $end
$upscope $end
$upscope $end
$scope module reg_gen(9) $end
$scope module i_dff $end
$var reg 1 :$ clk $end
$var reg 1 ;$ rst $end
$var reg 1 <$ d $end
$var reg 1 =$ q $end
$upscope $end
$upscope $end
$scope module reg_gen(10) $end
$scope module i_dff $end
$var reg 1 >$ clk $end
$var reg 1 ?$ rst $end
$var reg 1 @$ d $end
$var reg 1 A$ q $end
$upscope $end
$upscope $end
$scope module reg_gen(11) $end
$scope module i_dff $end
$var reg 1 B$ clk $end
$var reg 1 C$ rst $end
$var reg 1 D$ d $end
$var reg 1 E$ q $end
$upscope $end
$upscope $end
$scope module reg_gen(12) $end
$scope module i_dff $end
$var reg 1 F$ clk $end
$var reg 1 G$ rst $end
$var reg 1 H$ d $end
$var reg 1 I$ q $end
$upscope $end
$upscope $end
$scope module reg_gen(13) $end
$scope module i_dff $end
$var reg 1 J$ clk $end
$var reg 1 K$ rst $end
$var reg 1 L$ d $end
$var reg 1 M$ q $end
$upscope $end
$upscope $end
$scope module reg_gen(14) $end
$scope module i_dff $end
$var reg 1 N$ clk $end
$var reg 1 O$ rst $end
$var reg 1 P$ d $end
$var reg 1 Q$ q $end
$upscope $end
$upscope $end
$scope module reg_gen(15) $end
$scope module i_dff $end
$var reg 1 R$ clk $end
$var reg 1 S$ rst $end
$var reg 1 T$ d $end
$var reg 1 U$ q $end
$upscope $end
$upscope $end
$upscope $end
$scope module siso $end
$var reg 1 V$ si $end
$var reg 1 W$ clk $end
$var reg 1 X$ rst $end
$var reg 1 Y$ so $end
$var reg 4 Z$ wire[3:0] $end
$scope module sisogen(0) $end
$scope module i_dff $end
$var reg 1 [$ clk $end
$var reg 1 \$ rst $end
$var reg 1 ]$ d $end
$var reg 1 ^$ q $end
$upscope $end
$upscope $end
$scope module sisogen(1) $end
$scope module i_dff $end
$var reg 1 _$ clk $end
$var reg 1 `$ rst $end
$var reg 1 a$ d $end
$var reg 1 b$ q $end
$upscope $end
$upscope $end
$scope module sisogen(2) $end
$scope module i_dff $end
$var reg 1 c$ clk $end
$var reg 1 d$ rst $end
$var reg 1 e$ d $end
$var reg 1 f$ q $end
$upscope $end
$upscope $end
$upscope $end
$scope module cnt $end
$var reg 1 g$ count_puls $end
$var reg 1 h$ count_enable $end
$var reg 1 i$ rst $end
$var reg 1 j$ tc $end
$upscope $end
$upscope $end
$enddefinitions $end
#0
0!
0"
1#
b00111110 $
b11011101 %
1&
0'
0(
b00111110 )
b11011101 *
1+
bUUUUUUUUUUUUUUUU ,
U-
b00000000 .
bUUUUUUUU /
bUUUUUUUU 0
bXXXXXXXX 1
b00000000XXXXXXXX 2
U3
bUUUUUUUUUUUUUUUU 4
bUUUUUUUUUUUUUUUU 5
06
bUUUUUUUUUUUUUUUU 7
U8
U9
0:
0;
b00111110 <
bUUUUUUUU =
0>
0?
0@
UA
0B
0C
1D
UE
0F
0G
1H
UI
0J
0K
1L
UM
0N
0O
1P
UQ
0R
0S
1T
UU
0V
0W
0X
UY
0Z
0[
0\
U]
0^
0_
b11011101 `
bUUUUUUUU a
0b
0c
1d
Ue
0f
0g
0h
Ui
0j
0k
1l
Um
0n
0o
1p
Uq
0r
0s
1t
Uu
0v
0w
0x
Uy
0z
0{
1|
U}
0!"
0""
1#"
U$"
bUUUUUUUU %"
bUUUUUUUU &"
bXXXXXXXX '"
0("
0)"
b00000000XXXXXXXX *"
bUUUUUUUUUUUUUUUU +"
bUUUUUUUUUUUUUUUU ,"
bUUUUUUUUUUUUUUUU -"
b00000000XXXXXXXX ."
bUUUUUUUUUUUUUUUU /"
00"
bUUUUUUUUUUUUUUUU 1"
U2"
bUUUUUUUUUUUUUUUU0 3"
X4"
U5"
06"
U7"
U8"
X9"
U:"
U;"
U<"
U="
X>"
U?"
U@"
UA"
UB"
XC"
UD"
UE"
UF"
UG"
XH"
UI"
UJ"
UK"
UL"
XM"
UN"
UO"
UP"
UQ"
XR"
US"
UT"
UU"
UV"
XW"
UX"
UY"
UZ"
U["
0\"
U]"
U^"
U_"
U`"
0a"
Ub"
Uc"
Ud"
Ue"
0f"
Ug"
Uh"
Ui"
Uj"
0k"
Ul"
Um"
Un"
Uo"
0p"
Uq"
Ur"
Us"
Ut"
0u"
Uv"
Uw"
Ux"
Uy"
0z"
U{"
U|"
U}"
U!#
0"#
U##
U$#
U%#
U&#
0'#
0(#
bUUUUUUUUUUUUUUUU )#
bUUUUUUUUUUUUUUUU *#
0+#
0,#
U-#
U.#
0/#
00#
U1#
U2#
03#
04#
U5#
U6#
07#
08#
U9#
U:#
0;#
0<#
U=#
U>#
0?#
0@#
UA#
UB#
0C#
0D#
UE#
UF#
0G#
0H#
UI#
UJ#
0K#
0L#
UM#
UN#
0O#
0P#
UQ#
UR#
0S#
0T#
UU#
UV#
0W#
0X#
UY#
UZ#
0[#
0\#
U]#
U^#
0_#
0`#
Ua#
Ub#
0c#
0d#
Ue#
Uf#
0g#
0h#
Ui#
Uj#
bUUUUUUUUUUUUUUUU k#
bUUUUUUUUUUUUUUUU l#
Um#
bUUUUUUUUUUUUUUUU n#
0o#
0p#
bUUUUUUUUUUUUUUUU q#
bUUUUUUUUUUUUUUUU r#
0s#
0t#
Uu#
Uv#
0w#
0x#
Uy#
Uz#
0{#
0|#
U}#
U!$
0"$
0#$
U$$
U%$
0&$
0'$
U($
U)$
0*$
0+$
U,$
U-$
0.$
0/$
U0$
U1$
02$
03$
U4$
U5$
06$
07$
U8$
U9$
0:$
0;$
U<$
U=$
0>$
0?$
U@$
UA$
0B$
0C$
UD$
UE$
0F$
0G$
UH$
UI$
0J$
0K$
UL$
UM$
0N$
0O$
UP$
UQ$
0R$
0S$
UT$
UU$
1V$
0W$
0X$
UY$
bUUU1 Z$
0[$
0\$
1]$
U^$
0_$
0`$
Ua$
Ub$
0c$
0d$
Ue$
Uf$
0g$
Uh$
0i$
Uj$
#2500000
1!
b01111010 $
b10101100 %
1'
b01111010 )
b10101100 *
b00111110 /
b11011101 0
b10011111 1
b0000000010011111 2
1:
b01111010 <
b00111110 =
1>
0A
1B
1E
1F
0H
1I
1J
1M
1N
1Q
1R
1U
1V
1X
0Y
1Z
0]
1^
b10101100 `
b11011101 a
1b
0d
1e
1f
0i
1j
1m
1n
1q
1r
0t
1u
1v
1x
0y
1z
0|
1}
1!"
1$"
b00111110 %"
b11011101 &"
b10011111 '"
1("
b0000000010011111 *"
b0000000010011111 ."
14"
19"
1>"
1C"
1H"
0M"
0R"
1W"
1'#
1+#
1/#
13#
17#
1;#
1?#
1C#
1G#
1K#
1O#
1S#
1W#
1[#
1_#
1c#
1g#
1o#
1s#
1w#
1{#
1"$
1&$
1*$
1.$
12$
16$
1:$
1>$
1B$
1F$
1J$
1N$
1R$
1W$
bUU11 Z$
1[$
1^$
1_$
1a$
1c$
1g$
#5000000
0!
0'
0:
0>
0B
0F
0J
0N
0R
0V
0Z
0^
0b
0f
0j
0n
0r
0v
0z
0!"
0("
0'#
0+#
0/#
03#
07#
0;#
0?#
0C#
0G#
0K#
0O#
0S#
0W#
0[#
0_#
0c#
0g#
0o#
0s#
0w#
0{#
0"$
0&$
0*$
0.$
02$
06$
0:$
0>$
0B$
0F$
0J$
0N$
0R$
0W$
0[$
0_$
0c$
0g$
#7500000
1!
b00010111 $
b11101011 %
1'
b00010111 )
b11101011 *
b01111010 /
b10101100 0
b00110010 1
b0000000000110010 2
1:
b00010111 <
b01111010 =
1>
1@
1B
1F
1H
0I
1J
0L
1N
1R
0T
1V
0X
1Y
1Z
1^
b11101011 `
b10101100 a
1b
1d
0e
1f
1h
1j
0l
1n
1r
0u
1v
1y
1z
1|
0}
1!"
b01111010 %"
b10101100 &"
b00110010 '"
1("
b0000000000110010 *"
b0000000000110010 ."
bUUUUUUUUUUUUUUU00 3"
04"
08"
0;"
0>"
0C"
1M"
0W"
1'#
1+#
1/#
13#
17#
1;#
1?#
1C#
1G#
1K#
1O#
1S#
1W#
1[#
1_#
1c#
1g#
1o#
1s#
1w#
1{#
1"$
1&$
1*$
1.$
12$
16$
1:$
1>$
1B$
1F$
1J$
1N$
1R$
1W$
bU111 Z$
1[$
1_$
1b$
1c$
1e$
1g$
#10000000
0!
0'
0:
0>
0B
0F
0J
0N
0R
0V
0Z
0^
0b
0f
0j
0n
0r
0v
0z
0!"
0("
0'#
0+#
0/#
03#
07#
0;#
0?#
0C#
0G#
0K#
0O#
0S#
0W#
0[#
0_#
0c#
0g#
0o#
0s#
0w#
0{#
0"$
0&$
0*$
0.$
02$
06$
0:$
0>$
0B$
0F$
0J$
0N$
0R$
0W$
0[$
0_$
0c$
0g$
#12500000
1!
b10110010 $
b00111001 %
1'
b10110010 )
b00111001 *
b00010111 /
b11101011 0
b11010100 1
b0000000011010100 2
13
1:
b10110010 <
b00010111 =
1>
0@
1A
1B
1F
0H
1I
1J
0M
1N
1R
1T
0U
1V
0Y
1Z
1\
1^
b00111001 `
b11101011 a
1b
1e
1f
0h
1i
1j
0m
1n
1r
1t
1v
1z
0|
1}
1!"
0#"
b00010111 %"
b11101011 &"
b11010100 '"
1("
b0000000011010100 *"
b0000000011010100 ."
bUUUUUUUUUUUUUU000 3"
09"
0="
1>"
0@"
0M"
1R"
1W"
1'#
1+#
1/#
13#
17#
1;#
1?#
1C#
1G#
1K#
1O#
1S#
1W#
1[#
1_#
1c#
1g#
1o#
1s#
1w#
1{#
1"$
1&$
1*$
1.$
12$
16$
1:$
1>$
1B$
1F$
1J$
1N$
1R$
1W$
1Y$
b1111 Z$
1[$
1_$
1c$
1f$
1g$
1h$
#15000000
0!
0'
0:
0>
0B
0F
0J
0N
0R
0V
0Z
0^
0b
0f
0j
0n
0r
0v
0z
0!"
0("
0'#
0+#
0/#
03#
07#
0;#
0?#
0C#
0G#
0K#
0O#
0S#
0W#
0[#
0_#
0c#
0g#
0o#
0s#
0w#
0{#
0"$
0&$
0*$
0.$
02$
06$
0:$
0>$
0B$
0F$
0J$
0N$
0R$
0W$
0[$
0_$
0c$
0g$
#17500000
1!
b10001100 $
b00010101 %
1'
b10001100 )
b00010101 *
b10110010 /
b00111001 0
b01111001 1
b0000000001111001 2
1:
b10001100 <
b10110010 =
1>
0A
1B
0D
1F
1H
0I
1J
1L
1N
0P
1R
0T
1U
1V
1Z
1]
1^
b00010101 `
b00111001 a
1b
1f
0i
1j
1l
1n
0p
1r
1u
1v
0x
1z
0}
1!"
0$"
b10110010 %"
b00111001 &"
b01111001 '"
1("
b0000000001111001 *"
b0000000001111001 ."
bUUUUUUUUUUUUUUUU0 3"
14"
U8"
U;"
U="
0>"
U@"
UB"
1C"
UE"
1M"
0W"
1'#
1+#
1/#
13#
17#
1;#
1?#
1C#
1G#
1K#
1O#
1S#
1W#
1[#
1_#
1c#
1g#
1o#
1s#
1w#
1{#
1"$
1&$
1*$
1.$
12$
16$
1:$
1>$
1B$
1F$
1J$
1N$
1R$
1W$
1[$
1_$
1c$
1g$
#20000000
0!
0'
0:
0>
0B
0F
0J
0N
0R
0V
0Z
0^
0b
0f
0j
0n
0r
0v
0z
0!"
0("
0'#
0+#
0/#
03#
07#
0;#
0?#
0C#
0G#
0K#
0O#
0S#
0W#
0[#
0_#
0c#
0g#
0o#
0s#
0w#
0{#
0"$
0&$
0*$
0.$
02$
06$
0:$
0>$
0B$
0F$
0J$
0N$
0R$
0W$
0[$
0_$
0c$
0g$
#22500000
1!
b11000011 $
b10001000 %
1'
b11000011 )
b10001000 *
b10001100 /
b00010101 0
b01110111 1
b0000000001110111 2
1:
b11000011 <
b10001100 =
1>
1@
1B
1D
0E
1F
0H
1I
1J
0L
1M
1N
0Q
1R
0U
1V
1X
1Z
1^
b10001000 `
b00010101 a
1b
0d
1f
1j
0l
1m
1n
1p
0q
1r
0t
1v
0y
1z
1!"
1#"
b10001100 %"
b00010101 &"
b01110111 '"
1("
b0000000001110111 *"
b0000000001110111 ."
19"
1>"
0C"
1'#
1+#
1/#
13#
17#
1;#
1?#
1C#
1G#
1K#
1O#
1S#
1W#
1[#
1_#
1c#
1g#
1o#
1s#
1w#
1{#
1"$
1&$
1*$
1.$
12$
16$
1:$
1>$
1B$
1F$
1J$
1N$
1R$
1W$
1[$
1_$
1c$
1g$
#25000000
0!
0'
0:
0>
0B
0F
0J
0N
0R
0V
0Z
0^
0b
0f
0j
0n
0r
0v
0z
0!"
0("
0'#
0+#
0/#
03#
07#
0;#
0?#
0C#
0G#
0K#
0O#
0S#
0W#
0[#
0_#
0c#
0g#
0o#
0s#
0w#
0{#
0"$
0&$
0*$
0.$
02$
06$
0:$
0>$
0B$
0F$
0J$
0N$
0R$
0W$
0[$
0_$
0c$
0g$
#27500000
1!
1"
b00110110 $
1'
1(
b00110110 )
b0000000000000000 ,
b00000000 /
b00000000 0
b00000000 1
b0000000000000000 2
03
b0000000000000000 4
b0000000000000000 5
16
b0000000000000000 7
1:
1;
b00110110 <
b00000000 =
1>
1?
0@
0A
1B
1C
0E
1F
1G
1H
0I
1J
1K
0M
1N
1O
1P
1R
1S
1T
1V
1W
0X
0Y
1Z
1[
0\
0]
1^
1_
b00000000 a
1b
1c
0e
1f
1g
1j
1k
0m
1n
1o
0q
1r
1s
0u
1v
1w
1z
1{
1!"
1""
0$"
b00000000 %"
b00000000 &"
b00000000 '"
1("
1)"
b0000000000000000 *"
b0000000000000000 +"
b0000000000000000 ,"
b0000000000000000 -"
b0000000000000000 ."
b0000000000000000 /"
b0000000000000000 1"
02"
b00000000000000000 3"
04"
05"
07"
08"
09"
0:"
0;"
0<"
0="
0>"
0?"
0@"
0A"
0B"
0C"
0D"
0E"
0F"
0G"
0H"
0I"
0J"
0K"
0L"
0M"
0N"
0O"
0P"
0Q"
0R"
0S"
0T"
0U"
0V"
0X"
0Y"
0Z"
0["
0]"
0^"
0_"
0`"
0b"
0c"
0d"
0e"
0g"
0h"
0i"
0j"
0l"
0m"
0n"
0o"
0q"
0r"
0s"
0t"
0v"
0w"
0x"
0y"
0{"
0|"
0}"
0!#
0##
0$#
0%#
0&#
1'#
1(#
b0000000000000000 )#
b0000000000000000 *#
1+#
1,#
0-#
0.#
1/#
10#
01#
02#
13#
14#
05#
06#
17#
18#
09#
0:#
1;#
1<#
0=#
0>#
1?#
1@#
0A#
0B#
1C#
1D#
0E#
0F#
1G#
1H#
0I#
0J#
1K#
1L#
0M#
0N#
1O#
1P#
0Q#
0R#
1S#
1T#
0U#
0V#
1W#
1X#
0Y#
0Z#
1[#
1\#
0]#
0^#
1_#
1`#
0a#
0b#
1c#
1d#
0e#
0f#
1g#
1h#
0i#
0j#
b0000000000000000 k#
b0000000000000000 l#
b0000000000000000 n#
1o#
1p#
b0000000000000000 q#
b0000000000000000 r#
1s#
1t#
0u#
0v#
1w#
1x#
0y#
0z#
1{#
1|#
0}#
0!$
1"$
1#$
0$$
0%$
1&$
1'$
0($
0)$
1*$
1+$
0,$
0-$
1.$
1/$
00$
01$
12$
13$
04$
05$
16$
17$
08$
09$
1:$
1;$
0<$
0=$
1>$
1?$
0@$
0A$
1B$
1C$
0D$
0E$
1F$
1G$
0H$
0I$
1J$
1K$
0L$
0M$
1N$
1O$
0P$
0Q$
1R$
1S$
0T$
0U$
1W$
1X$
0Y$
b0001 Z$
1[$
1\$
0^$
1_$
1`$
0a$
0b$
1c$
1d$
0e$
0f$
1g$
0h$
1i$
#30000000
0!
0'
0:
0>
0B
0F
0J
0N
0R
0V
0Z
0^
0b
0f
0j
0n
0r
0v
0z
0!"
0("
0'#
0+#
0/#
03#
07#
0;#
0?#
0C#
0G#
0K#
0O#
0S#
0W#
0[#
0_#
0c#
0g#
0o#
0s#
0w#
0{#
0"$
0&$
0*$
0.$
02$
06$
0:$
0>$
0B$
0F$
0J$
0N$
0R$
0W$
0[$
0_$
0c$
0g$
