waveforms/tb_SAD.vcd
$date
  Sat May 26 22:10:31 2018
$end
$version
  GHDL v0
$end
$timescale
  1 fs
$end
$var reg 1 ! clk $end
$var reg 1 " reset $end
$var reg 1 # enable $end
$var reg 8 $ pa[7:0] $end
$var reg 8 % pb[7:0] $end
$var reg 1 & testing $end
$scope module sad_i $end
$var reg 1 ' clk $end
$var reg 1 ( rst $end
$var reg 8 ) pa[7:0] $end
$var reg 8 * pb[7:0] $end
$var reg 1 + en $end
$var reg 16 , sad[15:0] $end
$var reg 1 - data_valid $end
$var reg 8 . padding[7:0] $end
$var reg 8 / pa_to_sub_nbit[7:0] $end
$var reg 8 0 pb_to_sub_nbit[7:0] $end
$var reg 8 1 sub_to_rca_nbits[7:0] $end
$var reg 16 2 sub_to_rca_sadbits[15:0] $end
$var reg 16 3 reg_to_rca[15:0] $end
$var reg 1 4 counter_in $end
$var reg 16 5 rca_out[15:0] $end
$var reg 16 6 mux_to_reg_out_wire[15:0] $end
$var reg 1 7 rst_input_registers $end
$var reg 16 8 sad_wire[15:0] $end
$var reg 1 9 tc_wire $end
$var reg 1 : hold_wire $end
$scope module reg_pa $end
$var reg 1 ; clk $end
$var reg 1 < rst $end
$var reg 8 = d[7:0] $end
$var reg 8 > q[7:0] $end
$scope module reg_gen(0) $end
$scope module i_dff $end
$var reg 1 ? clk $end
$var reg 1 @ rst $end
$var reg 1 A d $end
$var reg 1 B q $end
$upscope $end
$upscope $end
$scope module reg_gen(1) $end
$scope module i_dff $end
$var reg 1 C clk $end
$var reg 1 D rst $end
$var reg 1 E d $end
$var reg 1 F q $end
$upscope $end
$upscope $end
$scope module reg_gen(2) $end
$scope module i_dff $end
$var reg 1 G clk $end
$var reg 1 H rst $end
$var reg 1 I d $end
$var reg 1 J q $end
$upscope $end
$upscope $end
$scope module reg_gen(3) $end
$scope module i_dff $end
$var reg 1 K clk $end
$var reg 1 L rst $end
$var reg 1 M d $end
$var reg 1 N q $end
$upscope $end
$upscope $end
$scope module reg_gen(4) $end
$scope module i_dff $end
$var reg 1 O clk $end
$var reg 1 P rst $end
$var reg 1 Q d $end
$var reg 1 R q $end
$upscope $end
$upscope $end
$scope module reg_gen(5) $end
$scope module i_dff $end
$var reg 1 S clk $end
$var reg 1 T rst $end
$var reg 1 U d $end
$var reg 1 V q $end
$upscope $end
$upscope $end
$scope module reg_gen(6) $end
$scope module i_dff $end
$var reg 1 W clk $end
$var reg 1 X rst $end
$var reg 1 Y d $end
$var reg 1 Z q $end
$upscope $end
$upscope $end
$scope module reg_gen(7) $end
$scope module i_dff $end
$var reg 1 [ clk $end
$var reg 1 \ rst $end
$var reg 1 ] d $end
$var reg 1 ^ q $end
$upscope $end
$upscope $end
$upscope $end
$scope module reg_pb $end
$var reg 1 _ clk $end
$var reg 1 ` rst $end
$var reg 8 a d[7:0] $end
$var reg 8 b q[7:0] $end
$scope module reg_gen(0) $end
$scope module i_dff $end
$var reg 1 c clk $end
$var reg 1 d rst $end
$var reg 1 e d $end
$var reg 1 f q $end
$upscope $end
$upscope $end
$scope module reg_gen(1) $end
$scope module i_dff $end
$var reg 1 g clk $end
$var reg 1 h rst $end
$var reg 1 i d $end
$var reg 1 j q $end
$upscope $end
$upscope $end
$scope module reg_gen(2) $end
$scope module i_dff $end
$var reg 1 k clk $end
$var reg 1 l rst $end
$var reg 1 m d $end
$var reg 1 n q $end
$upscope $end
$upscope $end
$scope module reg_gen(3) $end
$scope module i_dff $end
$var reg 1 o clk $end
$var reg 1 p rst $end
$var reg 1 q d $end
$var reg 1 r q $end
$upscope $end
$upscope $end
$scope module reg_gen(4) $end
$scope module i_dff $end
$var reg 1 s clk $end
$var reg 1 t rst $end
$var reg 1 u d $end
$var reg 1 v q $end
$upscope $end
$upscope $end
$scope module reg_gen(5) $end
$scope module i_dff $end
$var reg 1 w clk $end
$var reg 1 x rst $end
$var reg 1 y d $end
$var reg 1 z q $end
$upscope $end
$upscope $end
$scope module reg_gen(6) $end
$scope module i_dff $end
$var reg 1 { clk $end
$var reg 1 | rst $end
$var reg 1 } d $end
$var reg 1 !" q $end
$upscope $end
$upscope $end
$scope module reg_gen(7) $end
$scope module i_dff $end
$var reg 1 "" clk $end
$var reg 1 #" rst $end
$var reg 1 $" d $end
$var reg 1 %" q $end
$upscope $end
$upscope $end
$upscope $end
$scope module gen_padding(0) $end
$upscope $end
$scope module gen_padding(1) $end
$upscope $end
$scope module gen_padding(2) $end
$upscope $end
$scope module gen_padding(3) $end
$upscope $end
$scope module gen_padding(4) $end
$upscope $end
$scope module gen_padding(5) $end
$upscope $end
$scope module gen_padding(6) $end
$upscope $end
$scope module gen_padding(7) $end
$upscope $end
$scope module sub $end
$var reg 8 &" a[7:0] $end
$var reg 8 '" b[7:0] $end
$var reg 8 (" s[7:0] $end
$upscope $end
$scope module add $end
$var reg 16 )" x[15:0] $end
$var reg 16 *" y[15:0] $end
$var reg 1 +" c0 $end
$var reg 16 ," s[15:0] $end
$var reg 1 -" cn $end
$var reg 17 ." c[16:0] $end
$scope module gen_rca(0) $end
$scope module i_fa $end
$var reg 1 /" x $end
$var reg 1 0" y $end
$var reg 1 1" cin $end
$var reg 1 2" s $end
$var reg 1 3" cout $end
$upscope $end
$upscope $end
$scope module gen_rca(1) $end
$scope module i_fa $end
$var reg 1 4" x $end
$var reg 1 5" y $end
$var reg 1 6" cin $end
$var reg 1 7" s $end
$var reg 1 8" cout $end
$upscope $end
$upscope $end
$scope module gen_rca(2) $end
$scope module i_fa $end
$var reg 1 9" x $end
$var reg 1 :" y $end
$var reg 1 ;" cin $end
$var reg 1 <" s $end
$var reg 1 =" cout $end
$upscope $end
$upscope $end
$scope module gen_rca(3) $end
$scope module i_fa $end
$var reg 1 >" x $end
$var reg 1 ?" y $end
$var reg 1 @" cin $end
$var reg 1 A" s $end
$var reg 1 B" cout $end
$upscope $end
$upscope $end
$scope module gen_rca(4) $end
$scope module i_fa $end
$var reg 1 C" x $end
$var reg 1 D" y $end
$var reg 1 E" cin $end
$var reg 1 F" s $end
$var reg 1 G" cout $end
$upscope $end
$upscope $end
$scope module gen_rca(5) $end
$scope module i_fa $end
$var reg 1 H" x $end
$var reg 1 I" y $end
$var reg 1 J" cin $end
$var reg 1 K" s $end
$var reg 1 L" cout $end
$upscope $end
$upscope $end
$scope module gen_rca(6) $end
$scope module i_fa $end
$var reg 1 M" x $end
$var reg 1 N" y $end
$var reg 1 O" cin $end
$var reg 1 P" s $end
$var reg 1 Q" cout $end
$upscope $end
$upscope $end
$scope module gen_rca(7) $end
$scope module i_fa $end
$var reg 1 R" x $end
$var reg 1 S" y $end
$var reg 1 T" cin $end
$var reg 1 U" s $end
$var reg 1 V" cout $end
$upscope $end
$upscope $end
$scope module gen_rca(8) $end
$scope module i_fa $end
$var reg 1 W" x $end
$var reg 1 X" y $end
$var reg 1 Y" cin $end
$var reg 1 Z" s $end
$var reg 1 [" cout $end
$upscope $end
$upscope $end
$scope module gen_rca(9) $end
$scope module i_fa $end
$var reg 1 \" x $end
$var reg 1 ]" y $end
$var reg 1 ^" cin $end
$var reg 1 _" s $end
$var reg 1 `" cout $end
$upscope $end
$upscope $end
$scope module gen_rca(10) $end
$scope module i_fa $end
$var reg 1 a" x $end
$var reg 1 b" y $end
$var reg 1 c" cin $end
$var reg 1 d" s $end
$var reg 1 e" cout $end
$upscope $end
$upscope $end
$scope module gen_rca(11) $end
$scope module i_fa $end
$var reg 1 f" x $end
$var reg 1 g" y $end
$var reg 1 h" cin $end
$var reg 1 i" s $end
$var reg 1 j" cout $end
$upscope $end
$upscope $end
$scope module gen_rca(12) $end
$scope module i_fa $end
$var reg 1 k" x $end
$var reg 1 l" y $end
$var reg 1 m" cin $end
$var reg 1 n" s $end
$var reg 1 o" cout $end
$upscope $end
$upscope $end
$scope module gen_rca(13) $end
$scope module i_fa $end
$var reg 1 p" x $end
$var reg 1 q" y $end
$var reg 1 r" cin $end
$var reg 1 s" s $end
$var reg 1 t" cout $end
$upscope $end
$upscope $end
$scope module gen_rca(14) $end
$scope module i_fa $end
$var reg 1 u" x $end
$var reg 1 v" y $end
$var reg 1 w" cin $end
$var reg 1 x" s $end
$var reg 1 y" cout $end
$upscope $end
$upscope $end
$scope module gen_rca(15) $end
$scope module i_fa $end
$var reg 1 z" x $end
$var reg 1 {" y $end
$var reg 1 |" cin $end
$var reg 1 }" s $end
$var reg 1 !# cout $end
$upscope $end
$upscope $end
$upscope $end
$scope module reg_loop $end
$var reg 1 "# clk $end
$var reg 1 ## rst $end
$var reg 16 $# d[15:0] $end
$var reg 16 %# q[15:0] $end
$scope module reg_gen(0) $end
$scope module i_dff $end
$var reg 1 &# clk $end
$var reg 1 '# rst $end
$var reg 1 (# d $end
$var reg 1 )# q $end
$upscope $end
$upscope $end
$scope module reg_gen(1) $end
$scope module i_dff $end
$var reg 1 *# clk $end
$var reg 1 +# rst $end
$var reg 1 ,# d $end
$var reg 1 -# q $end
$upscope $end
$upscope $end
$scope module reg_gen(2) $end
$scope module i_dff $end
$var reg 1 .# clk $end
$var reg 1 /# rst $end
$var reg 1 0# d $end
$var reg 1 1# q $end
$upscope $end
$upscope $end
$scope module reg_gen(3) $end
$scope module i_dff $end
$var reg 1 2# clk $end
$var reg 1 3# rst $end
$var reg 1 4# d $end
$var reg 1 5# q $end
$upscope $end
$upscope $end
$scope module reg_gen(4) $end
$scope module i_dff $end
$var reg 1 6# clk $end
$var reg 1 7# rst $end
$var reg 1 8# d $end
$var reg 1 9# q $end
$upscope $end
$upscope $end
$scope module reg_gen(5) $end
$scope module i_dff $end
$var reg 1 :# clk $end
$var reg 1 ;# rst $end
$var reg 1 <# d $end
$var reg 1 =# q $end
$upscope $end
$upscope $end
$scope module reg_gen(6) $end
$scope module i_dff $end
$var reg 1 ># clk $end
$var reg 1 ?# rst $end
$var reg 1 @# d $end
$var reg 1 A# q $end
$upscope $end
$upscope $end
$scope module reg_gen(7) $end
$scope module i_dff $end
$var reg 1 B# clk $end
$var reg 1 C# rst $end
$var reg 1 D# d $end
$var reg 1 E# q $end
$upscope $end
$upscope $end
$scope module reg_gen(8) $end
$scope module i_dff $end
$var reg 1 F# clk $end
$var reg 1 G# rst $end
$var reg 1 H# d $end
$var reg 1 I# q $end
$upscope $end
$upscope $end
$scope module reg_gen(9) $end
$scope module i_dff $end
$var reg 1 J# clk $end
$var reg 1 K# rst $end
$var reg 1 L# d $end
$var reg 1 M# q $end
$upscope $end
$upscope $end
$scope module reg_gen(10) $end
$scope module i_dff $end
$var reg 1 N# clk $end
$var reg 1 O# rst $end
$var reg 1 P# d $end
$var reg 1 Q# q $end
$upscope $end
$upscope $end
$scope module reg_gen(11) $end
$scope module i_dff $end
$var reg 1 R# clk $end
$var reg 1 S# rst $end
$var reg 1 T# d $end
$var reg 1 U# q $end
$upscope $end
$upscope $end
$scope module reg_gen(12) $end
$scope module i_dff $end
$var reg 1 V# clk $end
$var reg 1 W# rst $end
$var reg 1 X# d $end
$var reg 1 Y# q $end
$upscope $end
$upscope $end
$scope module reg_gen(13) $end
$scope module i_dff $end
$var reg 1 Z# clk $end
$var reg 1 [# rst $end
$var reg 1 \# d $end
$var reg 1 ]# q $end
$upscope $end
$upscope $end
$scope module reg_gen(14) $end
$scope module i_dff $end
$var reg 1 ^# clk $end
$var reg 1 _# rst $end
$var reg 1 `# d $end
$var reg 1 a# q $end
$upscope $end
$upscope $end
$scope module reg_gen(15) $end
$scope module i_dff $end
$var reg 1 b# clk $end
$var reg 1 c# rst $end
$var reg 1 d# d $end
$var reg 1 e# q $end
$upscope $end
$upscope $end
$upscope $end
$scope module mux1 $end
$var reg 16 f# i0[15:0] $end
$var reg 16 g# i1[15:0] $end
$var reg 1 h# s $end
$var reg 16 i# f[15:0] $end
$upscope $end
$scope module reg_out $end
$var reg 1 j# clk $end
$var reg 1 k# rst $end
$var reg 16 l# d[15:0] $end
$var reg 16 m# q[15:0] $end
$scope module reg_gen(0) $end
$scope module i_dff $end
$var reg 1 n# clk $end
$var reg 1 o# rst $end
$var reg 1 p# d $end
$var reg 1 q# q $end
$upscope $end
$upscope $end
$scope module reg_gen(1) $end
$scope module i_dff $end
$var reg 1 r# clk $end
$var reg 1 s# rst $end
$var reg 1 t# d $end
$var reg 1 u# q $end
$upscope $end
$upscope $end
$scope module reg_gen(2) $end
$scope module i_dff $end
$var reg 1 v# clk $end
$var reg 1 w# rst $end
$var reg 1 x# d $end
$var reg 1 y# q $end
$upscope $end
$upscope $end
$scope module reg_gen(3) $end
$scope module i_dff $end
$var reg 1 z# clk $end
$var reg 1 {# rst $end
$var reg 1 |# d $end
$var reg 1 }# q $end
$upscope $end
$upscope $end
$scope module reg_gen(4) $end
$scope module i_dff $end
$var reg 1 !$ clk $end
$var reg 1 "$ rst $end
$var reg 1 #$ d $end
$var reg 1 $$ q $end
$upscope $end
$upscope $end
$scope module reg_gen(5) $end
$scope module i_dff $end
$var reg 1 %$ clk $end
$var reg 1 &$ rst $end
$var reg 1 '$ d $end
$var reg 1 ($ q $end
$upscope $end
$upscope $end
$scope module reg_gen(6) $end
$scope module i_dff $end
$var reg 1 )$ clk $end
$var reg 1 *$ rst $end
$var reg 1 +$ d $end
$var reg 1 ,$ q $end
$upscope $end
$upscope $end
$scope module reg_gen(7) $end
$scope module i_dff $end
$var reg 1 -$ clk $end
$var reg 1 .$ rst $end
$var reg 1 /$ d $end
$var reg 1 0$ q $end
$upscope $end
$upscope $end
$scope module reg_gen(8) $end
$scope module i_dff $end
$var reg 1 1$ clk $end
$var reg 1 2$ rst $end
$var reg 1 3$ d $end
$var reg 1 4$ q $end
$upscope $end
$upscope $end
$scope module reg_gen(9) $end
$scope module i_dff $end
$var reg 1 5$ clk $end
$var reg 1 6$ rst $end
$var reg 1 7$ d $end
$var reg 1 8$ q $end
$upscope $end
$upscope $end
$scope module reg_gen(10) $end
$scope module i_dff $end
$var reg 1 9$ clk $end
$var reg 1 :$ rst $end
$var reg 1 ;$ d $end
$var reg 1 <$ q $end
$upscope $end
$upscope $end
$scope module reg_gen(11) $end
$scope module i_dff $end
$var reg 1 =$ clk $end
$var reg 1 >$ rst $end
$var reg 1 ?$ d $end
$var reg 1 @$ q $end
$upscope $end
$upscope $end
$scope module reg_gen(12) $end
$scope module i_dff $end
$var reg 1 A$ clk $end
$var reg 1 B$ rst $end
$var reg 1 C$ d $end
$var reg 1 D$ q $end
$upscope $end
$upscope $end
$scope module reg_gen(13) $end
$scope module i_dff $end
$var reg 1 E$ clk $end
$var reg 1 F$ rst $end
$var reg 1 G$ d $end
$var reg 1 H$ q $end
$upscope $end
$upscope $end
$scope module reg_gen(14) $end
$scope module i_dff $end
$var reg 1 I$ clk $end
$var reg 1 J$ rst $end
$var reg 1 K$ d $end
$var reg 1 L$ q $end
$upscope $end
$upscope $end
$scope module reg_gen(15) $end
$scope module i_dff $end
$var reg 1 M$ clk $end
$var reg 1 N$ rst $end
$var reg 1 O$ d $end
$var reg 1 P$ q $end
$upscope $end
$upscope $end
$upscope $end
$scope module siso $end
$var reg 1 Q$ si $end
$var reg 1 R$ clk $end
$var reg 1 S$ rst $end
$var reg 1 T$ so $end
$var reg 3 U$ link_wire[2:0] $end
$scope module sisogen(0) $end
$scope module i_dff $end
$var reg 1 V$ clk $end
$var reg 1 W$ rst $end
$var reg 1 X$ d $end
$var reg 1 Y$ q $end
$upscope $end
$upscope $end
$scope module sisogen(1) $end
$scope module i_dff $end
$var reg 1 Z$ clk $end
$var reg 1 [$ rst $end
$var reg 1 \$ d $end
$var reg 1 ]$ q $end
$upscope $end
$upscope $end
$upscope $end
$scope module cnt $end
$var reg 1 ^$ count_puls $end
$var reg 1 _$ count_enable $end
$var reg 1 `$ rst $end
$var reg 1 a$ tc $end
$upscope $end
$upscope $end
$enddefinitions $end
#0
0!
0"
1#
b01101011 $
b11011101 %
1&
0'
0(
b01101011 )
b11011101 *
1+
bUUUUUUUUUUUUUUUU ,
U-
b00000000 .
bUUUUUUUU /
bUUUUUUUU 0
bXXXXXXXX 1
b00000000XXXXXXXX 2
bUUUUUUUUUUUUUUUU 3
U4
bUUUUUUUUUUUUUUUU 5
bUUUUUUUUUUUUUUUU 6
07
bUUUUUUUUUUUUUUUU 8
U9
U:
0;
0<
b01101011 =
bUUUUUUUU >
0?
0@
1A
UB
0C
0D
1E
UF
0G
0H
0I
UJ
0K
0L
1M
UN
0O
0P
0Q
UR
0S
0T
1U
UV
0W
0X
1Y
UZ
0[
0\
0]
U^
0_
0`
b11011101 a
bUUUUUUUU b
0c
0d
1e
Uf
0g
0h
0i
Uj
0k
0l
1m
Un
0o
0p
1q
Ur
0s
0t
1u
Uv
0w
0x
0y
Uz
0{
0|
1}
U!"
0""
0#"
1$"
U%"
bUUUUUUUU &"
bUUUUUUUU '"
bXXXXXXXX ("
b00000000XXXXXXXX )"
bUUUUUUUUUUUUUUUU *"
0+"
bUUUUUUUUUUUUUUUU ,"
U-"
bUUUUUUUUUUUUUUUU0 ."
X/"
U0"
01"
U2"
U3"
X4"
U5"
U6"
U7"
U8"
X9"
U:"
U;"
U<"
U="
X>"
U?"
U@"
UA"
UB"
XC"
UD"
UE"
UF"
UG"
XH"
UI"
UJ"
UK"
UL"
XM"
UN"
UO"
UP"
UQ"
XR"
US"
UT"
UU"
UV"
0W"
UX"
UY"
UZ"
U["
0\"
U]"
U^"
U_"
U`"
0a"
Ub"
Uc"
Ud"
Ue"
0f"
Ug"
Uh"
Ui"
Uj"
0k"
Ul"
Um"
Un"
Uo"
0p"
Uq"
Ur"
Us"
Ut"
0u"
Uv"
Uw"
Ux"
Uy"
0z"
U{"
U|"
U}"
U!#
0"#
0##
bUUUUUUUUUUUUUUUU $#
bUUUUUUUUUUUUUUUU %#
0&#
0'#
U(#
U)#
0*#
0+#
U,#
U-#
0.#
0/#
U0#
U1#
02#
03#
U4#
U5#
06#
07#
U8#
U9#
0:#
0;#
U<#
U=#
0>#
0?#
U@#
UA#
0B#
0C#
UD#
UE#
0F#
0G#
UH#
UI#
0J#
0K#
UL#
UM#
0N#
0O#
UP#
UQ#
0R#
0S#
UT#
UU#
0V#
0W#
UX#
UY#
0Z#
0[#
U\#
U]#
0^#
0_#
U`#
Ua#
0b#
0c#
Ud#
Ue#
bUUUUUUUUUUUUUUUU f#
bUUUUUUUUUUUUUUUU g#
Uh#
bUUUUUUUUUUUUUUUU i#
0j#
0k#
bUUUUUUUUUUUUUUUU l#
bUUUUUUUUUUUUUUUU m#
0n#
0o#
Up#
Uq#
0r#
0s#
Ut#
Uu#
0v#
0w#
Ux#
Uy#
0z#
0{#
U|#
U}#
0!$
0"$
U#$
U$$
0%$
0&$
U'$
U($
0)$
0*$
U+$
U,$
0-$
0.$
U/$
U0$
01$
02$
U3$
U4$
05$
06$
U7$
U8$
09$
0:$
U;$
U<$
0=$
0>$
U?$
U@$
0A$
0B$
UC$
UD$
0E$
0F$
UG$
UH$
0I$
0J$
UK$
UL$
0M$
0N$
UO$
UP$
1Q$
0R$
0S$
UT$
bUU1 U$
0V$
0W$
1X$
UY$
0Z$
0[$
U\$
U]$
0^$
U_$
0`$
Ua$
#2500000
1!
b10110000 $
b11010010 %
1'
b10110000 )
b11010010 *
b01101011 /
b11011101 0
b01110010 1
b0000000001110010 2
1;
b10110000 =
b01101011 >
1?
0A
1B
1C
0E
1F
1G
0J
1K
0M
1N
1O
1Q
0R
1S
1V
1W
0Y
1Z
1[
1]
0^
1_
b11010010 a
b11011101 b
1c
0e
1f
1g
1i
0j
1k
0m
1n
1o
0q
1r
1s
1v
1w
0z
1{
1!"
1""
1%"
b01101011 &"
b11011101 '"
b01110010 ("
b0000000001110010 )"
bUUUUUUUUUUUUUUU00 ."
0/"
03"
14"
06"
09"
0>"
1C"
1H"
1M"
0R"
1"#
1&#
1*#
1.#
12#
16#
1:#
1>#
1B#
1F#
1J#
1N#
1R#
1V#
1Z#
1^#
1b#
1j#
1n#
1r#
1v#
1z#
1!$
1%$
1)$
1-$
11$
15$
19$
1=$
1A$
1E$
1I$
1M$
1R$
bU11 U$
1V$
1Y$
1Z$
1\$
1^$
#5000000
0!
0'
0;
0?
0C
0G
0K
0O
0S
0W
0[
0_
0c
0g
0k
0o
0s
0w
0{
0""
0"#
0&#
0*#
0.#
02#
06#
0:#
0>#
0B#
0F#
0J#
0N#
0R#
0V#
0Z#
0^#
0b#
0j#
0n#
0r#
0v#
0z#
0!$
0%$
0)$
0-$
01$
05$
09$
0=$
0A$
0E$
0I$
0M$
0R$
0V$
0Z$
0^$
#7500000
1!
b00110110 $
b00101110 %
1'
b00110110 )
b00101110 *
b10110000 /
b11010010 0
b00100010 1
b0000000000100010 2
14
1;
b00110110 =
b10110000 >
1?
0B
1C
1E
0F
1G
1I
1K
0N
1O
1R
1S
1W
0Z
1[
0]
1^
1_
b00101110 a
b11010010 b
1c
0f
1g
1j
1k
1m
0n
1o
1q
0r
1s
0u
1w
1y
1{
0}
1""
0$"
b10110000 &"
b11010010 '"
b00100010 ("
b0000000000100010 )"
0C"
0M"
1"#
1&#
1*#
1.#
12#
16#
1:#
1>#
1B#
1F#
1J#
1N#
1R#
1V#
1Z#
1^#
1b#
1j#
1n#
1r#
1v#
1z#
1!$
1%$
1)$
1-$
11$
15$
19$
1=$
1A$
1E$
1I$
1M$
1R$
1T$
b111 U$
1V$
1Z$
1]$
1^$
1_$
#10000000
0!
0'
0;
0?
0C
0G
0K
0O
0S
0W
0[
0_
0c
0g
0k
0o
0s
0w
0{
0""
0"#
0&#
0*#
0.#
02#
06#
0:#
0>#
0B#
0F#
0J#
0N#
0R#
0V#
0Z#
0^#
0b#
0j#
0n#
0r#
0v#
0z#
0!$
0%$
0)$
0-$
01$
05$
09$
0=$
0A$
0E$
0I$
0M$
0R$
0V$
0Z$
0^$
#12500000
1!
b00101101 $
b10010010 %
1'
b00101101 )
b10010010 *
b00110110 /
b00101110 0
b00001000 1
b0000000000001000 2
1;
b00101101 =
b00110110 >
1?
1A
1C
0E
1F
1G
1J
1K
1M
1O
0Q
1S
1W
1[
0^
1_
b10010010 a
b00101110 b
1c
1g
1k
0m
1n
1o
0q
1r
1s
1u
0v
1w
0y
1z
1{
0!"
1""
1$"
0%"
b00110110 &"
b00101110 '"
b00001000 ("
b0000000000001000 )"
bUUUUUUUUUUUUU0000 ."
04"
08"
0;"
0="
1>"
0@"
0H"
1"#
1&#
1*#
1.#
12#
16#
1:#
1>#
1B#
1F#
1J#
1N#
1R#
1V#
1Z#
1^#
1b#
1j#
1n#
1r#
1v#
1z#
1!$
1%$
1)$
1-$
11$
15$
19$
1=$
1A$
1E$
1I$
1M$
1R$
1V$
1Z$
1^$
#15000000
0!
0'
0;
0?
0C
0G
0K
0O
0S
0W
0[
0_
0c
0g
0k
0o
0s
0w
0{
0""
0"#
0&#
0*#
0.#
02#
06#
0:#
0>#
0B#
0F#
0J#
0N#
0R#
0V#
0Z#
0^#
0b#
0j#
0n#
0r#
0v#
0z#
0!$
0%$
0)$
0-$
01$
05$
09$
0=$
0A$
0E$
0I$
0M$
0R$
0V$
0Z$
0^$
#17500000
1!
b00010000 $
b00111000 %
1'
b00010000 )
b00111000 *
b00101101 /
b10010010 0
b01100101 1
b0000000001100101 2
1;
b00010000 =
b00101101 >
1?
0A
1B
1C
0F
1G
0I
1K
0M
1N
1O
1Q
0R
1S
0U
1W
1[
1_
b00111000 a
b10010010 b
1c
1g
0i
1k
0n
1o
1q
0r
1s
1v
1w
1y
0z
1{
1""
0$"
1%"
b00101101 &"
b10010010 '"
b01100101 ("
b0000000001100101 )"
bUUUUUUUUUUUUUUUU0 ."
1/"
U3"
U6"
U8"
19"
U;"
U="
0>"
U@"
UB"
UE"
UG"
1H"
UJ"
1M"
1"#
1&#
1*#
1.#
12#
16#
1:#
1>#
1B#
1F#
1J#
1N#
1R#
1V#
1Z#
1^#
1b#
1j#
1n#
1r#
1v#
1z#
1!$
1%$
1)$
1-$
11$
15$
19$
1=$
1A$
1E$
1I$
1M$
1R$
1V$
1Z$
1^$
#20000000
0!
0'
0;
0?
0C
0G
0K
0O
0S
0W
0[
0_
0c
0g
0k
0o
0s
0w
0{
0""
0"#
0&#
0*#
0.#
02#
06#
0:#
0>#
0B#
0F#
0J#
0N#
0R#
0V#
0Z#
0^#
0b#
0j#
0n#
0r#
0v#
0z#
0!$
0%$
0)$
0-$
01$
05$
09$
0=$
0A$
0E$
0I$
0M$
0R$
0V$
0Z$
0^$
#22500000
1!
b01101111 $
b00100010 %
1'
b01101111 )
b00100010 *
b00010000 /
b00111000 0
b00101000 1
b0000000000101000 2
1;
b01101111 =
b00010000 >
1?
1A
0B
1C
1E
1G
1I
0J
1K
1M
0N
1O
0Q
1R
1S
1U
0V
1W
1Y
1[
1_
b00100010 a
b00111000 b
1c
1g
1i
0j
1k
1o
0q
1r
1s
0u
1w
1z
1{
1""
0%"
b00010000 &"
b00111000 '"
b00101000 ("
b0000000000101000 )"
bUUUUUUUUUUUUU0000 ."
0/"
03"
06"
08"
09"
0;"
0="
1>"
0@"
0M"
1"#
1&#
1*#
1.#
12#
16#
1:#
1>#
1B#
1F#
1J#
1N#
1R#
1V#
1Z#
1^#
1b#
1j#
1n#
1r#
1v#
1z#
1!$
1%$
1)$
1-$
11$
15$
19$
1=$
1A$
1E$
1I$
1M$
1R$
1V$
1Z$
1^$
#25000000
0!
0'
0;
0?
0C
0G
0K
0O
0S
0W
0[
0_
0c
0g
0k
0o
0s
0w
0{
0""
0"#
0&#
0*#
0.#
02#
06#
0:#
0>#
0B#
0F#
0J#
0N#
0R#
0V#
0Z#
0^#
0b#
0j#
0n#
0r#
0v#
0z#
0!$
0%$
0)$
0-$
01$
05$
09$
0=$
0A$
0E$
0I$
0M$
0R$
0V$
0Z$
0^$
#27500000
1!
1"
b01011100 $
b00111001 %
1'
1(
b01011100 )
b00111001 *
b0000000000000000 ,
b00000000 /
b00000000 0
b00000000 1
b0000000000000000 2
b0000000000000000 3
04
b0000000000000000 5
b0000000000000000 6
17
b0000000000000000 8
1;
1<
b01011100 =
b00000000 >
1?
1@
0A
0B
1C
1D
0E
0F
1G
1H
0J
1K
1L
0N
1O
1P
1Q
0R
1S
1T
0U
0V
1W
1X
0Z
1[
1\
1_
1`
b00111001 a
b00000000 b
1c
1d
1e
1g
1h
0i
0j
1k
1l
1o
1p
1q
0r
1s
1t
1u
0v
1w
1x
0z
1{
1|
1""
1#"
b00000000 &"
b00000000 '"
b00000000 ("
b0000000000000000 )"
b0000000000000000 *"
b0000000000000000 ,"
0-"
b00000000000000000 ."
0/"
00"
02"
05"
07"
09"
0:"
0<"
0>"
0?"
0A"
0B"
0D"
0E"
0F"
0G"
0H"
0I"
0J"
0K"
0L"
0M"
0N"
0O"
0P"
0Q"
0S"
0T"
0U"
0V"
0X"
0Y"
0Z"
0["
0]"
0^"
0_"
0`"
0b"
0c"
0d"
0e"
0g"
0h"
0i"
0j"
0l"
0m"
0n"
0o"
0q"
0r"
0s"
0t"
0v"
0w"
0x"
0y"
0{"
0|"
0}"
0!#
1"#
1##
b0000000000000000 $#
b0000000000000000 %#
1&#
1'#
0(#
0)#
1*#
1+#
0,#
0-#
1.#
1/#
00#
01#
12#
13#
04#
05#
16#
17#
08#
09#
1:#
1;#
0<#
0=#
1>#
1?#
0@#
0A#
1B#
1C#
0D#
0E#
1F#
1G#
0H#
0I#
1J#
1K#
0L#
0M#
1N#
1O#
0P#
0Q#
1R#
1S#
0T#
0U#
1V#
1W#
0X#
0Y#
1Z#
1[#
0\#
0]#
1^#
1_#
0`#
0a#
1b#
1c#
0d#
0e#
b0000000000000000 f#
b0000000000000000 g#
b0000000000000000 i#
1j#
1k#
b0000000000000000 l#
b0000000000000000 m#
1n#
1o#
0p#
0q#
1r#
1s#
0t#
0u#
1v#
1w#
0x#
0y#
1z#
1{#
0|#
0}#
1!$
1"$
0#$
0$$
1%$
1&$
0'$
0($
1)$
1*$
0+$
0,$
1-$
1.$
0/$
00$
11$
12$
03$
04$
15$
16$
07$
08$
19$
1:$
0;$
0<$
1=$
1>$
0?$
0@$
1A$
1B$
0C$
0D$
1E$
1F$
0G$
0H$
1I$
1J$
0K$
0L$
1M$
1N$
0O$
0P$
1R$
1S$
0T$
b001 U$
1V$
1W$
0Y$
1Z$
1[$
0\$
0]$
1^$
0_$
1`$
#30000000
0!
0'
0;
0?
0C
0G
0K
0O
0S
0W
0[
0_
0c
0g
0k
0o
0s
0w
0{
0""
0"#
0&#
0*#
0.#
02#
06#
0:#
0>#
0B#
0F#
0J#
0N#
0R#
0V#
0Z#
0^#
0b#
0j#
0n#
0r#
0v#
0z#
0!$
0%$
0)$
0-$
01$
05$
09$
0=$
0A$
0E$
0I$
0M$
0R$
0V$
0Z$
0^$
#32500000
1!
b00101001 $
b01010011 %
1'
b00101001 )
b01010011 *
0-
09
0:
1;
b00101001 =
1?
1A
1C
1G
0I
1K
1O
0Q
1S
1U
1W
0Y
1[
1_
b01010011 a
1c
1g
1i
1k
1o
0q
1s
1w
0y
1{
1}
1""
1"#
1&#
1*#
1.#
12#
16#
1:#
1>#
1B#
1F#
1J#
1N#
1R#
1V#
1Z#
1^#
1b#
0h#
1j#
1n#
1r#
1v#
1z#
1!$
1%$
1)$
1-$
11$
15$
19$
1=$
1A$
1E$
1I$
1M$
1R$
1V$
1Z$
1^$
0a$
