waveforms/tb_SAD.vcd
$date
  Thu Jun  7 16:18:59 2018
$end
$version
  GHDL v0
$end
$timescale
  1 fs
$end
$var reg 1 ! clk $end
$var reg 1 " reset $end
$var reg 1 # enable $end
$var reg 8 $ pa[7:0] $end
$var reg 8 % pb[7:0] $end
$var reg 1 & testing $end
$scope module sad_i $end
$var reg 1 ' clk $end
$var reg 1 ( rst $end
$var reg 8 ) pa[7:0] $end
$var reg 8 * pb[7:0] $end
$var reg 1 + en $end
$var reg 16 , sad[15:0] $end
$var reg 1 - data_valid $end
$var reg 8 . padding[7:0] $end
$var reg 8 / pa_to_sub_nbit[7:0] $end
$var reg 8 0 pb_to_sub_nbit[7:0] $end
$var reg 8 1 sub_out_nbits[7:0] $end
$var reg 16 2 pa_in[15:0] $end
$var reg 16 3 pa_out[15:0] $end
$var reg 16 4 mux_to_reg_out_wire[15:0] $end
$var reg 1 5 rst_input_registers $end
$var reg 16 6 sad_wire[15:0] $end
$var reg 1 7 tc_wire $end
$var reg 1 8 hold_wire $end
$scope module reg_pa $end
$var reg 1 9 clk $end
$var reg 1 : rst $end
$var reg 8 ; d[7:0] $end
$var reg 8 < q[7:0] $end
$scope module reg_gen(0) $end
$scope module i_dff $end
$var reg 1 = clk $end
$var reg 1 > rst $end
$var reg 1 ? d $end
$var reg 1 @ q $end
$upscope $end
$upscope $end
$scope module reg_gen(1) $end
$scope module i_dff $end
$var reg 1 A clk $end
$var reg 1 B rst $end
$var reg 1 C d $end
$var reg 1 D q $end
$upscope $end
$upscope $end
$scope module reg_gen(2) $end
$scope module i_dff $end
$var reg 1 E clk $end
$var reg 1 F rst $end
$var reg 1 G d $end
$var reg 1 H q $end
$upscope $end
$upscope $end
$scope module reg_gen(3) $end
$scope module i_dff $end
$var reg 1 I clk $end
$var reg 1 J rst $end
$var reg 1 K d $end
$var reg 1 L q $end
$upscope $end
$upscope $end
$scope module reg_gen(4) $end
$scope module i_dff $end
$var reg 1 M clk $end
$var reg 1 N rst $end
$var reg 1 O d $end
$var reg 1 P q $end
$upscope $end
$upscope $end
$scope module reg_gen(5) $end
$scope module i_dff $end
$var reg 1 Q clk $end
$var reg 1 R rst $end
$var reg 1 S d $end
$var reg 1 T q $end
$upscope $end
$upscope $end
$scope module reg_gen(6) $end
$scope module i_dff $end
$var reg 1 U clk $end
$var reg 1 V rst $end
$var reg 1 W d $end
$var reg 1 X q $end
$upscope $end
$upscope $end
$scope module reg_gen(7) $end
$scope module i_dff $end
$var reg 1 Y clk $end
$var reg 1 Z rst $end
$var reg 1 [ d $end
$var reg 1 \ q $end
$upscope $end
$upscope $end
$upscope $end
$scope module reg_pb $end
$var reg 1 ] clk $end
$var reg 1 ^ rst $end
$var reg 8 _ d[7:0] $end
$var reg 8 ` q[7:0] $end
$scope module reg_gen(0) $end
$scope module i_dff $end
$var reg 1 a clk $end
$var reg 1 b rst $end
$var reg 1 c d $end
$var reg 1 d q $end
$upscope $end
$upscope $end
$scope module reg_gen(1) $end
$scope module i_dff $end
$var reg 1 e clk $end
$var reg 1 f rst $end
$var reg 1 g d $end
$var reg 1 h q $end
$upscope $end
$upscope $end
$scope module reg_gen(2) $end
$scope module i_dff $end
$var reg 1 i clk $end
$var reg 1 j rst $end
$var reg 1 k d $end
$var reg 1 l q $end
$upscope $end
$upscope $end
$scope module reg_gen(3) $end
$scope module i_dff $end
$var reg 1 m clk $end
$var reg 1 n rst $end
$var reg 1 o d $end
$var reg 1 p q $end
$upscope $end
$upscope $end
$scope module reg_gen(4) $end
$scope module i_dff $end
$var reg 1 q clk $end
$var reg 1 r rst $end
$var reg 1 s d $end
$var reg 1 t q $end
$upscope $end
$upscope $end
$scope module reg_gen(5) $end
$scope module i_dff $end
$var reg 1 u clk $end
$var reg 1 v rst $end
$var reg 1 w d $end
$var reg 1 x q $end
$upscope $end
$upscope $end
$scope module reg_gen(6) $end
$scope module i_dff $end
$var reg 1 y clk $end
$var reg 1 z rst $end
$var reg 1 { d $end
$var reg 1 | q $end
$upscope $end
$upscope $end
$scope module reg_gen(7) $end
$scope module i_dff $end
$var reg 1 } clk $end
$var reg 1 !" rst $end
$var reg 1 "" d $end
$var reg 1 #" q $end
$upscope $end
$upscope $end
$upscope $end
$scope module gen_padding(0) $end
$upscope $end
$scope module gen_padding(1) $end
$upscope $end
$scope module gen_padding(2) $end
$upscope $end
$scope module gen_padding(3) $end
$upscope $end
$scope module gen_padding(4) $end
$upscope $end
$scope module gen_padding(5) $end
$upscope $end
$scope module gen_padding(6) $end
$upscope $end
$scope module gen_padding(7) $end
$upscope $end
$scope module sub $end
$var reg 8 $" a[7:0] $end
$var reg 8 %" b[7:0] $end
$var reg 8 &" s[7:0] $end
$upscope $end
$scope module phaseacc $end
$var reg 1 '" clk $end
$var reg 1 (" rst $end
$var reg 16 )" pa_in[15:0] $end
$var reg 16 *" pa_out[15:0] $end
$var reg 16 +" kfw_s[15:0] $end
$var reg 16 ," kfw_next[15:0] $end
$scope module i_adder $end
$var reg 16 -" x[15:0] $end
$var reg 16 ." y[15:0] $end
$var reg 1 /" c0 $end
$var reg 16 0" s[15:0] $end
$var reg 1 1" cn $end
$var reg 17 2" c[16:0] $end
$scope module gen_rca(0) $end
$scope module i_fa $end
$var reg 1 3" x $end
$var reg 1 4" y $end
$var reg 1 5" cin $end
$var reg 1 6" s $end
$var reg 1 7" cout $end
$upscope $end
$upscope $end
$scope module gen_rca(1) $end
$scope module i_fa $end
$var reg 1 8" x $end
$var reg 1 9" y $end
$var reg 1 :" cin $end
$var reg 1 ;" s $end
$var reg 1 <" cout $end
$upscope $end
$upscope $end
$scope module gen_rca(2) $end
$scope module i_fa $end
$var reg 1 =" x $end
$var reg 1 >" y $end
$var reg 1 ?" cin $end
$var reg 1 @" s $end
$var reg 1 A" cout $end
$upscope $end
$upscope $end
$scope module gen_rca(3) $end
$scope module i_fa $end
$var reg 1 B" x $end
$var reg 1 C" y $end
$var reg 1 D" cin $end
$var reg 1 E" s $end
$var reg 1 F" cout $end
$upscope $end
$upscope $end
$scope module gen_rca(4) $end
$scope module i_fa $end
$var reg 1 G" x $end
$var reg 1 H" y $end
$var reg 1 I" cin $end
$var reg 1 J" s $end
$var reg 1 K" cout $end
$upscope $end
$upscope $end
$scope module gen_rca(5) $end
$scope module i_fa $end
$var reg 1 L" x $end
$var reg 1 M" y $end
$var reg 1 N" cin $end
$var reg 1 O" s $end
$var reg 1 P" cout $end
$upscope $end
$upscope $end
$scope module gen_rca(6) $end
$scope module i_fa $end
$var reg 1 Q" x $end
$var reg 1 R" y $end
$var reg 1 S" cin $end
$var reg 1 T" s $end
$var reg 1 U" cout $end
$upscope $end
$upscope $end
$scope module gen_rca(7) $end
$scope module i_fa $end
$var reg 1 V" x $end
$var reg 1 W" y $end
$var reg 1 X" cin $end
$var reg 1 Y" s $end
$var reg 1 Z" cout $end
$upscope $end
$upscope $end
$scope module gen_rca(8) $end
$scope module i_fa $end
$var reg 1 [" x $end
$var reg 1 \" y $end
$var reg 1 ]" cin $end
$var reg 1 ^" s $end
$var reg 1 _" cout $end
$upscope $end
$upscope $end
$scope module gen_rca(9) $end
$scope module i_fa $end
$var reg 1 `" x $end
$var reg 1 a" y $end
$var reg 1 b" cin $end
$var reg 1 c" s $end
$var reg 1 d" cout $end
$upscope $end
$upscope $end
$scope module gen_rca(10) $end
$scope module i_fa $end
$var reg 1 e" x $end
$var reg 1 f" y $end
$var reg 1 g" cin $end
$var reg 1 h" s $end
$var reg 1 i" cout $end
$upscope $end
$upscope $end
$scope module gen_rca(11) $end
$scope module i_fa $end
$var reg 1 j" x $end
$var reg 1 k" y $end
$var reg 1 l" cin $end
$var reg 1 m" s $end
$var reg 1 n" cout $end
$upscope $end
$upscope $end
$scope module gen_rca(12) $end
$scope module i_fa $end
$var reg 1 o" x $end
$var reg 1 p" y $end
$var reg 1 q" cin $end
$var reg 1 r" s $end
$var reg 1 s" cout $end
$upscope $end
$upscope $end
$scope module gen_rca(13) $end
$scope module i_fa $end
$var reg 1 t" x $end
$var reg 1 u" y $end
$var reg 1 v" cin $end
$var reg 1 w" s $end
$var reg 1 x" cout $end
$upscope $end
$upscope $end
$scope module gen_rca(14) $end
$scope module i_fa $end
$var reg 1 y" x $end
$var reg 1 z" y $end
$var reg 1 {" cin $end
$var reg 1 |" s $end
$var reg 1 }" cout $end
$upscope $end
$upscope $end
$scope module gen_rca(15) $end
$scope module i_fa $end
$var reg 1 !# x $end
$var reg 1 "# y $end
$var reg 1 ## cin $end
$var reg 1 $# s $end
$var reg 1 %# cout $end
$upscope $end
$upscope $end
$upscope $end
$scope module i_reg $end
$var reg 1 &# clk $end
$var reg 1 '# rst $end
$var reg 16 (# d[15:0] $end
$var reg 16 )# q[15:0] $end
$scope module reg_gen(0) $end
$scope module i_dff $end
$var reg 1 *# clk $end
$var reg 1 +# rst $end
$var reg 1 ,# d $end
$var reg 1 -# q $end
$upscope $end
$upscope $end
$scope module reg_gen(1) $end
$scope module i_dff $end
$var reg 1 .# clk $end
$var reg 1 /# rst $end
$var reg 1 0# d $end
$var reg 1 1# q $end
$upscope $end
$upscope $end
$scope module reg_gen(2) $end
$scope module i_dff $end
$var reg 1 2# clk $end
$var reg 1 3# rst $end
$var reg 1 4# d $end
$var reg 1 5# q $end
$upscope $end
$upscope $end
$scope module reg_gen(3) $end
$scope module i_dff $end
$var reg 1 6# clk $end
$var reg 1 7# rst $end
$var reg 1 8# d $end
$var reg 1 9# q $end
$upscope $end
$upscope $end
$scope module reg_gen(4) $end
$scope module i_dff $end
$var reg 1 :# clk $end
$var reg 1 ;# rst $end
$var reg 1 <# d $end
$var reg 1 =# q $end
$upscope $end
$upscope $end
$scope module reg_gen(5) $end
$scope module i_dff $end
$var reg 1 ># clk $end
$var reg 1 ?# rst $end
$var reg 1 @# d $end
$var reg 1 A# q $end
$upscope $end
$upscope $end
$scope module reg_gen(6) $end
$scope module i_dff $end
$var reg 1 B# clk $end
$var reg 1 C# rst $end
$var reg 1 D# d $end
$var reg 1 E# q $end
$upscope $end
$upscope $end
$scope module reg_gen(7) $end
$scope module i_dff $end
$var reg 1 F# clk $end
$var reg 1 G# rst $end
$var reg 1 H# d $end
$var reg 1 I# q $end
$upscope $end
$upscope $end
$scope module reg_gen(8) $end
$scope module i_dff $end
$var reg 1 J# clk $end
$var reg 1 K# rst $end
$var reg 1 L# d $end
$var reg 1 M# q $end
$upscope $end
$upscope $end
$scope module reg_gen(9) $end
$scope module i_dff $end
$var reg 1 N# clk $end
$var reg 1 O# rst $end
$var reg 1 P# d $end
$var reg 1 Q# q $end
$upscope $end
$upscope $end
$scope module reg_gen(10) $end
$scope module i_dff $end
$var reg 1 R# clk $end
$var reg 1 S# rst $end
$var reg 1 T# d $end
$var reg 1 U# q $end
$upscope $end
$upscope $end
$scope module reg_gen(11) $end
$scope module i_dff $end
$var reg 1 V# clk $end
$var reg 1 W# rst $end
$var reg 1 X# d $end
$var reg 1 Y# q $end
$upscope $end
$upscope $end
$scope module reg_gen(12) $end
$scope module i_dff $end
$var reg 1 Z# clk $end
$var reg 1 [# rst $end
$var reg 1 \# d $end
$var reg 1 ]# q $end
$upscope $end
$upscope $end
$scope module reg_gen(13) $end
$scope module i_dff $end
$var reg 1 ^# clk $end
$var reg 1 _# rst $end
$var reg 1 `# d $end
$var reg 1 a# q $end
$upscope $end
$upscope $end
$scope module reg_gen(14) $end
$scope module i_dff $end
$var reg 1 b# clk $end
$var reg 1 c# rst $end
$var reg 1 d# d $end
$var reg 1 e# q $end
$upscope $end
$upscope $end
$scope module reg_gen(15) $end
$scope module i_dff $end
$var reg 1 f# clk $end
$var reg 1 g# rst $end
$var reg 1 h# d $end
$var reg 1 i# q $end
$upscope $end
$upscope $end
$upscope $end
$upscope $end
$scope module mux1 $end
$var reg 16 j# i0[15:0] $end
$var reg 16 k# i1[15:0] $end
$var reg 1 l# s $end
$var reg 16 m# f[15:0] $end
$upscope $end
$scope module reg_out $end
$var reg 1 n# clk $end
$var reg 1 o# rst $end
$var reg 16 p# d[15:0] $end
$var reg 16 q# q[15:0] $end
$scope module reg_gen(0) $end
$scope module i_dff $end
$var reg 1 r# clk $end
$var reg 1 s# rst $end
$var reg 1 t# d $end
$var reg 1 u# q $end
$upscope $end
$upscope $end
$scope module reg_gen(1) $end
$scope module i_dff $end
$var reg 1 v# clk $end
$var reg 1 w# rst $end
$var reg 1 x# d $end
$var reg 1 y# q $end
$upscope $end
$upscope $end
$scope module reg_gen(2) $end
$scope module i_dff $end
$var reg 1 z# clk $end
$var reg 1 {# rst $end
$var reg 1 |# d $end
$var reg 1 }# q $end
$upscope $end
$upscope $end
$scope module reg_gen(3) $end
$scope module i_dff $end
$var reg 1 !$ clk $end
$var reg 1 "$ rst $end
$var reg 1 #$ d $end
$var reg 1 $$ q $end
$upscope $end
$upscope $end
$scope module reg_gen(4) $end
$scope module i_dff $end
$var reg 1 %$ clk $end
$var reg 1 &$ rst $end
$var reg 1 '$ d $end
$var reg 1 ($ q $end
$upscope $end
$upscope $end
$scope module reg_gen(5) $end
$scope module i_dff $end
$var reg 1 )$ clk $end
$var reg 1 *$ rst $end
$var reg 1 +$ d $end
$var reg 1 ,$ q $end
$upscope $end
$upscope $end
$scope module reg_gen(6) $end
$scope module i_dff $end
$var reg 1 -$ clk $end
$var reg 1 .$ rst $end
$var reg 1 /$ d $end
$var reg 1 0$ q $end
$upscope $end
$upscope $end
$scope module reg_gen(7) $end
$scope module i_dff $end
$var reg 1 1$ clk $end
$var reg 1 2$ rst $end
$var reg 1 3$ d $end
$var reg 1 4$ q $end
$upscope $end
$upscope $end
$scope module reg_gen(8) $end
$scope module i_dff $end
$var reg 1 5$ clk $end
$var reg 1 6$ rst $end
$var reg 1 7$ d $end
$var reg 1 8$ q $end
$upscope $end
$upscope $end
$scope module reg_gen(9) $end
$scope module i_dff $end
$var reg 1 9$ clk $end
$var reg 1 :$ rst $end
$var reg 1 ;$ d $end
$var reg 1 <$ q $end
$upscope $end
$upscope $end
$scope module reg_gen(10) $end
$scope module i_dff $end
$var reg 1 =$ clk $end
$var reg 1 >$ rst $end
$var reg 1 ?$ d $end
$var reg 1 @$ q $end
$upscope $end
$upscope $end
$scope module reg_gen(11) $end
$scope module i_dff $end
$var reg 1 A$ clk $end
$var reg 1 B$ rst $end
$var reg 1 C$ d $end
$var reg 1 D$ q $end
$upscope $end
$upscope $end
$scope module reg_gen(12) $end
$scope module i_dff $end
$var reg 1 E$ clk $end
$var reg 1 F$ rst $end
$var reg 1 G$ d $end
$var reg 1 H$ q $end
$upscope $end
$upscope $end
$scope module reg_gen(13) $end
$scope module i_dff $end
$var reg 1 I$ clk $end
$var reg 1 J$ rst $end
$var reg 1 K$ d $end
$var reg 1 L$ q $end
$upscope $end
$upscope $end
$scope module reg_gen(14) $end
$scope module i_dff $end
$var reg 1 M$ clk $end
$var reg 1 N$ rst $end
$var reg 1 O$ d $end
$var reg 1 P$ q $end
$upscope $end
$upscope $end
$scope module reg_gen(15) $end
$scope module i_dff $end
$var reg 1 Q$ clk $end
$var reg 1 R$ rst $end
$var reg 1 S$ d $end
$var reg 1 T$ q $end
$upscope $end
$upscope $end
$upscope $end
$scope module cnt $end
$var reg 1 U$ count_puls $end
$var reg 1 V$ count_enable $end
$var reg 1 W$ rst $end
$var reg 1 X$ tc $end
$upscope $end
$upscope $end
$enddefinitions $end
#0
0!
0"
1#
b11011001 $
b01001010 %
1&
0'
0(
b11011001 )
b01001010 *
1+
bUUUUUUUUUUUUUUUU ,
U-
b00000000 .
bUUUUUUUU /
bUUUUUUUU 0
bXXXXXXXX 1
b00000000XXXXXXXX 2
bUUUUUUUUUUUUUUUU 3
bUUUUUUUUUUUUUUUU 4
05
bUUUUUUUUUUUUUUUU 6
U7
U8
09
0:
b11011001 ;
bUUUUUUUU <
0=
0>
1?
U@
0A
0B
0C
UD
0E
0F
0G
UH
0I
0J
1K
UL
0M
0N
1O
UP
0Q
0R
0S
UT
0U
0V
1W
UX
0Y
0Z
1[
U\
0]
0^
b01001010 _
bUUUUUUUU `
0a
0b
0c
Ud
0e
0f
1g
Uh
0i
0j
0k
Ul
0m
0n
1o
Up
0q
0r
0s
Ut
0u
0v
0w
Ux
0y
0z
1{
U|
0}
0!"
0""
U#"
bUUUUUUUU $"
bUUUUUUUU %"
bXXXXXXXX &"
0'"
0("
b00000000XXXXXXXX )"
bUUUUUUUUUUUUUUUU *"
bUUUUUUUUUUUUUUUU +"
bUUUUUUUUUUUUUUUU ,"
b00000000XXXXXXXX -"
bUUUUUUUUUUUUUUUU ."
0/"
bUUUUUUUUUUUUUUUU 0"
U1"
bUUUUUUUUUUUUUUUU0 2"
X3"
U4"
05"
U6"
U7"
X8"
U9"
U:"
U;"
U<"
X="
U>"
U?"
U@"
UA"
XB"
UC"
UD"
UE"
UF"
XG"
UH"
UI"
UJ"
UK"
XL"
UM"
UN"
UO"
UP"
XQ"
UR"
US"
UT"
UU"
XV"
UW"
UX"
UY"
UZ"
0["
U\"
U]"
U^"
U_"
0`"
Ua"
Ub"
Uc"
Ud"
0e"
Uf"
Ug"
Uh"
Ui"
0j"
Uk"
Ul"
Um"
Un"
0o"
Up"
Uq"
Ur"
Us"
0t"
Uu"
Uv"
Uw"
Ux"
0y"
Uz"
U{"
U|"
U}"
0!#
U"#
U##
U$#
U%#
0&#
0'#
bUUUUUUUUUUUUUUUU (#
bUUUUUUUUUUUUUUUU )#
0*#
0+#
U,#
U-#
0.#
0/#
U0#
U1#
02#
03#
U4#
U5#
06#
07#
U8#
U9#
0:#
0;#
U<#
U=#
0>#
0?#
U@#
UA#
0B#
0C#
UD#
UE#
0F#
0G#
UH#
UI#
0J#
0K#
UL#
UM#
0N#
0O#
UP#
UQ#
0R#
0S#
UT#
UU#
0V#
0W#
UX#
UY#
0Z#
0[#
U\#
U]#
0^#
0_#
U`#
Ua#
0b#
0c#
Ud#
Ue#
0f#
0g#
Uh#
Ui#
bUUUUUUUUUUUUUUUU j#
bUUUUUUUUUUUUUUUU k#
Ul#
bUUUUUUUUUUUUUUUU m#
0n#
0o#
bUUUUUUUUUUUUUUUU p#
bUUUUUUUUUUUUUUUU q#
0r#
0s#
Ut#
Uu#
0v#
0w#
Ux#
Uy#
0z#
0{#
U|#
U}#
0!$
0"$
U#$
U$$
0%$
0&$
U'$
U($
0)$
0*$
U+$
U,$
0-$
0.$
U/$
U0$
01$
02$
U3$
U4$
05$
06$
U7$
U8$
09$
0:$
U;$
U<$
0=$
0>$
U?$
U@$
0A$
0B$
UC$
UD$
0E$
0F$
UG$
UH$
0I$
0J$
UK$
UL$
0M$
0N$
UO$
UP$
0Q$
0R$
US$
UT$
0U$
1V$
0W$
UX$
#2500000
1!
b11101110 $
b11010111 %
1'
b11101110 )
b11010111 *
b11011001 /
b01001010 0
b10001111 1
b0000000010001111 2
19
b11101110 ;
b11011001 <
1=
0?
1@
1A
1C
0D
1E
1G
0H
1I
1L
1M
0O
1P
1Q
1S
0T
1U
1X
1Y
1\
1]
b11010111 _
b01001010 `
1a
1c
0d
1e
1h
1i
1k
0l
1m
0o
1p
1q
1s
0t
1u
0x
1y
1|
1}
1""
0#"
b11011001 $"
b01001010 %"
b10001111 &"
1'"
b0000000010001111 )"
b0000000010001111 -"
13"
18"
1="
1B"
0G"
0L"
0Q"
1V"
1&#
1*#
1.#
12#
16#
1:#
1>#
1B#
1F#
1J#
1N#
1R#
1V#
1Z#
1^#
1b#
1f#
1n#
1r#
1v#
1z#
1!$
1%$
1)$
1-$
11$
15$
19$
1=$
1A$
1E$
1I$
1M$
1Q$
1U$
#5000000
0!
0'
09
0=
0A
0E
0I
0M
0Q
0U
0Y
0]
0a
0e
0i
0m
0q
0u
0y
0}
0'"
0&#
0*#
0.#
02#
06#
0:#
0>#
0B#
0F#
0J#
0N#
0R#
0V#
0Z#
0^#
0b#
0f#
0n#
0r#
0v#
0z#
0!$
0%$
0)$
0-$
01$
05$
09$
0=$
0A$
0E$
0I$
0M$
0Q$
0U$
#7500000
1!
b11010001 $
b10110010 %
1'
b11010001 )
b10110010 *
b11101110 /
b11010111 0
b00010111 1
b0000000000010111 2
19
b11010001 ;
b11101110 <
1=
1?
0@
1A
0C
1D
1E
0G
1H
1I
0K
1M
1O
0P
1Q
0S
1T
1U
1Y
1]
b10110010 _
b11010111 `
1a
0c
1d
1e
1i
0k
1l
1m
0p
1q
1t
1u
1w
1y
0{
1}
1#"
b11101110 $"
b11010111 %"
b00010111 &"
1'"
b0000000000010111 )"
b0000000000010111 -"
0B"
1G"
0V"
1&#
1*#
1.#
12#
16#
1:#
1>#
1B#
1F#
1J#
1N#
1R#
1V#
1Z#
1^#
1b#
1f#
1n#
1r#
1v#
1z#
1!$
1%$
1)$
1-$
11$
15$
19$
1=$
1A$
1E$
1I$
1M$
1Q$
1U$
#10000000
0!
0'
09
0=
0A
0E
0I
0M
0Q
0U
0Y
0]
0a
0e
0i
0m
0q
0u
0y
0}
0'"
0&#
0*#
0.#
02#
06#
0:#
0>#
0B#
0F#
0J#
0N#
0R#
0V#
0Z#
0^#
0b#
0f#
0n#
0r#
0v#
0z#
0!$
0%$
0)$
0-$
01$
05$
09$
0=$
0A$
0E$
0I$
0M$
0Q$
0U$
#12500000
1!
b00100111 $
b10010101 %
1'
b00100111 )
b10010101 *
b11010001 /
b10110010 0
b00011111 1
b0000000000011111 2
19
b00100111 ;
b11010001 <
1=
1@
1A
1C
0D
1E
1G
0H
1I
0L
1M
0O
1P
1Q
1S
0T
1U
0W
1Y
0[
1]
b10010101 _
b10110010 `
1a
1c
0d
1e
0g
1i
1k
0l
1m
1q
1u
0w
1x
1y
0|
1}
b11010001 $"
b10110010 %"
b00011111 &"
1'"
b0000000000011111 )"
b0000000000011111 -"
1B"
1&#
1*#
1.#
12#
16#
1:#
1>#
1B#
1F#
1J#
1N#
1R#
1V#
1Z#
1^#
1b#
1f#
1n#
1r#
1v#
1z#
1!$
1%$
1)$
1-$
11$
15$
19$
1=$
1A$
1E$
1I$
1M$
1Q$
1U$
#15000000
0!
0'
09
0=
0A
0E
0I
0M
0Q
0U
0Y
0]
0a
0e
0i
0m
0q
0u
0y
0}
0'"
0&#
0*#
0.#
02#
06#
0:#
0>#
0B#
0F#
0J#
0N#
0R#
0V#
0Z#
0^#
0b#
0f#
0n#
0r#
0v#
0z#
0!$
0%$
0)$
0-$
01$
05$
09$
0=$
0A$
0E$
0I$
0M$
0Q$
0U$
#17500000
1!
b10111100 $
b01010010 %
1'
b10111100 )
b01010010 *
b00100111 /
b10010101 0
b01101110 1
b0000000001101110 2
19
b10111100 ;
b00100111 <
1=
0?
1A
0C
1D
1E
1H
1I
1K
1M
1O
0P
1Q
1T
1U
0X
1Y
1[
0\
1]
b01010010 _
b10010101 `
1a
0c
1d
1e
1g
0h
1i
0k
1l
1m
1q
1u
0x
1y
1{
1}
0""
b00100111 $"
b10010101 %"
b01101110 &"
1'"
b0000000001101110 )"
b0000000001101110 -"
bUUUUUUUUUUUUUUU00 2"
03"
07"
0:"
0G"
1L"
1Q"
1&#
1*#
1.#
12#
16#
1:#
1>#
1B#
1F#
1J#
1N#
1R#
1V#
1Z#
1^#
1b#
1f#
1n#
1r#
1v#
1z#
1!$
1%$
1)$
1-$
11$
15$
19$
1=$
1A$
1E$
1I$
1M$
1Q$
1U$
#20000000
0!
0'
09
0=
0A
0E
0I
0M
0Q
0U
0Y
0]
0a
0e
0i
0m
0q
0u
0y
0}
0'"
0&#
0*#
0.#
02#
06#
0:#
0>#
0B#
0F#
0J#
0N#
0R#
0V#
0Z#
0^#
0b#
0f#
0n#
0r#
0v#
0z#
0!$
0%$
0)$
0-$
01$
05$
09$
0=$
0A$
0E$
0I$
0M$
0Q$
0U$
#22500000
1!
b11100001 $
b10010101 %
1'
b11100001 )
b10010101 *
b10111100 /
b01010010 0
b01101010 1
b0000000001101010 2
19
b11100001 ;
b10111100 <
1=
1?
0@
1A
0D
1E
0G
1I
0K
1L
1M
0O
1P
1Q
1U
1W
1Y
1\
1]
b10010101 _
b01010010 `
1a
1c
0d
1e
0g
1h
1i
1k
0l
1m
1q
1u
1y
0{
1|
1}
1""
0#"
b10111100 $"
b01010010 %"
b01101010 &"
1'"
b0000000001101010 )"
b0000000001101010 -"
0="
1&#
1*#
1.#
12#
16#
1:#
1>#
1B#
1F#
1J#
1N#
1R#
1V#
1Z#
1^#
1b#
1f#
1n#
1r#
1v#
1z#
1!$
1%$
1)$
1-$
11$
15$
19$
1=$
1A$
1E$
1I$
1M$
1Q$
1U$
#25000000
0!
0'
09
0=
0A
0E
0I
0M
0Q
0U
0Y
0]
0a
0e
0i
0m
0q
0u
0y
0}
0'"
0&#
0*#
0.#
02#
06#
0:#
0>#
0B#
0F#
0J#
0N#
0R#
0V#
0Z#
0^#
0b#
0f#
0n#
0r#
0v#
0z#
0!$
0%$
0)$
0-$
01$
05$
09$
0=$
0A$
0E$
0I$
0M$
0Q$
0U$
#27500000
1!
1"
b01101100 $
b01101110 %
1'
1(
b01101100 )
b01101110 *
b0000000000000000 ,
b00000000 /
b00000000 0
b00000000 1
b0000000000000000 2
b0000000000000000 3
b0000000000000000 4
15
b0000000000000000 6
19
1:
b01101100 ;
b00000000 <
1=
1>
0?
0@
1A
1B
1E
1F
1G
0H
1I
1J
1K
0L
1M
1N
0P
1Q
1R
0T
1U
1V
0X
1Y
1Z
0[
0\
1]
1^
b01101110 _
b00000000 `
1a
1b
0c
0d
1e
1f
1g
0h
1i
1j
0l
1m
1n
1o
1q
1r
0s
0t
1u
1v
1w
1y
1z
1{
0|
1}
1!"
0""
0#"
b00000000 $"
b00000000 %"
b00000000 &"
1'"
1("
b0000000000000000 )"
b0000000000000000 *"
b0000000000000000 +"
b0000000000000000 ,"
b0000000000000000 -"
b0000000000000000 ."
b0000000000000000 0"
01"
b00000000000000000 2"
04"
06"
08"
09"
0;"
0<"
0="
0>"
0?"
0@"
0A"
0B"
0C"
0D"
0E"
0F"
0H"
0I"
0J"
0K"
0L"
0M"
0N"
0O"
0P"
0Q"
0R"
0S"
0T"
0U"
0W"
0X"
0Y"
0Z"
0\"
0]"
0^"
0_"
0a"
0b"
0c"
0d"
0f"
0g"
0h"
0i"
0k"
0l"
0m"
0n"
0p"
0q"
0r"
0s"
0u"
0v"
0w"
0x"
0z"
0{"
0|"
0}"
0"#
0##
0$#
0%#
1&#
1'#
b0000000000000000 (#
b0000000000000000 )#
1*#
1+#
0,#
0-#
1.#
1/#
00#
01#
12#
13#
04#
05#
16#
17#
08#
09#
1:#
1;#
0<#
0=#
1>#
1?#
0@#
0A#
1B#
1C#
0D#
0E#
1F#
1G#
0H#
0I#
1J#
1K#
0L#
0M#
1N#
1O#
0P#
0Q#
1R#
1S#
0T#
0U#
1V#
1W#
0X#
0Y#
1Z#
1[#
0\#
0]#
1^#
1_#
0`#
0a#
1b#
1c#
0d#
0e#
1f#
1g#
0h#
0i#
b0000000000000000 j#
b0000000000000000 k#
b0000000000000000 m#
1n#
1o#
b0000000000000000 p#
b0000000000000000 q#
1r#
1s#
0t#
0u#
1v#
1w#
0x#
0y#
1z#
1{#
0|#
0}#
1!$
1"$
0#$
0$$
1%$
1&$
0'$
0($
1)$
1*$
0+$
0,$
1-$
1.$
0/$
00$
11$
12$
03$
04$
15$
16$
07$
08$
19$
1:$
0;$
0<$
1=$
1>$
0?$
0@$
1A$
1B$
0C$
0D$
1E$
1F$
0G$
0H$
1I$
1J$
0K$
0L$
1M$
1N$
0O$
0P$
1Q$
1R$
0S$
0T$
1U$
1W$
#30000000
0!
0'
09
0=
0A
0E
0I
0M
0Q
0U
0Y
0]
0a
0e
0i
0m
0q
0u
0y
0}
0'"
0&#
0*#
0.#
02#
06#
0:#
0>#
0B#
0F#
0J#
0N#
0R#
0V#
0Z#
0^#
0b#
0f#
0n#
0r#
0v#
0z#
0!$
0%$
0)$
0-$
01$
05$
09$
0=$
0A$
0E$
0I$
0M$
0Q$
0U$
#32500000
1!
b11101010 $
b00000001 %
1'
b11101010 )
b00000001 *
0-
07
08
19
b11101010 ;
1=
1A
1C
1E
0G
1I
1M
1Q
1U
1Y
1[
1]
b00000001 _
1a
1c
1e
0g
1i
0k
1m
0o
1q
1u
0w
1y
0{
1}
1'"
1&#
1*#
1.#
12#
16#
1:#
1>#
1B#
1F#
1J#
1N#
1R#
1V#
1Z#
1^#
1b#
1f#
0l#
1n#
1r#
1v#
1z#
1!$
1%$
1)$
1-$
11$
15$
19$
1=$
1A$
1E$
1I$
1M$
1Q$
1U$
0X$
#35000000
0!
0'
09
0=
0A
0E
0I
0M
0Q
0U
0Y
0]
0a
0e
0i
0m
0q
0u
0y
0}
0'"
0&#
0*#
0.#
02#
06#
0:#
0>#
0B#
0F#
0J#
0N#
0R#
0V#
0Z#
0^#
0b#
0f#
0n#
0r#
0v#
0z#
0!$
0%$
0)$
0-$
01$
05$
09$
0=$
0A$
0E$
0I$
0M$
0Q$
0U$
#37500000
1!
0#
b11101100 $
b10000101 %
1'
b11101100 )
b10000101 *
0+
18
19
b11101100 ;
1=
1A
0C
1E
1G
1I
1M
1Q
1U
1Y
1]
b10000101 _
1a
1e
1i
1k
1m
1q
1u
1y
1}
1""
1'"
1&#
1*#
1.#
12#
16#
1:#
1>#
1B#
1F#
1J#
1N#
1R#
1V#
1Z#
1^#
1b#
1f#
1l#
1n#
1r#
1v#
1z#
1!$
1%$
1)$
1-$
11$
15$
19$
1=$
1A$
1E$
1I$
1M$
1Q$
1U$
0V$
