waveforms/tb_SADv2.vcd
$date
  Wed May 23 20:40:25 2018
$end
$version
  GHDL v0
$end
$timescale
  1 fs
$end
$var reg 1 ! clk $end
$var reg 1 " reset $end
$var reg 1 # enable $end
$var reg 8 $ pa[7:0] $end
$var reg 8 % pb[7:0] $end
$var reg 1 & testing $end
$scope module sad_i $end
$var reg 1 ' clk $end
$var reg 1 ( rst $end
$var reg 8 ) pa[7:0] $end
$var reg 8 * pb[7:0] $end
$var reg 1 + en $end
$var reg 16 , sad[15:0] $end
$var reg 1 - data_valid $end
$var reg 16 . sumdiffs[15:0] $end
$var integer 32 / op_count $end
$upscope $end
$enddefinitions $end
#0
0!
U"
U#
b00000000 $
bXXXXXXXX %
1&
0'
U(
b00000000 )
bXXXXXXXX *
U+
bUUUUUUUUUUUUUUUU ,
U-
bUUUUUUUUUUUUUUUU .
b10000000000000000000000000000000 /
#2500000
1!
1'
#5000000
0!
0'
#7500000
1!
1'
#10000000
0!
0'
#12500000
1!
1'
#15000000
0!
0'
#17500000
1!
1'
#20000000
0!
0'
#22500000
1!
1'
#23000000
1"
0#
1(
0+
b0000000000000000 ,
0-
b0000000000000000 .
b0 /
#25000000
0!
0'
#27500000
1!
b00000000 %
1'
b00000000 *
#30000000
0!
0'
#32500000
1!
1'
#35000000
0!
0'
#37500000
1!
1'
#40000000
0!
0'
#42500000
1!
1'
#45000000
0!
0'
#47500000
1!
1'
#50000000
0!
0'
#52500000
1!
1'
#55000000
0!
0'
#57500000
1!
1'
#60000000
0!
0'
#62500000
1!
1'
#65000000
0!
0'
#67500000
1!
0"
1'
0(
#70000000
0!
0'
#72500000
1!
1#
1'
1+
#75000000
0!
0'
#77500000
1!
1'
b1 /
#80000000
0!
0'
#82500000
1!
1'
b10 /
#85000000
0!
0'
#87500000
1!
b00001110 $
b11001001 %
1'
b00001110 )
b11001001 *
b11 /
#90000000
0!
0'
#92500000
1!
b10010000 $
b00101101 %
1'
b10010000 )
b00101101 *
b0000000010111011 ,
b0000000010111011 .
b100 /
#95000000
0!
0'
#97500000
1!
b00001110 $
b10000110 %
1'
b00001110 )
b10000110 *
b0000000100011110 ,
b0000000100011110 .
b101 /
#100000000
0!
0'
#102500000
1!
b00100011 $
b11111001 %
1'
b00100011 )
b11111001 *
b0000000110010110 ,
b0000000110010110 .
b110 /
#105000000
0!
0'
#107500000
1!
b10000101 $
b00000010 %
1'
b10000101 )
b00000010 *
b0000001001101100 ,
b0000001001101100 .
b111 /
#110000000
0!
0'
#112500000
1!
b01011011 $
b10111101 %
1'
b01011011 )
b10111101 *
b0000001011101111 ,
b0000001011101111 .
b1000 /
#115000000
0!
0'
#117500000
1!
b11010100 $
b00110001 %
1'
b11010100 )
b00110001 *
b0000001101010001 ,
b0000001101010001 .
b1001 /
#120000000
0!
0'
#122500000
1!
b10001000 $
b10001000 %
1'
b10001000 )
b10001000 *
b0000001111110100 ,
b0000001111110100 .
b1010 /
#125000000
0!
0'
#127500000
1!
b01010111 $
b00110100 %
1'
b01010111 )
b00110100 *
b1011 /
#130000000
0!
0'
#132500000
1!
b01110000 $
b01110000 %
1'
b01110000 )
b01110000 *
b0000010000010111 ,
b0000010000010111 .
b1100 /
#135000000
0!
0'
#137500000
1!
b10101101 $
b00001110 %
1'
b10101101 )
b00001110 *
b1101 /
#140000000
0!
0'
#142500000
1!
b11001111 $
b01001100 %
1'
b11001111 )
b01001100 *
b0000010010110110 ,
b0000010010110110 .
b1110 /
#145000000
0!
0'
#147500000
1!
b10000000 $
b11111101 %
1'
b10000000 )
b11111101 *
b0000010100111001 ,
b0000010100111001 .
b1111 /
#150000000
0!
0'
#152500000
1!
b00110110 $
b01111110 %
1'
b00110110 )
b01111110 *
b0000010110110110 ,
b0000010110110110 .
b10000 /
#155000000
0!
0'
#157500000
1!
b01110000 $
b11110111 %
1'
b01110000 )
b11110111 *
b0000010111111110 ,
b0000010111111110 .
b10001 /
#160000000
0!
0'
#162500000
1!
b10010011 $
b01010001 %
1'
b10010011 )
b01010001 *
b0000011010000101 ,
b0000011010000101 .
b10010 /
#165000000
0!
0'
#167500000
1!
b10111110 $
b11110110 %
1'
b10111110 )
b11110110 *
b0000011011000111 ,
b0000011011000111 .
b10011 /
#170000000
0!
0'
#172500000
1!
b01101110 $
b10000101 %
1'
b01101110 )
b10000101 *
b0000011011111111 ,
b0000011011111111 .
b10100 /
#175000000
0!
0'
#177500000
1!
b00111001 $
b00100100 %
1'
b00111001 )
b00100100 *
b0000011100010110 ,
b0000011100010110 .
b10101 /
#180000000
0!
0'
#182500000
1!
b11111011 $
b11010100 %
1'
b11111011 )
b11010100 *
b0000011100101011 ,
b0000011100101011 .
b10110 /
#185000000
0!
0'
#187500000
1!
b01101011 $
b10100110 %
1'
b01101011 )
b10100110 *
b0000011101010010 ,
b0000011101010010 .
b10111 /
#190000000
0!
0'
#192500000
1!
b11001100 $
b10011100 %
1'
b11001100 )
b10011100 *
b0000011110001101 ,
b0000011110001101 .
b11000 /
#195000000
0!
0'
#197500000
1!
b01100011 $
b01111000 %
1'
b01100011 )
b01111000 *
b0000011110111101 ,
b0000011110111101 .
b11001 /
#200000000
0!
0'
#202500000
1!
b10000010 $
b01110000 %
1'
b10000010 )
b01110000 *
b0000011111010010 ,
b0000011111010010 .
b11010 /
#205000000
0!
0'
#207500000
1!
b01011011 $
b00001101 %
1'
b01011011 )
b00001101 *
b0000011111100100 ,
b0000011111100100 .
b11011 /
#210000000
0!
0'
#212500000
1!
b10101110 $
b10100010 %
1'
b10101110 )
b10100010 *
b0000100000110010 ,
b0000100000110010 .
b11100 /
#215000000
0!
0'
#217500000
1!
b01001001 $
b01110100 %
1'
b01001001 )
b01110100 *
b0000100000111110 ,
b0000100000111110 .
b11101 /
#220000000
0!
0'
#222500000
1!
b10110111 $
b01000110 %
1'
b10110111 )
b01000110 *
b0000100001101001 ,
b0000100001101001 .
b11110 /
#225000000
0!
0'
#227500000
1!
b01111010 $
b11000010 %
1'
b01111010 )
b11000010 *
b0000100011011010 ,
b0000100011011010 .
b11111 /
#230000000
0!
0'
#232500000
1!
b10111000 $
b00011010 %
1'
b10111000 )
b00011010 *
b0000100100100010 ,
b0000100100100010 .
b100000 /
#235000000
0!
0'
#237500000
1!
b00100000 $
b10000100 %
1'
b00100000 )
b10000100 *
b0000100111000000 ,
b0000100111000000 .
b100001 /
#240000000
0!
0'
#242500000
1!
b10111100 $
b10010110 %
1'
b10111100 )
b10010110 *
b0000101000100100 ,
b0000101000100100 .
b100010 /
#245000000
0!
0'
#247500000
1!
b11101011 $
b00010010 %
1'
b11101011 )
b00010010 *
b0000101001001010 ,
b0000101001001010 .
b100011 /
#250000000
0!
0'
#252500000
1!
b11101110 $
b11001111 %
1'
b11101110 )
b11001111 *
b0000101100100011 ,
b0000101100100011 .
b100100 /
#255000000
0!
0'
#257500000
1!
b11000110 $
b11110101 %
1'
b11000110 )
b11110101 *
b0000101101000010 ,
b0000101101000010 .
b100101 /
#260000000
0!
0'
#262500000
1!
b00100001 $
b11101101 %
1'
b00100001 )
b11101101 *
b0000101101110001 ,
b0000101101110001 .
b100110 /
#265000000
0!
0'
#267500000
1!
b10100010 $
b11010110 %
1'
b10100010 )
b11010110 *
b0000110000111101 ,
b0000110000111101 .
b100111 /
#270000000
0!
0'
#272500000
1!
b01101100 $
b00101100 %
1'
b01101100 )
b00101100 *
b0000110001110001 ,
b0000110001110001 .
b101000 /
#275000000
0!
0'
#277500000
1!
b11010000 $
b11001010 %
1'
b11010000 )
b11001010 *
b0000110010110001 ,
b0000110010110001 .
b101001 /
#280000000
0!
0'
#282500000
1!
b01101101 $
b00111000 %
1'
b01101101 )
b00111000 *
b0000110010110111 ,
b0000110010110111 .
b101010 /
#285000000
0!
0'
#287500000
1!
b00110010 $
b00101110 %
1'
b00110010 )
b00101110 *
b0000110011101100 ,
b0000110011101100 .
b101011 /
#290000000
0!
0'
#292500000
1!
b00111110 $
b00100111 %
1'
b00111110 )
b00100111 *
b0000110011110000 ,
b0000110011110000 .
b101100 /
#295000000
0!
0'
#297500000
1!
b11110100 $
b01101010 %
1'
b11110100 )
b01101010 *
b0000110100000111 ,
b0000110100000111 .
b101101 /
#300000000
0!
0'
#302500000
1!
b10110000 $
b00110011 %
1'
b10110000 )
b00110011 *
b0000110110010001 ,
b0000110110010001 .
b101110 /
#305000000
0!
0'
#307500000
1!
b00111111 $
b00111000 %
1'
b00111111 )
b00111000 *
b0000111000001110 ,
b0000111000001110 .
b101111 /
#310000000
0!
0'
#312500000
1!
b11101110 $
b11000100 %
1'
b11101110 )
b11000100 *
b0000111000010101 ,
b0000111000010101 .
b110000 /
#315000000
0!
0'
#317500000
1!
b11011110 $
b10001001 %
1'
b11011110 )
b10001001 *
b0000111000111111 ,
b0000111000111111 .
b110001 /
#320000000
0!
0'
#322500000
1!
b00011011 $
b01011110 %
1'
b00011011 )
b01011110 *
b0000111010010100 ,
b0000111010010100 .
b110010 /
#325000000
0!
0'
#327500000
1!
b10000100 $
b11011111 %
1'
b10000100 )
b11011111 *
b0000111011010111 ,
b0000111011010111 .
b110011 /
#330000000
0!
0'
#332500000
1!
b00010111 $
b00110000 %
1'
b00010111 )
b00110000 *
b0000111100110010 ,
b0000111100110010 .
b110100 /
#335000000
0!
0'
#337500000
1!
b00011001 $
b10010100 %
1'
b00011001 )
b10010100 *
b0000111101001011 ,
b0000111101001011 .
b110101 /
#340000000
0!
0'
#342500000
1!
b01100110 $
b00101111 %
1'
b01100110 )
b00101111 *
b0000111111000110 ,
b0000111111000110 .
b110110 /
#345000000
0!
0'
#347500000
1!
b11010100 $
b01110010 %
1'
b11010100 )
b01110010 *
b0000111111111101 ,
b0000111111111101 .
b110111 /
#350000000
0!
0'
#352500000
1!
b00110000 $
b10011001 %
1'
b00110000 )
b10011001 *
b0001000001011111 ,
b0001000001011111 .
b111000 /
#355000000
0!
0'
#357500000
1!
b00111111 $
b01101110 %
1'
b00111111 )
b01101110 *
b0001000011001000 ,
b0001000011001000 .
b111001 /
#360000000
0!
0'
#362500000
1!
b00011001 $
b01001010 %
1'
b00011001 )
b01001010 *
b0001000011110111 ,
b0001000011110111 .
b111010 /
#365000000
0!
0'
#367500000
1!
b01010011 $
b10000100 %
1'
b01010011 )
b10000100 *
b0001000100101000 ,
b0001000100101000 .
b111011 /
#370000000
0!
0'
#372500000
1!
b11100111 %
1'
b11100111 *
b0001000101011001 ,
b0001000101011001 .
b111100 /
#375000000
0!
0'
#377500000
1!
b01011011 $
b01010111 %
1'
b01011011 )
b01010111 *
b0001000111101101 ,
b0001000111101101 .
b111101 /
#380000000
0!
0'
#382500000
1!
b00110001 $
b11010111 %
1'
b00110001 )
b11010111 *
b0001000111110001 ,
b0001000111110001 .
b111110 /
#385000000
0!
0'
#387500000
1!
b11000100 $
b11100010 %
1'
b11000100 )
b11100010 *
b0001001010010111 ,
b0001001010010111 .
b111111 /
#390000000
0!
0'
#392500000
1!
b11000000 $
b10001000 %
1'
b11000000 )
b10001000 *
b0001001010110101 ,
b0001001010110101 .
b1000000 /
#395000000
0!
0'
#397500000
1!
b01101110 $
b01100011 %
1'
b01101110 )
b01100011 *
b0001001011101101 ,
b0001001011101101 .
b1000001 /
#400000000
0!
0'
#402500000
1!
b11101100 $
b00011001 %
1'
b11101100 )
b00011001 *
b0001001011111000 ,
b0001001011111000 .
b1000010 /
#405000000
0!
0'
#407500000
1!
b01011110 $
b01011111 %
1'
b01011110 )
b01011111 *
b0001001111001011 ,
b0001001111001011 .
b1000011 /
#410000000
0!
0'
#412500000
1!
b11010011 $
b10001110 %
1'
b11010011 )
b10001110 *
b0001001111001100 ,
b0001001111001100 .
b1000100 /
#415000000
0!
0'
#417500000
1!
b01010000 $
b00111000 %
1'
b01010000 )
b00111000 *
b0001010000010001 ,
b0001010000010001 .
b1000101 /
#420000000
0!
0'
#422500000
1!
b11001001 $
b01010000 %
1'
b11001001 )
b01010000 *
b0001010000101001 ,
b0001010000101001 .
b1000110 /
#425000000
0!
0'
#427500000
1!
b01000111 $
b01100100 %
1'
b01000111 )
b01100100 *
b0001010010100010 ,
b0001010010100010 .
b1000111 /
#430000000
0!
0'
#432500000
1!
b00101001 $
b00000101 %
1'
b00101001 )
b00000101 *
b0001010010111111 ,
b0001010010111111 .
b1001000 /
#435000000
0!
0'
#437500000
1!
b00110011 $
b10000010 %
1'
b00110011 )
b10000010 *
b0001010011100011 ,
b0001010011100011 .
b1001001 /
#440000000
0!
0'
#442500000
1!
b11111100 $
b11010111 %
1'
b11111100 )
b11010111 *
b0001010100110010 ,
b0001010100110010 .
b1001010 /
#445000000
0!
0'
#447500000
1!
b10010101 $
b01011000 %
1'
b10010101 )
b01011000 *
b0001010101010111 ,
b0001010101010111 .
b1001011 /
#450000000
0!
0'
#452500000
1!
b11111110 $
b11111111 %
1'
b11111110 )
b11111111 *
b0001010110010100 ,
b0001010110010100 .
b1001100 /
#455000000
0!
0'
#457500000
1!
b11111010 $
b11000110 %
1'
b11111010 )
b11000110 *
b0001010110010101 ,
b0001010110010101 .
b1001101 /
#460000000
0!
0'
#462500000
1!
b11110110 $
b00011011 %
1'
b11110110 )
b00011011 *
b0001010111001001 ,
b0001010111001001 .
b1001110 /
#465000000
0!
0'
#467500000
1!
b11010100 $
b10111110 %
1'
b11010100 )
b10111110 *
b0001011010100100 ,
b0001011010100100 .
b1001111 /
#470000000
0!
0'
#472500000
1!
b10010111 $
b00000100 %
1'
b10010111 )
b00000100 *
b0001011010111010 ,
b0001011010111010 .
b1010000 /
#475000000
0!
0'
#477500000
1!
b11011100 $
b10101100 %
1'
b11011100 )
b10101100 *
b0001011101001101 ,
b0001011101001101 .
b1010001 /
#480000000
0!
0'
#482500000
1!
b00011101 $
b11001111 %
1'
b00011101 )
b11001111 *
b0001011101111101 ,
b0001011101111101 .
b1010010 /
#485000000
0!
0'
#487500000
1!
b10100000 $
b00100000 %
1'
b10100000 )
b00100000 *
b0001100000101111 ,
b0001100000101111 .
b1010011 /
#490000000
0!
0'
#492500000
1!
b10001101 $
b01101001 %
1'
b10001101 )
b01101001 *
b0001100010101111 ,
b0001100010101111 .
b1010100 /
#495000000
0!
0'
#497500000
1!
b11100110 $
b11000111 %
1'
b11100110 )
b11000111 *
b0001100011010011 ,
b0001100011010011 .
b1010101 /
#500000000
0!
0'
#502500000
1!
b00101011 $
b10110100 %
1'
b00101011 )
b10110100 *
b0001100011110010 ,
b0001100011110010 .
b1010110 /
#505000000
0!
0'
#507500000
1!
b00010000 $
b00000000 %
1'
b00010000 )
b00000000 *
b0001100101111011 ,
b0001100101111011 .
b1010111 /
#510000000
0!
0'
#512500000
1!
b00100101 $
b00111101 %
1'
b00100101 )
b00111101 *
b0001100110001011 ,
b0001100110001011 .
b1011000 /
#515000000
0!
0'
#517500000
1!
b00100010 $
b11011000 %
1'
b00100010 )
b11011000 *
b0001100110100011 ,
b0001100110100011 .
b1011001 /
#520000000
0!
0'
#522500000
1!
b11010011 $
b01100001 %
1'
b11010011 )
b01100001 *
b0001101001011001 ,
b0001101001011001 .
b1011010 /
#525000000
0!
0'
#527500000
1!
b01011111 $
b11011010 %
1'
b01011111 )
b11011010 *
b0001101011001011 ,
b0001101011001011 .
b1011011 /
#530000000
0!
0'
#532500000
1!
b11101111 $
b01001110 %
1'
b11101111 )
b01001110 *
b0001101101000110 ,
b0001101101000110 .
b1011100 /
#535000000
0!
0'
#537500000
1!
b11010011 $
b11001001 %
1'
b11010011 )
b11001001 *
b0001101111100111 ,
b0001101111100111 .
b1011101 /
#540000000
0!
0'
#542500000
1!
b00000110 $
b01111001 %
1'
b00000110 )
b01111001 *
b0001101111110001 ,
b0001101111110001 .
b1011110 /
#545000000
0!
0'
#547500000
1!
b00111010 $
b01101111 %
1'
b00111010 )
b01101111 *
b0001110001100100 ,
b0001110001100100 .
b1011111 /
#550000000
0!
0'
#552500000
1!
b01101100 $
b01001011 %
1'
b01101100 )
b01001011 *
b0001110010011001 ,
b0001110010011001 .
b1100000 /
#555000000
0!
0'
#557500000
1!
b10001110 $
b11111001 %
1'
b10001110 )
b11111001 *
b0001110010111010 ,
b0001110010111010 .
b1100001 /
#560000000
0!
0'
#562500000
1!
b10100100 $
b10000110 %
1'
b10100100 )
b10000110 *
b0001110100100101 ,
b0001110100100101 .
b1100010 /
#565000000
0!
0'
#567500000
1!
b10110111 $
b11111011 %
1'
b10110111 )
b11111011 *
b0001110101000011 ,
b0001110101000011 .
b1100011 /
#570000000
0!
0'
#572500000
1!
b01011010 $
b01000101 %
1'
b01011010 )
b01000101 *
b0001110110000111 ,
b0001110110000111 .
b1100100 /
#575000000
0!
0'
#577500000
1!
b10001010 $
b01110000 %
1'
b10001010 )
b01110000 *
b0001110110011100 ,
b0001110110011100 .
b1100101 /
#580000000
0!
0'
#582500000
1!
b00111011 $
b01110001 %
1'
b00111011 )
b01110001 *
b0001110110110110 ,
b0001110110110110 .
b1100110 /
#585000000
0!
0'
#587500000
1!
b00110010 $
b00011001 %
1'
b00110010 )
b00011001 *
b0001110111101100 ,
b0001110111101100 .
b1100111 /
#590000000
0!
0'
#592500000
1!
b11111111 $
b11011111 %
1'
b11111111 )
b11011111 *
b0001111000000101 ,
b0001111000000101 .
b1101000 /
#595000000
0!
0'
#597500000
1!
b01001100 $
b00011111 %
1'
b01001100 )
b00011111 *
b0001111000100101 ,
b0001111000100101 .
b1101001 /
#600000000
0!
0'
#602500000
1!
b01001001 $
b01111110 %
1'
b01001001 )
b01111110 *
b0001111001010010 ,
b0001111001010010 .
b1101010 /
#605000000
0!
0'
#607500000
1!
b01001101 $
b11011110 %
1'
b01001101 )
b11011110 *
b0001111010000111 ,
b0001111010000111 .
b1101011 /
#610000000
0!
0'
#612500000
1!
b01101110 $
b00001101 %
1'
b01101110 )
b00001101 *
b0001111100011000 ,
b0001111100011000 .
b1101100 /
#615000000
0!
0'
#617500000
1!
b11100111 $
b00000101 %
1'
b11100111 )
b00000101 *
b0001111101111001 ,
b0001111101111001 .
b1101101 /
#620000000
0!
0'
#622500000
1!
b01101001 $
b01001100 %
1'
b01101001 )
b01001100 *
b0010000001011011 ,
b0010000001011011 .
b1101110 /
#625000000
0!
0'
#627500000
1!
b00000010 $
b11010010 %
1'
b00000010 )
b11010010 *
b0010000001111000 ,
b0010000001111000 .
b1101111 /
#630000000
0!
0'
#632500000
1!
b11101110 $
b00010110 %
1'
b11101110 )
b00010110 *
b0010000101001000 ,
b0010000101001000 .
b1110000 /
#635000000
0!
0'
#637500000
1!
b10100010 $
b00000011 %
1'
b10100010 )
b00000011 *
b0010001000100000 ,
b0010001000100000 .
b1110001 /
#640000000
0!
0'
#642500000
1!
b11000111 $
b10001100 %
1'
b11000111 )
b10001100 *
b0010001010111111 ,
b0010001010111111 .
b1110010 /
#645000000
0!
0'
#647500000
1!
b10110000 $
b10010110 %
1'
b10110000 )
b10010110 *
b0010001011111010 ,
b0010001011111010 .
b1110011 /
#650000000
0!
0'
#652500000
1!
b11000000 $
b00010111 %
1'
b11000000 )
b00010111 *
b0010001100010100 ,
b0010001100010100 .
b1110100 /
#655000000
0!
0'
#657500000
1!
b01111010 $
b10111000 %
1'
b01111010 )
b10111000 *
b0010001110111101 ,
b0010001110111101 .
b1110101 /
#660000000
0!
0'
#662500000
1!
b11100101 $
b01100010 %
1'
b11100101 )
b01100010 *
b0010001111111011 ,
b0010001111111011 .
b1110110 /
#665000000
0!
0'
#667500000
1!
b11011011 $
b01000000 %
1'
b11011011 )
b01000000 *
b0010010001111110 ,
b0010010001111110 .
b1110111 /
#670000000
0!
0'
#672500000
1!
b10011000 $
b11000111 %
1'
b10011000 )
b11000111 *
b0010010100011001 ,
b0010010100011001 .
b1111000 /
#675000000
0!
0'
#677500000
1!
b01010000 $
b10010010 %
1'
b01010000 )
b10010010 *
b0010010101001000 ,
b0010010101001000 .
b1111001 /
#680000000
0!
0'
#682500000
1!
b11001010 $
b00011011 %
1'
b11001010 )
b00011011 *
b0010010110001010 ,
b0010010110001010 .
b1111010 /
#685000000
0!
0'
#687500000
1!
b11101010 $
b01110100 %
1'
b11101010 )
b01110100 *
b0010011000111001 ,
b0010011000111001 .
b1111011 /
#690000000
0!
0'
#692500000
1!
b01001100 $
b01010110 %
1'
b01001100 )
b01010110 *
b0010011010101111 ,
b0010011010101111 .
b1111100 /
#695000000
0!
0'
#697500000
1!
b00111110 $
b11010000 %
1'
b00111110 )
b11010000 *
b0010011010111001 ,
b0010011010111001 .
b1111101 /
#700000000
0!
0'
#702500000
1!
b10111011 $
b11001100 %
1'
b10111011 )
b11001100 *
b0010011101001011 ,
b0010011101001011 .
b1111110 /
#705000000
0!
0'
#707500000
1!
b00010100 $
b10011110 %
1'
b00010100 )
b10011110 *
b0010011101011100 ,
b0010011101011100 .
b1111111 /
#710000000
0!
0'
#712500000
1!
b01000011 $
b10011100 %
1'
b01000011 )
b10011100 *
b0010011111100110 ,
b0010011111100110 .
b10000000 /
#715000000
0!
0'
#717500000
1!
b00001011 $
b10111001 %
1'
b00001011 )
b10111001 *
b0010100000111111 ,
b0010100000111111 .
b10000001 /
#720000000
0!
0'
#722500000
1!
b11010010 $
b00100001 %
1'
b11010010 )
b00100001 *
b0010100011101101 ,
b0010100011101101 .
b10000010 /
#725000000
0!
0'
#727500000
1!
b10001001 $
b11110001 %
1'
b10001001 )
b11110001 *
b0010100110011110 ,
b0010100110011110 .
b10000011 /
#730000000
0!
0'
#732500000
1!
b00101011 $
b01101011 %
1'
b00101011 )
b01101011 *
b0010101000000110 ,
b0010101000000110 .
b10000100 /
#735000000
0!
0'
#737500000
1!
b01001100 $
b10000001 %
1'
b01001100 )
b10000001 *
b0010101001000110 ,
b0010101001000110 .
b10000101 /
#740000000
0!
0'
#742500000
1!
b11100000 $
b01101011 %
1'
b11100000 )
b01101011 *
b0010101001111011 ,
b0010101001111011 .
b10000110 /
#745000000
0!
0'
#747500000
1!
b01011111 $
b10110010 %
1'
b01011111 )
b10110010 *
b0010101011110000 ,
b0010101011110000 .
b10000111 /
#750000000
0!
0'
#752500000
1!
b00010010 $
b01010101 %
1'
b00010010 )
b01010101 *
b0010101101000011 ,
b0010101101000011 .
b10001000 /
#755000000
0!
0'
#757500000
1!
b01011111 $
b11101111 %
1'
b01011111 )
b11101111 *
b0010101110000110 ,
b0010101110000110 .
b10001001 /
#760000000
0!
0'
#762500000
1!
b10010011 $
b11001011 %
1'
b10010011 )
b11001011 *
b0010110000010110 ,
b0010110000010110 .
b10001010 /
#765000000
0!
0'
#767500000
1!
b11111100 $
b10110110 %
1'
b11111100 )
b10110110 *
b0010110001001110 ,
b0010110001001110 .
b10001011 /
#770000000
0!
0'
#772500000
1!
b01010100 $
b11000100 %
1'
b01010100 )
b11000100 *
b0010110010010100 ,
b0010110010010100 .
b10001100 /
#775000000
0!
0'
#777500000
1!
b11111001 $
b01111111 %
1'
b11111001 )
b01111111 *
b0010110100000100 ,
b0010110100000100 .
b10001101 /
#780000000
0!
0'
#782500000
1!
b10010010 $
b00011111 %
1'
b10010010 )
b00011111 *
b0010110101111110 ,
b0010110101111110 .
b10001110 /
#785000000
0!
0'
#787500000
1!
b10100001 $
b10101010 %
1'
b10100001 )
b10101010 *
b0010110111110001 ,
b0010110111110001 .
b10001111 /
#790000000
0!
0'
#792500000
1!
b01100110 $
b00101001 %
1'
b01100110 )
b00101001 *
b0010110111111010 ,
b0010110111111010 .
b10010000 /
#795000000
0!
0'
#797500000
1!
b01001110 $
b00001011 %
1'
b01001110 )
b00001011 *
b0010111000110111 ,
b0010111000110111 .
b10010001 /
#800000000
0!
0'
#802500000
1!
b01011011 $
b10000011 %
1'
b01011011 )
b10000011 *
b0010111001111010 ,
b0010111001111010 .
b10010010 /
#805000000
0!
0'
#807500000
1!
b11010011 $
b10001101 %
1'
b11010011 )
b10001101 *
b0010111010100010 ,
b0010111010100010 .
b10010011 /
#810000000
0!
0'
#812500000
1!
b00111001 $
b00001001 %
1'
b00111001 )
b00001001 *
b0010111011101000 ,
b0010111011101000 .
b10010100 /
#815000000
0!
0'
#817500000
1!
b10000011 $
b01110101 %
1'
b10000011 )
b01110101 *
b0010111100011000 ,
b0010111100011000 .
b10010101 /
#820000000
0!
0'
#822500000
1!
b01011101 $
b00000110 %
1'
b01011101 )
b00000110 *
b0010111100100110 ,
b0010111100100110 .
b10010110 /
#825000000
0!
0'
#827500000
1!
b01100001 $
b10110101 %
1'
b01100001 )
b10110101 *
b0010111101111101 ,
b0010111101111101 .
b10010111 /
#830000000
0!
0'
#832500000
1!
b10011100 $
b01110111 %
1'
b10011100 )
b01110111 *
b0010111111010001 ,
b0010111111010001 .
b10011000 /
#835000000
0!
0'
#837500000
1!
b01011100 $
b01101011 %
1'
b01011100 )
b01101011 *
b0010111111110110 ,
b0010111111110110 .
b10011001 /
#840000000
0!
0'
#842500000
1!
b01111001 $
b10001110 %
1'
b01111001 )
b10001110 *
b0011000000000101 ,
b0011000000000101 .
b10011010 /
#845000000
0!
0'
#847500000
1!
b01010100 $
b01010110 %
1'
b01010100 )
b01010110 *
b0011000000011010 ,
b0011000000011010 .
b10011011 /
#850000000
0!
0'
#852500000
1!
b11101111 $
b01000010 %
1'
b11101111 )
b01000010 *
b0011000000011100 ,
b0011000000011100 .
b10011100 /
#855000000
0!
0'
#857500000
1!
b01010011 $
b00110010 %
1'
b01010011 )
b00110010 *
b0011000011001001 ,
b0011000011001001 .
b10011101 /
#860000000
0!
0'
#862500000
1!
b10110000 $
b00010010 %
1'
b10110000 )
b00010010 *
b0011000011101010 ,
b0011000011101010 .
b10011110 /
#865000000
0!
0'
#867500000
1!
b01111100 $
b11100010 %
1'
b01111100 )
b11100010 *
b0011000110001000 ,
b0011000110001000 .
b10011111 /
#870000000
0!
0'
#872500000
1!
b01010000 $
b01110001 %
1'
b01010000 )
b01110001 *
b0011000111101110 ,
b0011000111101110 .
b10100000 /
#875000000
0!
0'
#877500000
1!
b00011010 $
b10101111 %
1'
b00011010 )
b10101111 *
b0011001000001111 ,
b0011001000001111 .
b10100001 /
#880000000
0!
0'
#882500000
1!
b11100001 $
b11110100 %
1'
b11100001 )
b11110100 *
b0011001010100100 ,
b0011001010100100 .
b10100010 /
#885000000
0!
0'
#887500000
1!
b01100010 $
b11110011 %
1'
b01100010 )
b11110011 *
b0011001010110111 ,
b0011001010110111 .
b10100011 /
#890000000
0!
0'
#892500000
1!
b00111111 $
b11011110 %
1'
b00111111 )
b11011110 *
b0011001101001000 ,
b0011001101001000 .
b10100100 /
#895000000
0!
0'
#897500000
1!
b11100100 $
b00101110 %
1'
b11100100 )
b00101110 *
b0011001111100111 ,
b0011001111100111 .
b10100101 /
#900000000
0!
0'
#902500000
1!
b10111110 $
b10111001 %
1'
b10111110 )
b10111001 *
b0011010010011101 ,
b0011010010011101 .
b10100110 /
#905000000
0!
0'
#907500000
1!
b11100000 $
b00000110 %
1'
b11100000 )
b00000110 *
b0011010010100010 ,
b0011010010100010 .
b10100111 /
#910000000
0!
0'
#912500000
1!
b00110000 $
b10110110 %
1'
b00110000 )
b10110110 *
b0011010101111100 ,
b0011010101111100 .
b10101000 /
#915000000
0!
0'
#917500000
1!
b11110011 $
b00011101 %
1'
b11110011 )
b00011101 *
b0011011000000010 ,
b0011011000000010 .
b10101001 /
#920000000
0!
0'
#922500000
1!
b10010011 $
b00010110 %
1'
b10010011 )
b00010110 *
b0011011011011000 ,
b0011011011011000 .
b10101010 /
#925000000
0!
0'
#927500000
1!
b00011110 $
b11101111 %
1'
b00011110 )
b11101111 *
b0011011101010101 ,
b0011011101010101 .
b10101011 /
#930000000
0!
0'
#932500000
1!
b01101111 $
b01101000 %
1'
b01101111 )
b01101000 *
b0011100000100110 ,
b0011100000100110 .
b10101100 /
#935000000
0!
0'
#937500000
1!
b01011100 $
b11001110 %
1'
b01011100 )
b11001110 *
b0011100000101101 ,
b0011100000101101 .
b10101101 /
#940000000
0!
0'
#942500000
1!
b11010001 $
b01110011 %
1'
b11010001 )
b01110011 *
b0011100010011111 ,
b0011100010011111 .
b10101110 /
#945000000
0!
0'
#947500000
1!
b11101111 $
b01010011 %
1'
b11101111 )
b01010011 *
b0011100011111101 ,
b0011100011111101 .
b10101111 /
#950000000
0!
0'
#952500000
1!
b11100111 $
b11101100 %
1'
b11100111 )
b11101100 *
b0011100110011001 ,
b0011100110011001 .
b10110000 /
#955000000
0!
0'
#957500000
1!
b11010101 $
b01000111 %
1'
b11010101 )
b01000111 *
b0011100110011110 ,
b0011100110011110 .
b10110001 /
#960000000
0!
0'
#962500000
1!
b01001111 $
b01000011 %
1'
b01001111 )
b01000011 *
b0011101000101100 ,
b0011101000101100 .
b10110010 /
#965000000
0!
0'
#967500000
1!
b00111100 $
b10100010 %
1'
b00111100 )
b10100010 *
b0011101000111000 ,
b0011101000111000 .
b10110011 /
#970000000
0!
0'
#972500000
1!
b01111110 $
b10101101 %
1'
b01111110 )
b10101101 *
b0011101010011110 ,
b0011101010011110 .
b10110100 /
#975000000
0!
0'
#977500000
1!
b10110110 $
b00010000 %
1'
b10110110 )
b00010000 *
b0011101011001101 ,
b0011101011001101 .
b10110101 /
#980000000
0!
0'
#982500000
1!
b00011111 $
b10110110 %
1'
b00011111 )
b10110110 *
b0011101101110011 ,
b0011101101110011 .
b10110110 /
#985000000
0!
0'
#987500000
1!
b00010100 $
b10011110 %
1'
b00010100 )
b10011110 *
b0011110000001010 ,
b0011110000001010 .
b10110111 /
#990000000
0!
0'
#992500000
1!
b10000011 $
b01111100 %
1'
b10000011 )
b01111100 *
b0011110010010100 ,
b0011110010010100 .
b10111000 /
#995000000
0!
0'
