waveforms/tb_subtractor.vcd
$date
  Mon May 21 10:14:15 2018
$end
$version
  GHDL v0
$end
$timescale
  1 fs
$end
$var reg 16 ! a[15:0] $end
$var reg 16 " b[15:0] $end
$scope module i_pas $end
$var reg 16 # a[15:0] $end
$var reg 16 $ b[15:0] $end
$var reg 16 % s[15:0] $end
$upscope $end
$enddefinitions $end
#0
b0001000000100000 !
b0001000000110001 "
b0001000000100000 #
b0001000000110001 $
b0000000000010001 %
#25000000
b0000000100010000 !
b0000001000110001 "
b0000000100010000 #
b0000001000110001 $
b0000000100100001 %
#50000000
b0100000100010000 !
b0100000100010000 "
b0100000100010000 #
b0100000100010000 $
b0000000000000000 %
#75000000
b0001110110010000 !
b0001110000000001 "
b0001110110010000 #
b0001110000000001 $
b0000000110001111 %
#100000000
b0001000100010000 !
b0001000000000001 "
b0001000100010000 #
b0001000000000001 $
b0000000100001111 %
#125000000
b0001000000000000 !
b0000000000001111 "
b0001000000000000 #
b0000000000001111 $
b0000111111110001 %
#150000000
b0000000000000100 !
b0000101000001111 "
b0000000000000100 #
b0000101000001111 $
b0000101000001011 %
#175000000
b0000000011111111 !
b0000001010100000 "
b0000000011111111 #
b0000001010100000 $
b0000000110100001 %
#200000000
b0001000000000000 !
b0000000100000001 "
b0001000000000000 #
b0000000100000001 $
b0000111011111111 %
#225000000
b0001000100010001 !
b0000000000000001 "
b0001000100010001 #
b0000000000000001 $
b0001000100010000 %
#250000000
b0001000100000001 !
b0001000100010001 "
b0001000100000001 #
b0001000100010001 $
b0000000000010000 %
#275000000
b0001110000000001 !
b0001000000010001 "
b0001110000000001 #
b0001000000010001 $
b0000101111110000 %
