waveforms/tb_tff.vcd
$date
  Sun May 20 12:05:28 2018
$end
$version
  GHDL v0
$end
$timescale
  1 fs
$end
$var reg 1 ! clk $end
$var reg 1 " rst $end
$var reg 1 # t $end
$var reg 1 $ clk_go $end
$scope module i_dut $end
$var reg 1 % clk $end
$var reg 1 & rst $end
$var reg 1 ' t $end
$var reg 1 ( q $end
$var reg 1 ) fb $end
$var reg 1 * txorq $end
$scope module i_dff $end
$var reg 1 + clk $end
$var reg 1 , rst $end
$var reg 1 - d $end
$var reg 1 . q $end
$upscope $end
$upscope $end
$enddefinitions $end
#0
0!
1"
0#
1$
0%
1&
0'
0(
0)
0*
0+
1,
0-
0.
#50000000
1!
1%
1+
#100000000
0!
0%
0+
#123000000
0"
1#
0&
1'
1*
0,
1-
#150000000
1!
1%
1(
1)
0*
1+
0-
1.
#155000000
#200000000
0!
0%
0+
#250000000
1!
1%
0(
0)
1*
1+
1-
0.
#300000000
0!
0%
0+
#350000000
1!
1%
1(
1)
0*
1+
0-
1.
#400000000
0!
0%
0+
#450000000
1!
1%
0(
0)
1*
1+
1-
0.
#500000000
0!
0%
0+
#542000000
0#
0'
0*
0-
#550000000
1!
1%
1+
#600000000
0!
0%
0+
#650000000
1!
1%
1+
#665000000
1"
1&
1,
