waveforms/tb_upcounter.vcd
$date
  Wed May 23 12:26:27 2018
$end
$version
  GHDL v0
$end
$timescale
  1 fs
$end
$var reg 1 ! clk $end
$var reg 1 " count_enable $end
$var reg 1 # rst $end
$var reg 1 $ clk_go $end
$scope module i_dut $end
$var reg 1 % count_puls $end
$var reg 1 & count_enable $end
$var reg 1 ' rst $end
$var reg 8 ( q[7:0] $end
$var reg 1 ) tc $end
$var reg 8 * internal[7:0] $end
$upscope $end
$enddefinitions $end
#0
0!
1"
1#
1$
0%
1&
1'
bUUUUUUUU (
0)
bUUUUUUUU *
#5000000
1!
1%
b00000000 (
b00000000 *
#10000000
0!
0%
#15000000
1!
1%
#20000000
0!
0%
#21000000
#25000000
1!
1%
#30000000
0!
0%
#35000000
1!
1%
#40000000
0!
0%
#45000000
1!
1%
#50000000
0!
0%
#55000000
1!
1%
#60000000
0!
0%
#65000000
1!
1%
#70000000
0!
0%
#75000000
1!
1%
#80000000
0!
0%
#85000000
1!
1%
#90000000
0!
0%
#95000000
1!
1%
#100000000
0!
0%
#105000000
1!
1%
#110000000
0!
0%
#115000000
1!
1%
#120000000
0!
0%
#125000000
1!
1%
#130000000
0!
0%
#135000000
1!
1%
#140000000
0!
0%
#145000000
1!
1%
#150000000
0!
0%
#155000000
1!
1%
#160000000
0!
0%
#165000000
1!
1%
#170000000
0!
0%
#175000000
1!
1%
#180000000
0!
0%
#185000000
1!
1%
#190000000
0!
0%
#195000000
1!
1%
#200000000
0!
0%
#205000000
1!
1%
#210000000
0!
0%
#215000000
1!
1%
#220000000
0!
0%
#225000000
1!
1%
#230000000
0!
0%
#235000000
1!
1%
#240000000
0!
0%
#242000000
0#
0'
#245000000
1!
1%
b00000001 (
b00000001 *
#250000000
0!
0%
#255000000
1!
1%
b00000010 (
b00000010 *
#260000000
0!
0%
#265000000
1!
1%
b00000011 (
b00000011 *
#270000000
0!
0%
#275000000
1!
1%
b00000100 (
b00000100 *
#280000000
0!
0%
#285000000
1!
1%
b00000101 (
b00000101 *
#290000000
0!
0%
#295000000
1!
1%
b00000110 (
b00000110 *
#300000000
0!
0%
#305000000
1!
1%
b00000111 (
b00000111 *
#310000000
0!
0%
#315000000
1!
1%
b00001000 (
b00001000 *
#320000000
0!
0%
#325000000
1!
1%
b00001001 (
b00001001 *
#330000000
0!
0%
#332000000
1#
1'
#335000000
1!
1%
b00000000 (
b00000000 *
#340000000
0!
0%
#345000000
1!
1%
#350000000
0!
0#
0%
0'
#355000000
1!
1%
b00000001 (
b00000001 *
#360000000
0!
0%
#365000000
1!
1%
b00000010 (
b00000010 *
#370000000
0!
0%
#375000000
1!
1%
b00000011 (
b00000011 *
#380000000
0!
0%
#385000000
1!
1%
b00000100 (
b00000100 *
#390000000
0!
0%
#395000000
1!
1%
b00000101 (
b00000101 *
#400000000
0!
0%
#405000000
1!
1%
b00000110 (
b00000110 *
#410000000
0!
0%
#415000000
1!
1%
b00000111 (
b00000111 *
#420000000
0!
0%
#425000000
1!
1%
b00001000 (
b00001000 *
#427000000
0"
0&
#430000000
0!
0%
#435000000
1!
1%
#440000000
0!
0%
#445000000
1!
1%
#450000000
0!
0%
#455000000
1!
1%
#460000000
0!
0%
#465000000
1!
1%
#470000000
0!
0%
#475000000
1!
1%
#480000000
0!
0%
#485000000
1!
1%
#490000000
0!
0%
#495000000
1!
1%
#500000000
0!
0%
#505000000
1!
1%
#510000000
0!
0%
#515000000
1!
1"
1%
1&
#520000000
0!
0%
#525000000
1!
1%
b00001001 (
b00001001 *
#530000000
0!
0%
#535000000
1!
1%
b00001010 (
b00001010 *
#540000000
0!
0%
#545000000
1!
1%
b00001011 (
b00001011 *
#550000000
0!
0%
#555000000
1!
1%
b00001100 (
b00001100 *
#560000000
0!
0%
#565000000
1!
1%
b00001101 (
b00001101 *
#570000000
0!
0%
#575000000
1!
1%
b00001110 (
b00001110 *
#580000000
0!
0%
#585000000
1!
1%
b00001111 (
b00001111 *
#590000000
0!
0%
#595000000
1!
1%
b00010000 (
b00010000 *
#600000000
0!
0%
#605000000
1!
1%
b00010001 (
b00010001 *
#610000000
0!
0%
#615000000
1!
1%
b00010010 (
b00010010 *
#620000000
0!
0%
#625000000
1!
1%
b00010011 (
b00010011 *
#630000000
0!
0%
#635000000
1!
1%
b00010100 (
b00010100 *
#640000000
0!
0%
#645000000
1!
1%
b00010101 (
b00010101 *
#650000000
0!
0%
#655000000
1!
1%
b00010110 (
b00010110 *
#660000000
0!
0%
#665000000
1!
1%
b00010111 (
b00010111 *
#670000000
0!
0%
#675000000
1!
1%
b00011000 (
b00011000 *
#680000000
0!
0%
#685000000
1!
1%
b00011001 (
b00011001 *
#690000000
0!
0%
#695000000
1!
1%
b00011010 (
b00011010 *
#700000000
0!
0%
#705000000
1!
1%
b00011011 (
b00011011 *
#710000000
0!
0%
#715000000
1!
1%
b00011100 (
b00011100 *
#720000000
0!
0%
#725000000
1!
1%
b00011101 (
b00011101 *
#730000000
0!
0%
#735000000
1!
1%
b00011110 (
b00011110 *
#740000000
0!
0%
#745000000
1!
1%
b00011111 (
b00011111 *
#750000000
0!
0%
#755000000
1!
1%
b00100000 (
b00100000 *
#760000000
0!
0%
#765000000
1!
1%
b00100001 (
b00100001 *
#770000000
0!
0%
#775000000
1!
1%
b00100010 (
b00100010 *
#780000000
0!
0%
#785000000
1!
1%
b00100011 (
b00100011 *
#790000000
0!
0%
#795000000
1!
1%
b00100100 (
b00100100 *
#800000000
0!
0%
#805000000
1!
1%
b00100101 (
b00100101 *
#810000000
0!
0%
#815000000
1!
1%
b00100110 (
b00100110 *
#820000000
0!
0%
#825000000
1!
1%
b00100111 (
b00100111 *
#830000000
0!
0%
#835000000
1!
1%
b00101000 (
b00101000 *
#840000000
0!
0%
#845000000
1!
1%
b00101001 (
b00101001 *
#850000000
0!
0%
#855000000
1!
1%
b00101010 (
b00101010 *
#860000000
0!
0%
#865000000
1!
1%
b00101011 (
b00101011 *
#870000000
0!
0%
#875000000
1!
1%
b00101100 (
b00101100 *
#880000000
0!
0%
#885000000
1!
1%
b00101101 (
b00101101 *
#890000000
0!
0%
#895000000
1!
1%
b00101110 (
b00101110 *
#900000000
0!
0%
#905000000
1!
1%
b00101111 (
b00101111 *
#910000000
0!
0%
#915000000
1!
1%
b00110000 (
b00110000 *
#920000000
0!
0%
#925000000
1!
1%
b00110001 (
b00110001 *
#930000000
0!
0%
#935000000
1!
1%
b00110010 (
b00110010 *
#940000000
0!
0%
#945000000
1!
1%
b00110011 (
b00110011 *
#950000000
0!
0%
#955000000
1!
1%
b00110100 (
b00110100 *
#960000000
0!
0%
#965000000
1!
1%
b00110101 (
b00110101 *
#970000000
0!
0%
#975000000
1!
1%
b00110110 (
b00110110 *
#980000000
0!
0%
#985000000
1!
1%
b00110111 (
b00110111 *
#990000000
0!
0%
#995000000
1!
1%
b00111000 (
b00111000 *
#1000000000
0!
0%
#1005000000
1!
1%
b00111001 (
b00111001 *
#1010000000
0!
0%
#1015000000
1!
1%
b00111010 (
b00111010 *
#1020000000
0!
0%
#1025000000
1!
1%
b00111011 (
b00111011 *
#1030000000
0!
0%
#1035000000
1!
1%
b00111100 (
b00111100 *
#1040000000
0!
0%
#1045000000
1!
1%
b00111101 (
b00111101 *
#1050000000
0!
0%
#1055000000
1!
1%
b00111110 (
b00111110 *
#1060000000
0!
0%
#1065000000
1!
1%
b00111111 (
b00111111 *
#1070000000
0!
0%
#1075000000
1!
1%
b01000000 (
b01000000 *
#1080000000
0!
0%
#1085000000
1!
1%
b01000001 (
b01000001 *
#1090000000
0!
0%
#1095000000
1!
1%
b01000010 (
b01000010 *
#1100000000
0!
0%
#1105000000
1!
1%
b01000011 (
b01000011 *
#1110000000
0!
0%
#1115000000
1!
1%
b01000100 (
b01000100 *
#1120000000
0!
0%
#1125000000
1!
1%
b01000101 (
b01000101 *
#1130000000
0!
0%
#1135000000
1!
1%
b01000110 (
b01000110 *
#1140000000
0!
0%
#1145000000
1!
1%
b01000111 (
b01000111 *
#1150000000
0!
0%
#1155000000
1!
1%
b01001000 (
b01001000 *
#1160000000
0!
0%
#1165000000
1!
1%
b01001001 (
b01001001 *
#1170000000
0!
0%
#1175000000
1!
1%
b01001010 (
b01001010 *
#1180000000
0!
0%
#1185000000
1!
1%
b01001011 (
b01001011 *
#1190000000
0!
0%
#1195000000
1!
1%
b01001100 (
b01001100 *
#1200000000
0!
0%
#1205000000
1!
1%
b01001101 (
b01001101 *
#1210000000
0!
0%
#1215000000
1!
1%
b01001110 (
b01001110 *
#1220000000
0!
0%
#1225000000
1!
1%
b01001111 (
b01001111 *
#1230000000
0!
0%
#1235000000
1!
1%
b01010000 (
b01010000 *
#1240000000
0!
0%
#1245000000
1!
1%
b01010001 (
b01010001 *
#1250000000
0!
0%
#1255000000
1!
1%
b01010010 (
b01010010 *
#1260000000
0!
0%
#1265000000
1!
1%
b01010011 (
b01010011 *
#1270000000
0!
0%
#1275000000
1!
1%
b01010100 (
b01010100 *
#1280000000
0!
0%
#1285000000
1!
1%
b01010101 (
b01010101 *
#1290000000
0!
0%
#1295000000
1!
1%
b01010110 (
b01010110 *
#1300000000
0!
0%
#1305000000
1!
1%
b01010111 (
b01010111 *
#1310000000
0!
0%
#1315000000
1!
1%
b01011000 (
b01011000 *
#1320000000
0!
0%
#1325000000
1!
1%
b01011001 (
b01011001 *
#1330000000
0!
0%
#1335000000
1!
1%
b01011010 (
b01011010 *
#1340000000
0!
0%
#1345000000
1!
1%
b01011011 (
b01011011 *
#1350000000
0!
0%
#1355000000
1!
1%
b01011100 (
b01011100 *
#1360000000
0!
0%
#1365000000
1!
1%
b01011101 (
b01011101 *
#1370000000
0!
0%
#1375000000
1!
1%
b01011110 (
b01011110 *
#1380000000
0!
0%
#1385000000
1!
1%
b01011111 (
b01011111 *
#1390000000
0!
0%
#1395000000
1!
1%
b01100000 (
b01100000 *
#1400000000
0!
0%
#1405000000
1!
1%
b01100001 (
b01100001 *
#1410000000
0!
0%
#1415000000
1!
1%
b01100010 (
b01100010 *
#1420000000
0!
0%
#1425000000
1!
1%
b01100011 (
b01100011 *
#1430000000
0!
0%
#1435000000
1!
1%
b01100100 (
b01100100 *
#1440000000
0!
0%
#1445000000
1!
1%
b01100101 (
b01100101 *
#1450000000
0!
0%
#1455000000
1!
1%
b01100110 (
b01100110 *
#1460000000
0!
0%
#1465000000
1!
1%
b01100111 (
b01100111 *
#1470000000
0!
0%
#1475000000
1!
1%
b01101000 (
b01101000 *
#1480000000
0!
0%
#1485000000
1!
1%
b01101001 (
b01101001 *
#1490000000
0!
0%
#1495000000
1!
1%
b01101010 (
b01101010 *
#1500000000
0!
0%
#1505000000
1!
1%
b01101011 (
b01101011 *
#1510000000
0!
0%
#1515000000
1!
1%
b01101100 (
b01101100 *
#1520000000
0!
0%
#1525000000
1!
1%
b01101101 (
b01101101 *
#1530000000
0!
0%
#1535000000
1!
1%
b01101110 (
b01101110 *
#1540000000
0!
0%
#1545000000
1!
1%
b01101111 (
b01101111 *
#1550000000
0!
0%
#1555000000
1!
1%
b01110000 (
b01110000 *
#1560000000
0!
0%
#1565000000
1!
1%
b01110001 (
b01110001 *
#1570000000
0!
0%
#1575000000
1!
1%
b01110010 (
b01110010 *
#1580000000
0!
0%
#1585000000
1!
1%
b01110011 (
b01110011 *
#1590000000
0!
0%
#1595000000
1!
1%
b01110100 (
b01110100 *
#1600000000
0!
0%
#1605000000
1!
1%
b01110101 (
b01110101 *
#1610000000
0!
0%
#1615000000
1!
1%
b01110110 (
b01110110 *
#1620000000
0!
0%
#1625000000
1!
1%
b01110111 (
b01110111 *
#1630000000
0!
0%
#1635000000
1!
1%
b01111000 (
b01111000 *
#1640000000
0!
0%
#1645000000
1!
1%
b01111001 (
b01111001 *
#1650000000
0!
0%
#1655000000
1!
1%
b01111010 (
b01111010 *
#1660000000
0!
0%
#1665000000
1!
1%
b01111011 (
b01111011 *
#1670000000
0!
0%
#1675000000
1!
1%
b01111100 (
b01111100 *
#1680000000
0!
0%
#1685000000
1!
1%
b01111101 (
b01111101 *
#1690000000
0!
0%
#1695000000
1!
1%
b01111110 (
b01111110 *
#1700000000
0!
0%
#1705000000
1!
1%
b01111111 (
b01111111 *
#1710000000
0!
0%
#1715000000
1!
1%
b10000000 (
b10000000 *
#1720000000
0!
0%
#1725000000
1!
1%
b10000001 (
b10000001 *
#1730000000
0!
0%
#1735000000
1!
1%
b10000010 (
b10000010 *
#1740000000
0!
0%
#1745000000
1!
1%
b10000011 (
b10000011 *
#1750000000
0!
0%
#1755000000
1!
1%
b10000100 (
b10000100 *
#1760000000
0!
0%
#1765000000
1!
1%
b10000101 (
b10000101 *
#1770000000
0!
0%
#1775000000
1!
1%
b10000110 (
b10000110 *
#1780000000
0!
0%
#1785000000
1!
1%
b10000111 (
b10000111 *
#1790000000
0!
0%
#1795000000
1!
1%
b10001000 (
b10001000 *
#1800000000
0!
0%
#1805000000
1!
1%
b10001001 (
b10001001 *
#1810000000
0!
0%
#1815000000
1!
1%
b10001010 (
b10001010 *
#1820000000
0!
0%
#1825000000
1!
1%
b10001011 (
b10001011 *
#1830000000
0!
0%
#1835000000
1!
1%
b10001100 (
b10001100 *
#1840000000
0!
0%
#1845000000
1!
1%
b10001101 (
b10001101 *
#1850000000
0!
0%
#1855000000
1!
1%
b10001110 (
b10001110 *
#1860000000
0!
0%
#1865000000
1!
1%
b10001111 (
b10001111 *
#1870000000
0!
0%
#1875000000
1!
1%
b10010000 (
b10010000 *
#1880000000
0!
0%
#1885000000
1!
1%
b10010001 (
b10010001 *
#1890000000
0!
0%
#1895000000
1!
1%
b10010010 (
b10010010 *
#1900000000
0!
0%
#1905000000
1!
1%
b10010011 (
b10010011 *
#1910000000
0!
0%
#1915000000
1!
1%
b10010100 (
b10010100 *
#1920000000
0!
0%
#1925000000
1!
1%
b10010101 (
b10010101 *
#1930000000
0!
0%
#1935000000
1!
1%
b10010110 (
b10010110 *
#1940000000
0!
0%
#1945000000
1!
1%
b10010111 (
b10010111 *
#1950000000
0!
0%
#1955000000
1!
1%
b10011000 (
b10011000 *
#1960000000
0!
0%
#1965000000
1!
1%
b10011001 (
b10011001 *
#1970000000
0!
0%
#1975000000
1!
1%
b10011010 (
b10011010 *
#1980000000
0!
0%
#1985000000
1!
1%
b10011011 (
b10011011 *
#1990000000
0!
0%
#1995000000
1!
1%
b10011100 (
b10011100 *
#2000000000
0!
0%
#2005000000
1!
1%
b10011101 (
b10011101 *
#2010000000
0!
0%
#2015000000
1!
1%
b10011110 (
b10011110 *
#2020000000
0!
0%
#2025000000
1!
1%
b10011111 (
b10011111 *
#2030000000
0!
0%
#2035000000
1!
1%
b10100000 (
b10100000 *
#2040000000
0!
0%
#2045000000
1!
1%
b10100001 (
b10100001 *
#2050000000
0!
0%
#2055000000
1!
1%
b10100010 (
b10100010 *
#2060000000
0!
0%
#2065000000
1!
1%
b10100011 (
b10100011 *
#2070000000
0!
0%
#2075000000
1!
1%
b10100100 (
b10100100 *
#2080000000
0!
0%
#2085000000
1!
1%
b10100101 (
b10100101 *
#2090000000
0!
0%
#2095000000
1!
1%
b10100110 (
b10100110 *
#2100000000
0!
0%
#2105000000
1!
1%
b10100111 (
b10100111 *
#2110000000
0!
0%
#2115000000
1!
1%
b10101000 (
b10101000 *
#2120000000
0!
0%
#2125000000
1!
1%
b10101001 (
b10101001 *
#2130000000
0!
0%
#2135000000
1!
1%
b10101010 (
b10101010 *
#2140000000
0!
0%
#2145000000
1!
1%
b10101011 (
b10101011 *
#2150000000
0!
0%
#2155000000
1!
1%
b10101100 (
b10101100 *
#2160000000
0!
0%
#2165000000
1!
1%
b10101101 (
b10101101 *
#2170000000
0!
0%
#2175000000
1!
1%
b10101110 (
b10101110 *
#2180000000
0!
0%
#2185000000
1!
1%
b10101111 (
b10101111 *
#2190000000
0!
0%
#2195000000
1!
1%
b10110000 (
b10110000 *
#2200000000
0!
0%
#2205000000
1!
1%
b10110001 (
b10110001 *
#2210000000
0!
0%
#2215000000
1!
1%
b10110010 (
b10110010 *
#2220000000
0!
0%
#2225000000
1!
1%
b10110011 (
b10110011 *
#2230000000
0!
0%
#2235000000
1!
1%
b10110100 (
b10110100 *
#2240000000
0!
0%
#2245000000
1!
1%
b10110101 (
b10110101 *
#2250000000
0!
0%
#2255000000
1!
1%
b10110110 (
b10110110 *
#2260000000
0!
0%
#2265000000
1!
1%
b10110111 (
b10110111 *
#2270000000
0!
0%
#2275000000
1!
1%
b10111000 (
b10111000 *
#2280000000
0!
0%
#2285000000
1!
1%
b10111001 (
b10111001 *
#2290000000
0!
0%
#2295000000
1!
1%
b10111010 (
b10111010 *
#2300000000
0!
0%
#2305000000
1!
1%
b10111011 (
b10111011 *
#2310000000
0!
0%
#2315000000
1!
1%
b10111100 (
b10111100 *
#2320000000
0!
0%
#2325000000
1!
1%
b10111101 (
b10111101 *
#2330000000
0!
0%
#2335000000
1!
1%
b10111110 (
b10111110 *
#2340000000
0!
0%
#2345000000
1!
1%
b10111111 (
b10111111 *
#2350000000
0!
0%
#2355000000
1!
1%
b11000000 (
b11000000 *
#2360000000
0!
0%
#2365000000
1!
1%
b11000001 (
b11000001 *
#2370000000
0!
0%
#2375000000
1!
1%
b11000010 (
b11000010 *
#2380000000
0!
0%
#2385000000
1!
1%
b11000011 (
b11000011 *
#2390000000
0!
0%
#2395000000
1!
1%
b11000100 (
b11000100 *
#2400000000
0!
0%
#2405000000
1!
1%
b11000101 (
b11000101 *
#2410000000
0!
0%
#2415000000
1!
1%
b11000110 (
b11000110 *
#2420000000
0!
0%
#2425000000
1!
1%
b11000111 (
b11000111 *
#2430000000
0!
0%
#2435000000
1!
1%
b11001000 (
b11001000 *
#2440000000
0!
0%
#2445000000
1!
1%
b11001001 (
b11001001 *
#2450000000
0!
0%
#2455000000
1!
1%
b11001010 (
b11001010 *
#2460000000
0!
0%
#2465000000
1!
1%
b11001011 (
b11001011 *
#2470000000
0!
0%
#2475000000
1!
1%
b11001100 (
b11001100 *
#2480000000
0!
0%
#2485000000
1!
1%
b11001101 (
b11001101 *
#2490000000
0!
0%
#2495000000
1!
1%
b11001110 (
b11001110 *
#2500000000
0!
0%
#2505000000
1!
1%
b11001111 (
b11001111 *
#2510000000
0!
0%
#2515000000
1!
1%
b11010000 (
b11010000 *
#2520000000
0!
0%
#2525000000
1!
1%
b11010001 (
b11010001 *
#2530000000
0!
0%
#2535000000
1!
1%
b11010010 (
b11010010 *
#2540000000
0!
0%
#2545000000
1!
1%
b11010011 (
b11010011 *
#2550000000
0!
0%
#2555000000
1!
1%
b11010100 (
b11010100 *
#2560000000
0!
0%
#2565000000
1!
1%
b11010101 (
b11010101 *
#2570000000
0!
0%
#2575000000
1!
1%
b11010110 (
b11010110 *
#2580000000
0!
0%
#2585000000
1!
1%
b11010111 (
b11010111 *
#2590000000
0!
0%
#2595000000
1!
1%
b11011000 (
b11011000 *
#2600000000
0!
0%
#2605000000
1!
1%
b11011001 (
b11011001 *
#2610000000
0!
0%
#2615000000
1!
1%
b11011010 (
b11011010 *
#2620000000
0!
0%
#2625000000
1!
1%
b11011011 (
b11011011 *
#2630000000
0!
0%
#2635000000
1!
1%
b11011100 (
b11011100 *
#2640000000
0!
0%
#2645000000
1!
1%
b11011101 (
b11011101 *
#2650000000
0!
0%
#2655000000
1!
1%
b11011110 (
b11011110 *
#2660000000
0!
0%
#2665000000
1!
1%
b11011111 (
b11011111 *
#2670000000
0!
0%
#2675000000
1!
1%
b11100000 (
b11100000 *
#2680000000
0!
0%
#2685000000
1!
1%
b11100001 (
b11100001 *
#2690000000
0!
0%
#2695000000
1!
1%
b11100010 (
b11100010 *
#2700000000
0!
0%
#2705000000
1!
1%
b11100011 (
b11100011 *
#2710000000
0!
0%
#2715000000
1!
1%
b11100100 (
b11100100 *
#2720000000
0!
0%
#2725000000
1!
1%
b11100101 (
b11100101 *
#2730000000
0!
0%
#2735000000
1!
1%
b11100110 (
b11100110 *
#2740000000
0!
0%
#2745000000
1!
1%
b11100111 (
b11100111 *
#2750000000
0!
0%
#2755000000
1!
1%
b11101000 (
b11101000 *
#2760000000
0!
0%
#2765000000
1!
1%
b11101001 (
b11101001 *
#2770000000
0!
0%
#2775000000
1!
1%
b11101010 (
b11101010 *
#2780000000
0!
0%
#2785000000
1!
1%
b11101011 (
b11101011 *
#2790000000
0!
0%
#2795000000
1!
1%
b11101100 (
b11101100 *
#2800000000
0!
0%
#2805000000
1!
1%
b11101101 (
b11101101 *
#2810000000
0!
0%
#2815000000
1!
1%
b11101110 (
b11101110 *
#2820000000
0!
0%
#2825000000
1!
1%
b11101111 (
b11101111 *
#2830000000
0!
0%
#2835000000
1!
1%
b11110000 (
b11110000 *
#2840000000
0!
0%
#2845000000
1!
1%
b11110001 (
b11110001 *
#2850000000
0!
0%
#2855000000
1!
1%
b11110010 (
b11110010 *
#2860000000
0!
0%
#2865000000
1!
1%
b11110011 (
b11110011 *
#2870000000
0!
0%
#2875000000
1!
1%
b11110100 (
b11110100 *
#2880000000
0!
0%
#2885000000
1!
1%
b11110101 (
b11110101 *
#2890000000
0!
0%
#2895000000
1!
1%
b11110110 (
b11110110 *
#2900000000
0!
0%
#2905000000
1!
1%
b11110111 (
b11110111 *
#2910000000
0!
0%
#2915000000
1!
1%
b11111000 (
b11111000 *
#2920000000
0!
0%
#2925000000
1!
1%
b11111001 (
b11111001 *
#2930000000
0!
0%
#2935000000
1!
1%
b11111010 (
b11111010 *
#2940000000
0!
0%
#2945000000
1!
1%
b11111011 (
b11111011 *
#2950000000
0!
0%
#2955000000
1!
1%
b11111100 (
b11111100 *
#2960000000
0!
0%
#2965000000
1!
1%
b11111101 (
b11111101 *
#2970000000
0!
0%
#2975000000
1!
1%
b11111110 (
b11111110 *
#2980000000
0!
0%
#2985000000
1!
1%
b11111111 (
1)
b11111111 *
#2990000000
0!
0%
#2995000000
1!
1%
b00000000 (
0)
b00000000 *
#3000000000
0!
0%
#3005000000
1!
1%
b00000001 (
b00000001 *
#3010000000
0!
0%
#3015000000
1!
1%
b00000010 (
b00000010 *
#3020000000
0!
0%
#3025000000
1!
1%
b00000011 (
b00000011 *
#3030000000
0!
0%
#3035000000
1!
1%
b00000100 (
b00000100 *
#3040000000
0!
0%
#3045000000
1!
1%
b00000101 (
b00000101 *
#3050000000
0!
0%
#3055000000
1!
1%
b00000110 (
b00000110 *
#3060000000
0!
0%
#3065000000
1!
1%
b00000111 (
b00000111 *
#3070000000
0!
0%
#3075000000
1!
1%
b00001000 (
b00001000 *
#3080000000
0!
0%
#3085000000
1!
1%
b00001001 (
b00001001 *
#3090000000
0!
0%
#3095000000
1!
1%
b00001010 (
b00001010 *
#3100000000
0!
0%
#3105000000
1!
1%
b00001011 (
b00001011 *
#3110000000
0!
0%
#3115000000
1!
1%
b00001100 (
b00001100 *
#3120000000
0!
0%
#3125000000
1!
1%
b00001101 (
b00001101 *
#3130000000
0!
0%
#3135000000
1!
1%
b00001110 (
b00001110 *
#3140000000
0!
0%
#3145000000
1!
1%
b00001111 (
b00001111 *
#3150000000
0!
0%
#3155000000
1!
1%
b00010000 (
b00010000 *
#3160000000
0!
0%
#3165000000
1!
1%
b00010001 (
b00010001 *
#3170000000
0!
0%
#3175000000
1!
1%
b00010010 (
b00010010 *
#3180000000
0!
0%
#3185000000
1!
1%
b00010011 (
b00010011 *
#3190000000
0!
0%
#3195000000
1!
1%
b00010100 (
b00010100 *
#3200000000
0!
0%
#3205000000
1!
1%
b00010101 (
b00010101 *
#3210000000
0!
0%
#3215000000
1!
1%
b00010110 (
b00010110 *
#3220000000
0!
0%
#3225000000
1!
1%
b00010111 (
b00010111 *
#3230000000
0!
0%
#3235000000
1!
1%
b00011000 (
b00011000 *
#3240000000
0!
0%
#3245000000
1!
1%
b00011001 (
b00011001 *
#3250000000
0!
0%
#3255000000
1!
1%
b00011010 (
b00011010 *
#3260000000
0!
0%
#3265000000
1!
1%
b00011011 (
b00011011 *
#3270000000
0!
0%
#3275000000
1!
1%
b00011100 (
b00011100 *
#3280000000
0!
0%
#3285000000
1!
1%
b00011101 (
b00011101 *
#3290000000
0!
0%
#3295000000
1!
1%
b00011110 (
b00011110 *
#3300000000
0!
0%
#3305000000
1!
1%
b00011111 (
b00011111 *
#3310000000
0!
0%
#3315000000
1!
1%
b00100000 (
b00100000 *
#3320000000
0!
0%
#3325000000
1!
1%
b00100001 (
b00100001 *
#3330000000
0!
0%
#3335000000
1!
1%
b00100010 (
b00100010 *
#3340000000
0!
0%
#3345000000
1!
1%
b00100011 (
b00100011 *
#3350000000
0!
0%
#3355000000
1!
1%
b00100100 (
b00100100 *
#3360000000
0!
0%
#3365000000
1!
1%
b00100101 (
b00100101 *
#3370000000
0!
0%
#3375000000
1!
1%
b00100110 (
b00100110 *
#3380000000
0!
0%
#3385000000
1!
1%
b00100111 (
b00100111 *
#3390000000
0!
0%
#3395000000
1!
1%
b00101000 (
b00101000 *
#3400000000
0!
0%
#3405000000
1!
1%
b00101001 (
b00101001 *
#3410000000
0!
0%
#3415000000
1!
1%
b00101010 (
b00101010 *
#3420000000
0!
0%
#3425000000
1!
1%
b00101011 (
b00101011 *
#3430000000
0!
0%
#3435000000
1!
1%
b00101100 (
b00101100 *
#3440000000
0!
0%
#3445000000
1!
1%
b00101101 (
b00101101 *
#3450000000
0!
0%
#3455000000
1!
1%
b00101110 (
b00101110 *
#3460000000
0!
0%
#3465000000
1!
1%
b00101111 (
b00101111 *
#3470000000
0!
0%
#3475000000
1!
1%
b00110000 (
b00110000 *
#3480000000
0!
0%
#3485000000
1!
1%
b00110001 (
b00110001 *
#3490000000
0!
0%
#3495000000
1!
1%
b00110010 (
b00110010 *
#3500000000
0!
0%
#3505000000
1!
1%
b00110011 (
b00110011 *
#3510000000
0!
0%
#3515000000
1!
1%
b00110100 (
b00110100 *
#3520000000
0!
0%
#3525000000
1!
1%
b00110101 (
b00110101 *
#3530000000
0!
0%
#3535000000
1!
1%
b00110110 (
b00110110 *
#3540000000
0!
0%
#3545000000
1!
1%
b00110111 (
b00110111 *
#3550000000
0!
0%
#3555000000
1!
1%
b00111000 (
b00111000 *
#3560000000
0!
0%
#3565000000
1!
1%
b00111001 (
b00111001 *
#3570000000
0!
0%
#3575000000
1!
1%
b00111010 (
b00111010 *
#3580000000
0!
0%
#3585000000
1!
1%
b00111011 (
b00111011 *
#3590000000
0!
0%
#3595000000
1!
1%
b00111100 (
b00111100 *
#3600000000
0!
0%
#3605000000
1!
1%
b00111101 (
b00111101 *
#3610000000
0!
0%
#3615000000
1!
1%
b00111110 (
b00111110 *
#3620000000
0!
0%
#3625000000
1!
1%
b00111111 (
b00111111 *
#3630000000
0!
0%
#3635000000
1!
1%
b01000000 (
b01000000 *
#3640000000
0!
0%
#3645000000
1!
1%
b01000001 (
b01000001 *
#3650000000
0!
0%
#3655000000
1!
1%
b01000010 (
b01000010 *
#3660000000
0!
0%
#3665000000
1!
1%
b01000011 (
b01000011 *
#3670000000
0!
0%
#3675000000
1!
1%
b01000100 (
b01000100 *
#3680000000
0!
0%
#3685000000
1!
1%
b01000101 (
b01000101 *
#3690000000
0!
0%
#3695000000
1!
1%
b01000110 (
b01000110 *
#3700000000
0!
0%
#3705000000
1!
1%
b01000111 (
b01000111 *
#3710000000
0!
0%
#3715000000
1!
1%
b01001000 (
b01001000 *
#3720000000
0!
0%
#3725000000
1!
1%
b01001001 (
b01001001 *
#3730000000
0!
0%
#3735000000
1!
1%
b01001010 (
b01001010 *
#3740000000
0!
0%
#3745000000
1!
1%
b01001011 (
b01001011 *
#3750000000
0!
0%
#3755000000
1!
1%
b01001100 (
b01001100 *
#3760000000
0!
0%
#3765000000
1!
1%
b01001101 (
b01001101 *
#3770000000
0!
0%
#3775000000
1!
1%
b01001110 (
b01001110 *
#3780000000
0!
0%
#3785000000
1!
1%
b01001111 (
b01001111 *
#3790000000
0!
0%
#3795000000
1!
1%
b01010000 (
b01010000 *
#3800000000
0!
0%
#3805000000
1!
1%
b01010001 (
b01010001 *
#3810000000
0!
0%
#3815000000
1!
1%
b01010010 (
b01010010 *
#3820000000
0!
0%
#3825000000
1!
1%
b01010011 (
b01010011 *
#3830000000
0!
0%
#3835000000
1!
1%
b01010100 (
b01010100 *
#3840000000
0!
0%
#3845000000
1!
1%
b01010101 (
b01010101 *
#3850000000
0!
0%
#3855000000
1!
1%
b01010110 (
b01010110 *
#3860000000
0!
0%
#3865000000
1!
1%
b01010111 (
b01010111 *
#3870000000
0!
0%
#3875000000
1!
1%
b01011000 (
b01011000 *
#3880000000
0!
0%
#3885000000
1!
1%
b01011001 (
b01011001 *
#3890000000
0!
0%
#3895000000
1!
1%
b01011010 (
b01011010 *
#3900000000
0!
0%
#3905000000
1!
1%
b01011011 (
b01011011 *
#3910000000
0!
0%
#3915000000
1!
1%
b01011100 (
b01011100 *
#3920000000
0!
0%
#3925000000
1!
1%
b01011101 (
b01011101 *
#3930000000
0!
0%
#3935000000
1!
1%
b01011110 (
b01011110 *
#3940000000
0!
0%
#3945000000
1!
1%
b01011111 (
b01011111 *
#3950000000
0!
0%
#3955000000
1!
1%
b01100000 (
b01100000 *
#3960000000
0!
0%
#3965000000
1!
1%
b01100001 (
b01100001 *
#3970000000
0!
0%
#3975000000
1!
1%
b01100010 (
b01100010 *
#3980000000
0!
0%
#3985000000
1!
1%
b01100011 (
b01100011 *
#3990000000
0!
0%
#3995000000
1!
1%
b01100100 (
b01100100 *
#4000000000
0!
0%
#4005000000
1!
1%
b01100101 (
b01100101 *
#4010000000
0!
0%
#4015000000
1!
1%
b01100110 (
b01100110 *
#4020000000
0!
0%
#4025000000
1!
1%
b01100111 (
b01100111 *
